#
# There is insufficient memory for the Java Runtime Environment to continue.
# Native memory allocation (mmap) failed to map 23068672 bytes for committing reserved memory.
# Possible reasons:
#   The system is out of physical RAM or swap space
#   In 32 bit mode, the process size limit was hit
# Possible solutions:
#   Reduce memory load on the system
#   Increase physical memory or swap space
#   Check if swap backing store is full
#   Use 64 bit Java on a 64 bit OS
#   Decrease Java heap size (-Xmx/-Xms)
#   Decrease number of Java threads
#   Decrease Java thread stack sizes (-Xss)
#   Set larger code cache with -XX:ReservedCodeCacheSize=
# This output file may be truncated or incomplete.
#
#  Out of Memory Error (os_linux.cpp:2671), pid=9550, tid=140415988242176
#
# JRE version: Java(TM) SE Runtime Environment (8.0_25-b17) (build 1.8.0_25-b17)
# Java VM: Java HotSpot(TM) 64-Bit Server VM (25.25-b02 mixed mode linux-amd64 compressed oops)
# Failed to write core dump. Core dumps have been disabled. To enable core dumping, try "ulimit -c unlimited" before starting Java again
#

---------------  T H R E A D  ---------------

Current thread (0x00007fb53c073000):  VMThread [stack: 0x00007fb525099000,0x00007fb52519a000] [id=9558]

Stack: [0x00007fb525099000,0x00007fb52519a000],  sp=0x00007fb5251981f0,  free space=1020k
Native frames: (J=compiled Java code, j=interpreted, Vv=VM code, C=native code)
V  [libjvm.so+0xa7923a]  VMError::report_and_die()+0x2ca
V  [libjvm.so+0x4e552b]  report_vm_out_of_memory(char const*, int, unsigned long, VMErrorType, char const*)+0x8b
V  [libjvm.so+0x8e5613]  os::Linux::commit_memory_impl(char*, unsigned long, bool)+0x103
V  [libjvm.so+0x8e5b69]  os::pd_commit_memory(char*, unsigned long, unsigned long, bool)+0x29
V  [libjvm.so+0x8df83a]  os::commit_memory(char*, unsigned long, unsigned long, bool)+0x2a
V  [libjvm.so+0x94f923]  PSVirtualSpace::expand_by(unsigned long)+0x53
V  [libjvm.so+0x950d28]  PSYoungGen::resize_generation(unsigned long, unsigned long)+0xf8
V  [libjvm.so+0x94fe82]  PSYoungGen::resize(unsigned long, unsigned long)+0x22
V  [libjvm.so+0x94d163]  PSScavenge::invoke_no_policy()+0xf53
V  [libjvm.so+0x94d8e1]  PSScavenge::invoke()+0x41
V  [libjvm.so+0x907800]  ParallelScavengeHeap::failed_mem_allocate(unsigned long)+0x70
V  [libjvm.so+0xa7a8b7]  VM_ParallelGCFailedAllocation::doit()+0x97
V  [libjvm.so+0xa81fd5]  VM_Operation::evaluate()+0x55
V  [libjvm.so+0xa803aa]  VMThread::evaluate_operation(VM_Operation*)+0xba
V  [libjvm.so+0xa8072e]  VMThread::loop()+0x1ce
V  [libjvm.so+0xa80ba0]  VMThread::run()+0x70
V  [libjvm.so+0x8e7d48]  java_start(Thread*)+0x108

VM_Operation (0x00007fb5435f2490): ParallelGCFailedAllocation, mode: safepoint, requested by thread 0x00007fb53c00a000


---------------  P R O C E S S  ---------------

Java Threads: ( => current thread )
  0x00007fb53c44f000 JavaThread "resolver-4" daemon [_thread_blocked, id=9577, stack(0x00007fb51e04f000,0x00007fb51e150000)]
  0x00007fb53c44e000 JavaThread "resolver-3" daemon [_thread_blocked, id=9576, stack(0x00007fb51e620000,0x00007fb51e721000)]
  0x00007fb53c44d800 JavaThread "resolver-2" daemon [_thread_blocked, id=9575, stack(0x00007fb51e721000,0x00007fb51e822000)]
  0x00007fb53c425000 JavaThread "resolver-1" daemon [_thread_blocked, id=9574, stack(0x00007fb524019000,0x00007fb52411a000)]
  0x00007fb53c5d3800 JavaThread "process reaper" daemon [_thread_blocked, id=9569, stack(0x00007fb524320000,0x00007fb524359000)]
  0x00007fb53c0c0000 JavaThread "Service Thread" daemon [_thread_blocked, id=9565, stack(0x00007fb5246c8000,0x00007fb5247c9000)]
  0x00007fb53c0b0000 JavaThread "C1 CompilerThread2" daemon [_thread_blocked, id=9564, stack(0x00007fb5247c9000,0x00007fb5248ca000)]
  0x00007fb53c0ae000 JavaThread "C2 CompilerThread1" daemon [_thread_blocked, id=9563, stack(0x00007fb5248ca000,0x00007fb5249cb000)]
  0x00007fb53c0ab000 JavaThread "C2 CompilerThread0" daemon [_thread_blocked, id=9562, stack(0x00007fb5249cb000,0x00007fb524acc000)]
  0x00007fb53c0a9000 JavaThread "Signal Dispatcher" daemon [_thread_blocked, id=9561, stack(0x00007fb524acc000,0x00007fb524bcd000)]
  0x00007fb53c07c000 JavaThread "Finalizer" daemon [_thread_blocked, id=9560, stack(0x00007fb524e97000,0x00007fb524f98000)]
  0x00007fb53c07a000 JavaThread "Reference Handler" daemon [_thread_blocked, id=9559, stack(0x00007fb524f98000,0x00007fb525099000)]
  0x00007fb53c00a000 JavaThread "main" [_thread_blocked, id=9553, stack(0x00007fb5434f8000,0x00007fb5435f9000)]

Other Threads:
=>0x00007fb53c073000 VMThread [stack: 0x00007fb525099000,0x00007fb52519a000] [id=9558]
  0x00007fb53c0c2000 WatcherThread [stack: 0x00007fb5245c7000,0x00007fb5246c8000] [id=9566]

VM state:at safepoint (normal execution)

VM Mutex/Monitor currently owned by a thread:  ([mutex/lock_event])
[0x00007fb53c006220] Threads_lock - owner thread: 0x00007fb53c073000
[0x00007fb53c006720] Heap_lock - owner thread: 0x00007fb53c00a000

Heap:
 PSYoungGen      total 147456K, used 6799K [0x00000000ebd80000, 0x00000000f5c80000, 0x0000000100000000)
  eden space 132096K, 0% used [0x00000000ebd80000,0x00000000ebd80000,0x00000000f3e80000)
  from space 15360K, 44% used [0x00000000f3e80000,0x00000000f4523d98,0x00000000f4d80000)
  to   space 14336K, 0% used [0x00000000f4e00000,0x00000000f4e00000,0x00000000f5c00000)
 ParOldGen       total 89600K, used 46099K [0x00000000c3800000, 0x00000000c8f80000, 0x00000000ebd80000)
  object space 89600K, 51% used [0x00000000c3800000,0x00000000c6504fa0,0x00000000c8f80000)
 Metaspace       used 27126K, capacity 27802K, committed 27904K, reserved 1073152K
  class space    used 3074K, capacity 3280K, committed 3328K, reserved 1048576K

Card table byte_map: [0x00007fb540135000,0x00007fb54031a000] byte_map_base: 0x00007fb53fb19000

Marking Bits: (ParMarkBitMap*) 0x00007fb5429d42c0
 Begin Bits: [0x00007fb5261c0000, 0x00007fb5270e0000)
 End Bits:   [0x00007fb5270e0000, 0x00007fb528000000)

Polling page: 0x00007fb54361b000

CodeCache: size=245760Kb used=21033Kb max_used=21417Kb free=224726Kb
 bounds [0x00007fb52d000000, 0x00007fb52e520000, 0x00007fb53c000000]
 total_blobs=6006 nmethods=5611 adapters=308
 compilation: enabled

Compilation events (10 events):
Event: 166,668 Thread 0x00007fb53c0b0000 nmethod 6689 0x00007fb52df40510 code [0x00007fb52df40680, 0x00007fb52df40870]
Event: 166,946 Thread 0x00007fb53c0b0000 6691       3       java.util.ResourceBundle::getObject (82 bytes)
Event: 166,947 Thread 0x00007fb53c0b0000 nmethod 6691 0x00007fb52e036150 code [0x00007fb52e0363c0, 0x00007fb52e037438]
Event: 166,947 Thread 0x00007fb53c0b0000 6690       3       sun.util.resources.OpenListResourceBundle::loadLookupTablesIfNecessary (12 bytes)
Event: 167,003 Thread 0x00007fb53c0b0000 nmethod 6690 0x00007fb52de5d490 code [0x00007fb52de5d600, 0x00007fb52de5d7c8]
Event: 167,003 Thread 0x00007fb53c0b0000 6692       3       sun.util.resources.OpenListResourceBundle::handleGetObject (27 bytes)
Event: 167,004 Thread 0x00007fb53c0b0000 nmethod 6692 0x00007fb52df1d610 code [0x00007fb52df1d7a0, 0x00007fb52df1dbe8]
Event: 175,466 Thread 0x00007fb53c0ab000 6696  s!   4       sun.misc.URLClassPath::getLoader (154 bytes)
Event: 175,966 Thread 0x00007fb53c0b0000 6697       3       java.util.Stack::empty (13 bytes)
Event: 176,212 Thread 0x00007fb53c0ae000 6699       4       java.util.Date::getTimeImpl (27 bytes)

GC Heap History (10 events):
Event: 10,344 GC heap after
Heap after GC invocations=10 (full 0):
 PSYoungGen      total 105984K, used 4295K [0x00000000ebd80000, 0x00000000f2d00000, 0x0000000100000000)
  eden space 97792K, 0% used [0x00000000ebd80000,0x00000000ebd80000,0x00000000f1d00000)
  from space 8192K, 52% used [0x00000000f2500000,0x00000000f2931d60,0x00000000f2d00000)
  to   space 8192K, 0% used [0x00000000f1d00000,0x00000000f1d00000,0x00000000f2500000)
 ParOldGen       total 42496K, used 14443K [0x00000000c3800000, 0x00000000c6180000, 0x00000000ebd80000)
  object space 42496K, 33% used [0x00000000c3800000,0x00000000c461adc0,0x00000000c6180000)
 Metaspace       used 20721K, capacity 21098K, committed 21248K, reserved 1067008K
  class space    used 2529K, capacity 2693K, committed 2816K, reserved 1048576K
}
Event: 10,344 GC heap before
{Heap before GC invocations=11 (full 1):
 PSYoungGen      total 105984K, used 4295K [0x00000000ebd80000, 0x00000000f2d00000, 0x0000000100000000)
  eden space 97792K, 0% used [0x00000000ebd80000,0x00000000ebd80000,0x00000000f1d00000)
  from space 8192K, 52% used [0x00000000f2500000,0x00000000f2931d60,0x00000000f2d00000)
  to   space 8192K, 0% used [0x00000000f1d00000,0x00000000f1d00000,0x00000000f2500000)
 ParOldGen       total 42496K, used 14443K [0x00000000c3800000, 0x00000000c6180000, 0x00000000ebd80000)
  object space 42496K, 33% used [0x00000000c3800000,0x00000000c461adc0,0x00000000c6180000)
 Metaspace       used 20721K, capacity 21098K, committed 21248K, reserved 1067008K
  class space    used 2529K, capacity 2693K, committed 2816K, reserved 1048576K
Event: 10,458 GC heap after
Heap after GC invocations=11 (full 1):
 PSYoungGen      total 105984K, used 0K [0x00000000ebd80000, 0x00000000f2d00000, 0x0000000100000000)
  eden space 97792K, 0% used [0x00000000ebd80000,0x00000000ebd80000,0x00000000f1d00000)
  from space 8192K, 0% used [0x00000000f2500000,0x00000000f2500000,0x00000000f2d00000)
  to   space 8192K, 0% used [0x00000000f1d00000,0x00000000f1d00000,0x00000000f2500000)
 ParOldGen       total 41472K, used 14066K [0x00000000c3800000, 0x00000000c6080000, 0x00000000ebd80000)
  object space 41472K, 33% used [0x00000000c3800000,0x00000000c45bc9e0,0x00000000c6080000)
 Metaspace       used 20721K, capacity 21098K, committed 21248K, reserved 1067008K
  class space    used 2529K, capacity 2693K, committed 2816K, reserved 1048576K
}
Event: 14,876 GC heap before
{Heap before GC invocations=12 (full 1):
 PSYoungGen      total 105984K, used 97792K [0x00000000ebd80000, 0x00000000f2d00000, 0x0000000100000000)
  eden space 97792K, 100% used [0x00000000ebd80000,0x00000000f1d00000,0x00000000f1d00000)
  from space 8192K, 0% used [0x00000000f2500000,0x00000000f2500000,0x00000000f2d00000)
  to   space 8192K, 0% used [0x00000000f1d00000,0x00000000f1d00000,0x00000000f2500000)
 ParOldGen       total 41472K, used 14066K [0x00000000c3800000, 0x00000000c6080000, 0x00000000ebd80000)
  object space 41472K, 33% used [0x00000000c3800000,0x00000000c45bc9e0,0x00000000c6080000)
 Metaspace       used 22204K, capacity 22634K, committed 22912K, reserved 1069056K
  class space    used 2656K, capacity 2821K, committed 2944K, reserved 1048576K
Event: 15,001 GC heap after
Heap after GC invocations=12 (full 1):
 PSYoungGen      total 105984K, used 8167K [0x00000000ebd80000, 0x00000000f5c00000, 0x0000000100000000)
  eden space 97792K, 0% used [0x00000000ebd80000,0x00000000ebd80000,0x00000000f1d00000)
  from space 8192K, 99% used [0x00000000f1d00000,0x00000000f24f9f38,0x00000000f2500000)
  to   space 14336K, 0% used [0x00000000f4e00000,0x00000000f4e00000,0x00000000f5c00000)
 ParOldGen       total 41472K, used 28562K [0x00000000c3800000, 0x00000000c6080000, 0x00000000ebd80000)
  object space 41472K, 68% used [0x00000000c3800000,0x00000000c53e4850,0x00000000c6080000)
 Metaspace       used 22204K, capacity 22634K, committed 22912K, reserved 1069056K
  class space    used 2656K, capacity 2821K, committed 2944K, reserved 1048576K
}
Event: 18,428 GC heap before
{Heap before GC invocations=13 (full 1):
 PSYoungGen      total 105984K, used 105959K [0x00000000ebd80000, 0x00000000f5c00000, 0x0000000100000000)
  eden space 97792K, 100% used [0x00000000ebd80000,0x00000000f1d00000,0x00000000f1d00000)
  from space 8192K, 99% used [0x00000000f1d00000,0x00000000f24f9f38,0x00000000f2500000)
  to   space 14336K, 0% used [0x00000000f4e00000,0x00000000f4e00000,0x00000000f5c00000)
 ParOldGen       total 41472K, used 28562K [0x00000000c3800000, 0x00000000c6080000, 0x00000000ebd80000)
  object space 41472K, 68% used [0x00000000c3800000,0x00000000c53e4850,0x00000000c6080000)
 Metaspace       used 24901K, capacity 25290K, committed 25600K, reserved 1071104K
  class space    used 2826K, capacity 2981K, committed 3072K, reserved 1048576K
Event: 18,467 GC heap after
Heap after GC invocations=13 (full 1):
 PSYoungGen      total 146432K, used 10691K [0x00000000ebd80000, 0x00000000f5c80000, 0x0000000100000000)
  eden space 132096K, 0% used [0x00000000ebd80000,0x00000000ebd80000,0x00000000f3e80000)
  from space 14336K, 74% used [0x00000000f4e00000,0x00000000f5870df0,0x00000000f5c00000)
  to   space 15360K, 0% used [0x00000000f3e80000,0x00000000f3e80000,0x00000000f4d80000)
 ParOldGen       total 41472K, used 36670K [0x00000000c3800000, 0x00000000c6080000, 0x00000000ebd80000)
  object space 41472K, 88% used [0x00000000c3800000,0x00000000c5bcf860,0x00000000c6080000)
 Metaspace       used 24901K, capacity 25290K, committed 25600K, reserved 1071104K
  class space    used 2826K, capacity 2981K, committed 3072K, reserved 1048576K
}
Event: 18,467 GC heap before
{Heap before GC invocations=14 (full 2):
 PSYoungGen      total 146432K, used 10691K [0x00000000ebd80000, 0x00000000f5c80000, 0x0000000100000000)
  eden space 132096K, 0% used [0x00000000ebd80000,0x00000000ebd80000,0x00000000f3e80000)
  from space 14336K, 74% used [0x00000000f4e00000,0x00000000f5870df0,0x00000000f5c00000)
  to   space 15360K, 0% used [0x00000000f3e80000,0x00000000f3e80000,0x00000000f4d80000)
 ParOldGen       total 41472K, used 36670K [0x00000000c3800000, 0x00000000c6080000, 0x00000000ebd80000)
  object space 41472K, 88% used [0x00000000c3800000,0x00000000c5bcf860,0x00000000c6080000)
 Metaspace       used 24901K, capacity 25290K, committed 25600K, reserved 1071104K
  class space    used 2826K, capacity 2981K, committed 3072K, reserved 1048576K
Event: 18,833 GC heap after
Heap after GC invocations=14 (full 2):
 PSYoungGen      total 146432K, used 4952K [0x00000000ebd80000, 0x00000000f5c80000, 0x0000000100000000)
  eden space 132096K, 0% used [0x00000000ebd80000,0x00000000ebd80000,0x00000000f3e80000)
  from space 14336K, 34% used [0x00000000f4e00000,0x00000000f52d6390,0x00000000f5c00000)
  to   space 15360K, 0% used [0x00000000f3e80000,0x00000000f3e80000,0x00000000f4d80000)
 ParOldGen       total 89600K, used 41221K [0x00000000c3800000, 0x00000000c8f80000, 0x00000000ebd80000)
  object space 89600K, 46% used [0x00000000c3800000,0x00000000c60414d0,0x00000000c8f80000)
 Metaspace       used 24901K, capacity 25290K, committed 25600K, reserved 1071104K
  class space    used 2826K, capacity 2981K, committed 3072K, reserved 1048576K
}
Event: 176,592 GC heap before
{Heap before GC invocations=15 (full 2):
 PSYoungGen      total 146432K, used 137048K [0x00000000ebd80000, 0x00000000f5c80000, 0x0000000100000000)
  eden space 132096K, 100% used [0x00000000ebd80000,0x00000000f3e80000,0x00000000f3e80000)
  from space 14336K, 34% used [0x00000000f4e00000,0x00000000f52d6390,0x00000000f5c00000)
  to   space 15360K, 0% used [0x00000000f3e80000,0x00000000f3e80000,0x00000000f4d80000)
 ParOldGen       total 89600K, used 41221K [0x00000000c3800000, 0x00000000c8f80000, 0x00000000ebd80000)
  object space 89600K, 46% used [0x00000000c3800000,0x00000000c60414d0,0x00000000c8f80000)
 Metaspace       used 27126K, capacity 27802K, committed 27904K, reserved 1073152K
  class space    used 3074K, capacity 3280K, committed 3328K, reserved 1048576K

Deoptimization events (10 events):
Event: 161,148 Thread 0x00007fb53c00a000 Uncommon trap: reason=class_check action=maybe_recompile pc=0x00007fb52d88af40 method=java.util.regex.Pattern$7.isSatisfiedBy(I)Z @ 16
Event: 161,148 Thread 0x00007fb53c00a000 Uncommon trap: reason=class_check action=maybe_recompile pc=0x00007fb52d88af40 method=java.util.regex.Pattern$7.isSatisfiedBy(I)Z @ 16
Event: 161,148 Thread 0x00007fb53c00a000 Uncommon trap: reason=bimorphic action=maybe_recompile pc=0x00007fb52d88af54 method=java.util.regex.Pattern$CharProperty$1.isSatisfiedBy(I)Z @ 5
Event: 161,148 Thread 0x00007fb53c00a000 Uncommon trap: reason=class_check action=maybe_recompile pc=0x00007fb52d88af40 method=java.util.regex.Pattern$7.isSatisfiedBy(I)Z @ 16
Event: 161,148 Thread 0x00007fb53c00a000 Uncommon trap: reason=class_check action=maybe_recompile pc=0x00007fb52d88af40 method=java.util.regex.Pattern$7.isSatisfiedBy(I)Z @ 16
Event: 161,148 Thread 0x00007fb53c00a000 Uncommon trap: reason=bimorphic action=maybe_recompile pc=0x00007fb52dac30b8 method=java.util.regex.Pattern$CharProperty$1.isSatisfiedBy(I)Z @ 5
Event: 161,148 Thread 0x00007fb53c00a000 Uncommon trap: reason=bimorphic action=maybe_recompile pc=0x00007fb52dac30b8 method=java.util.regex.Pattern$CharProperty$1.isSatisfiedBy(I)Z @ 5
Event: 161,148 Thread 0x00007fb53c00a000 Uncommon trap: reason=bimorphic action=maybe_recompile pc=0x00007fb52dac30b8 method=java.util.regex.Pattern$CharProperty$1.isSatisfiedBy(I)Z @ 5
Event: 161,148 Thread 0x00007fb53c00a000 Uncommon trap: reason=speculate_class_check action=maybe_recompile pc=0x00007fb52d8ca160 method=java.util.ArrayList.<init>(Ljava/util/Collection;)V @ 36
Event: 161,148 Thread 0x00007fb53c00a000 Uncommon trap: reason=speculate_class_check action=maybe_recompile pc=0x00007fb52d8ca160 method=java.util.ArrayList.<init>(Ljava/util/Collection;)V @ 36

Internal exceptions (10 events):
Event: 176,292 Thread 0x00007fb53c00a000 Exception <a 'java/security/PrivilegedActionException'> (0x00000000f3e3ce78) thrown at [/HUDSON/workspace/8-2-build-linux-amd64/jdk8u25/1514/hotspot/src/share/vm/prims/jvm.cpp, line 1312]
Event: 176,392 Thread 0x00007fb53c00a000 Exception <a 'java/security/PrivilegedActionException'> (0x00000000f3e43b50) thrown at [/HUDSON/workspace/8-2-build-linux-amd64/jdk8u25/1514/hotspot/src/share/vm/prims/jvm.cpp, line 1312]
Event: 176,392 Thread 0x00007fb53c00a000 Exception <a 'java/security/PrivilegedActionException'> (0x00000000f3e4c300) thrown at [/HUDSON/workspace/8-2-build-linux-amd64/jdk8u25/1514/hotspot/src/share/vm/prims/jvm.cpp, line 1312]
Event: 176,393 Thread 0x00007fb53c00a000 Exception <a 'java/security/PrivilegedActionException'> (0x00000000f3e527a0) thrown at [/HUDSON/workspace/8-2-build-linux-amd64/jdk8u25/1514/hotspot/src/share/vm/prims/jvm.cpp, line 1312]
Event: 176,393 Thread 0x00007fb53c00a000 Exception <a 'java/security/PrivilegedActionException'> (0x00000000f3e59360) thrown at [/HUDSON/workspace/8-2-build-linux-amd64/jdk8u25/1514/hotspot/src/share/vm/prims/jvm.cpp, line 1312]
Event: 176,393 Thread 0x00007fb53c00a000 Exception <a 'java/security/PrivilegedActionException'> (0x00000000f3e5f650) thrown at [/HUDSON/workspace/8-2-build-linux-amd64/jdk8u25/1514/hotspot/src/share/vm/prims/jvm.cpp, line 1312]
Event: 176,394 Thread 0x00007fb53c00a000 Exception <a 'java/security/PrivilegedActionException'> (0x00000000f3e67390) thrown at [/HUDSON/workspace/8-2-build-linux-amd64/jdk8u25/1514/hotspot/src/share/vm/prims/jvm.cpp, line 1312]
Event: 176,442 Thread 0x00007fb53c00a000 Exception <a 'java/security/PrivilegedActionException'> (0x00000000f3e6d098) thrown at [/HUDSON/workspace/8-2-build-linux-amd64/jdk8u25/1514/hotspot/src/share/vm/prims/jvm.cpp, line 1312]
Event: 176,443 Thread 0x00007fb53c00a000 Exception <a 'java/security/PrivilegedActionException'> (0x00000000f3e74cf0) thrown at [/HUDSON/workspace/8-2-build-linux-amd64/jdk8u25/1514/hotspot/src/share/vm/prims/jvm.cpp, line 1312]
Event: 176,444 Thread 0x00007fb53c00a000 Exception <a 'java/security/PrivilegedActionException'> (0x00000000f3e7b040) thrown at [/HUDSON/workspace/8-2-build-linux-amd64/jdk8u25/1514/hotspot/src/share/vm/prims/jvm.cpp, line 1312]

Events (10 events):
Event: 176,443 loading class com/thoughtworks/xstream/core/util/Base64Encoder done
Event: 176,444 loading class com/thoughtworks/xstream/converters/extended/FileConverter
Event: 176,444 loading class com/thoughtworks/xstream/converters/extended/FileConverter done
Event: 176,444 loading class com/thoughtworks/xstream/converters/extended/FileConverter
Event: 176,444 loading class com/thoughtworks/xstream/converters/extended/FileConverter done
Event: 176,444 loading class com/thoughtworks/xstream/converters/extended/SqlTimestampConverter
Event: 176,444 loading class com/thoughtworks/xstream/converters/extended/SqlTimestampConverter done
Event: 176,444 loading class com/thoughtworks/xstream/converters/extended/SqlTimestampConverter
Event: 176,444 loading class com/thoughtworks/xstream/converters/extended/SqlTimestampConverter done
Event: 176,486 Executing VM operation: ParallelGCFailedAllocation


Dynamic libraries:
00400000-00401000 r-xp 00000000 08:03 792703                             /usr/local/java/jdk1.8.0_25/bin/java
00600000-00601000 rw-p 00000000 08:03 792703                             /usr/local/java/jdk1.8.0_25/bin/java
01987000-019a8000 rw-p 00000000 00:00 0                                  [heap]
c3800000-c8f80000 rw-p 00000000 00:00 0 
c8f80000-ebd80000 ---p 00000000 00:00 0 
ebd80000-f5c80000 rw-p 00000000 00:00 0 
f7280000-100000000 ---p 00000000 00:00 0 
100000000-100340000 rw-p 00000000 00:00 0 
100340000-140000000 ---p 00000000 00:00 0 
7fb4d0000000-7fb4d0021000 rw-p 00000000 00:00 0 
7fb4d0021000-7fb4d4000000 ---p 00000000 00:00 0 
7fb4d4000000-7fb4d4021000 rw-p 00000000 00:00 0 
7fb4d4021000-7fb4d8000000 ---p 00000000 00:00 0 
7fb4d8000000-7fb4d8021000 rw-p 00000000 00:00 0 
7fb4d8021000-7fb4dc000000 ---p 00000000 00:00 0 
7fb4dc000000-7fb4dc021000 rw-p 00000000 00:00 0 
7fb4dc021000-7fb4e0000000 ---p 00000000 00:00 0 
7fb4e0000000-7fb4e0021000 rw-p 00000000 00:00 0 
7fb4e0021000-7fb4e4000000 ---p 00000000 00:00 0 
7fb4e4000000-7fb4e4021000 rw-p 00000000 00:00 0 
7fb4e4021000-7fb4e8000000 ---p 00000000 00:00 0 
7fb4e8000000-7fb4e8021000 rw-p 00000000 00:00 0 
7fb4e8021000-7fb4ec000000 ---p 00000000 00:00 0 
7fb4ec000000-7fb4ec058000 rw-p 00000000 00:00 0 
7fb4ec058000-7fb4f0000000 ---p 00000000 00:00 0 
7fb4f0000000-7fb4f0021000 rw-p 00000000 00:00 0 
7fb4f0021000-7fb4f4000000 ---p 00000000 00:00 0 
7fb4f4000000-7fb4f4021000 rw-p 00000000 00:00 0 
7fb4f4021000-7fb4f8000000 ---p 00000000 00:00 0 
7fb4f8000000-7fb4f9292000 rw-p 00000000 00:00 0 
7fb4f9292000-7fb4fc000000 ---p 00000000 00:00 0 
7fb4fc000000-7fb4fce5b000 rw-p 00000000 00:00 0 
7fb4fce5b000-7fb500000000 ---p 00000000 00:00 0 
7fb500000000-7fb500021000 rw-p 00000000 00:00 0 
7fb500021000-7fb504000000 ---p 00000000 00:00 0 
7fb504000000-7fb505908000 rw-p 00000000 00:00 0 
7fb505908000-7fb508000000 ---p 00000000 00:00 0 
7fb508000000-7fb508021000 rw-p 00000000 00:00 0 
7fb508021000-7fb50c000000 ---p 00000000 00:00 0 
7fb50c000000-7fb50c021000 rw-p 00000000 00:00 0 
7fb50c021000-7fb510000000 ---p 00000000 00:00 0 
7fb510000000-7fb510021000 rw-p 00000000 00:00 0 
7fb510021000-7fb514000000 ---p 00000000 00:00 0 
7fb514000000-7fb51437d000 rw-p 00000000 00:00 0 
7fb51437d000-7fb518000000 ---p 00000000 00:00 0 
7fb518000000-7fb518021000 rw-p 00000000 00:00 0 
7fb518021000-7fb51c000000 ---p 00000000 00:00 0 
7fb51c691000-7fb51c696000 r-xp 00000000 08:03 15736090                   /usr/lib/x86_64-linux-gnu/libXdmcp.so.6.0.0
7fb51c696000-7fb51c895000 ---p 00005000 08:03 15736090                   /usr/lib/x86_64-linux-gnu/libXdmcp.so.6.0.0
7fb51c895000-7fb51c896000 r--p 00004000 08:03 15736090                   /usr/lib/x86_64-linux-gnu/libXdmcp.so.6.0.0
7fb51c896000-7fb51c897000 rw-p 00005000 08:03 15736090                   /usr/lib/x86_64-linux-gnu/libXdmcp.so.6.0.0
7fb51c897000-7fb51c899000 r-xp 00000000 08:03 15736079                   /usr/lib/x86_64-linux-gnu/libXau.so.6.0.0
7fb51c899000-7fb51ca99000 ---p 00002000 08:03 15736079                   /usr/lib/x86_64-linux-gnu/libXau.so.6.0.0
7fb51ca99000-7fb51ca9a000 r--p 00002000 08:03 15736079                   /usr/lib/x86_64-linux-gnu/libXau.so.6.0.0
7fb51ca9a000-7fb51ca9b000 rw-p 00003000 08:03 15736079                   /usr/lib/x86_64-linux-gnu/libXau.so.6.0.0
7fb51ca9b000-7fb51cab8000 r-xp 00000000 08:03 15737262                   /usr/lib/x86_64-linux-gnu/libxcb.so.1.1.0
7fb51cab8000-7fb51ccb8000 ---p 0001d000 08:03 15737262                   /usr/lib/x86_64-linux-gnu/libxcb.so.1.1.0
7fb51ccb8000-7fb51ccb9000 r--p 0001d000 08:03 15737262                   /usr/lib/x86_64-linux-gnu/libxcb.so.1.1.0
7fb51ccb9000-7fb51ccba000 rw-p 0001e000 08:03 15737262                   /usr/lib/x86_64-linux-gnu/libxcb.so.1.1.0
7fb51ccba000-7fb51ccc9000 r-xp 00000000 08:03 15736100                   /usr/lib/x86_64-linux-gnu/libXi.so.6.1.0
7fb51ccc9000-7fb51cec8000 ---p 0000f000 08:03 15736100                   /usr/lib/x86_64-linux-gnu/libXi.so.6.1.0
7fb51cec8000-7fb51cec9000 r--p 0000e000 08:03 15736100                   /usr/lib/x86_64-linux-gnu/libXi.so.6.1.0
7fb51cec9000-7fb51ceca000 rw-p 0000f000 08:03 15736100                   /usr/lib/x86_64-linux-gnu/libXi.so.6.1.0
7fb51ceca000-7fb51cecf000 r-xp 00000000 08:03 15736118                   /usr/lib/x86_64-linux-gnu/libXtst.so.6.1.0
7fb51cecf000-7fb51d0ce000 ---p 00005000 08:03 15736118                   /usr/lib/x86_64-linux-gnu/libXtst.so.6.1.0
7fb51d0ce000-7fb51d0cf000 r--p 00004000 08:03 15736118                   /usr/lib/x86_64-linux-gnu/libXtst.so.6.1.0
7fb51d0cf000-7fb51d0d0000 rw-p 00005000 08:03 15736118                   /usr/lib/x86_64-linux-gnu/libXtst.so.6.1.0
7fb51d0d0000-7fb51d0d9000 r-xp 00000000 08:03 15736112                   /usr/lib/x86_64-linux-gnu/libXrender.so.1.3.0
7fb51d0d9000-7fb51d2d8000 ---p 00009000 08:03 15736112                   /usr/lib/x86_64-linux-gnu/libXrender.so.1.3.0
7fb51d2d8000-7fb51d2d9000 r--p 00008000 08:03 15736112                   /usr/lib/x86_64-linux-gnu/libXrender.so.1.3.0
7fb51d2d9000-7fb51d2da000 rw-p 00009000 08:03 15736112                   /usr/lib/x86_64-linux-gnu/libXrender.so.1.3.0
7fb51d2da000-7fb51d40a000 r-xp 00000000 08:03 15736075                   /usr/lib/x86_64-linux-gnu/libX11.so.6.3.0
7fb51d40a000-7fb51d60a000 ---p 00130000 08:03 15736075                   /usr/lib/x86_64-linux-gnu/libX11.so.6.3.0
7fb51d60a000-7fb51d60b000 r--p 00130000 08:03 15736075                   /usr/lib/x86_64-linux-gnu/libX11.so.6.3.0
7fb51d60b000-7fb51d60f000 rw-p 00131000 08:03 15736075                   /usr/lib/x86_64-linux-gnu/libX11.so.6.3.0
7fb51d60f000-7fb51d620000 r-xp 00000000 08:03 15736092                   /usr/lib/x86_64-linux-gnu/libXext.so.6.4.0
7fb51d620000-7fb51d81f000 ---p 00011000 08:03 15736092                   /usr/lib/x86_64-linux-gnu/libXext.so.6.4.0
7fb51d81f000-7fb51d820000 r--p 00010000 08:03 15736092                   /usr/lib/x86_64-linux-gnu/libXext.so.6.4.0
7fb51d820000-7fb51d821000 rw-p 00011000 08:03 15736092                   /usr/lib/x86_64-linux-gnu/libXext.so.6.4.0
7fb51d821000-7fb51d875000 r-xp 00000000 08:03 792607                     /usr/local/java/jdk1.8.0_25/jre/lib/amd64/libawt_xawt.so
7fb51d875000-7fb51da75000 ---p 00054000 08:03 792607                     /usr/local/java/jdk1.8.0_25/jre/lib/amd64/libawt_xawt.so
7fb51da75000-7fb51da79000 rw-p 00054000 08:03 792607                     /usr/local/java/jdk1.8.0_25/jre/lib/amd64/libawt_xawt.so
7fb51da79000-7fb51da7a000 rw-p 00000000 00:00 0 
7fb51da7a000-7fb51db1c000 r-xp 00000000 08:03 792613                     /usr/local/java/jdk1.8.0_25/jre/lib/amd64/libawt.so
7fb51db1c000-7fb51dd1c000 ---p 000a2000 08:03 792613                     /usr/local/java/jdk1.8.0_25/jre/lib/amd64/libawt.so
7fb51dd1c000-7fb51dd28000 rw-p 000a2000 08:03 792613                     /usr/local/java/jdk1.8.0_25/jre/lib/amd64/libawt.so
7fb51dd28000-7fb51dd4c000 rw-p 00000000 00:00 0 
7fb51dd4c000-7fb51dd4f000 ---p 00000000 00:00 0 
7fb51dd4f000-7fb51de4d000 rw-p 00000000 00:00 0 
7fb51de4d000-7fb51de50000 ---p 00000000 00:00 0 
7fb51de50000-7fb51df4e000 rw-p 00000000 00:00 0 
7fb51df4e000-7fb51df51000 ---p 00000000 00:00 0 
7fb51df51000-7fb51e04f000 rw-p 00000000 00:00 0 
7fb51e04f000-7fb51e052000 ---p 00000000 00:00 0 
7fb51e052000-7fb51e350000 rw-p 00000000 00:00 0                          [stack:9577]
7fb51e350000-7fb51e550000 rw-p 00000000 00:00 0 
7fb51e5fc000-7fb51e5fd000 rw-p 00000000 00:00 0 
7fb51e5fd000-7fb51e602000 r--s 002f8000 08:03 527855                     /usr/local/java/jdk1.8.0_25/jre/lib/charsets.jar
7fb51e602000-7fb51e604000 r--s 00007000 08:03 12845086                   /home/administrador/.m2/repository/org/apache/maven/shared/maven-filtering/1.0-beta-2/maven-filtering-1.0-beta-2.jar
7fb51e604000-7fb51e608000 r--s 00035000 08:03 12845744                   /home/administrador/.m2/repository/org/codehaus/plexus/plexus-utils/3.0.8/plexus-utils-3.0.8.jar
7fb51e608000-7fb51e60a000 r--s 00005000 08:03 12976185                   /home/administrador/.m2/repository/xpp3/xpp3_min/1.1.4c/xpp3_min-1.1.4c.jar
7fb51e60a000-7fb51e60b000 r--s 00001000 08:03 12976177                   /home/administrador/.m2/repository/xmlpull/xmlpull/1.1.3.1/xmlpull-1.1.3.1.jar
7fb51e60b000-7fb51e617000 r--s 0006a000 08:03 12846509                   /home/administrador/.m2/repository/com/thoughtworks/xstream/xstream/1.4.3/xstream-1.4.3.jar
7fb51e617000-7fb51e619000 r--s 0000d000 08:03 12845642                   /home/administrador/.m2/repository/org/codehaus/plexus/plexus-interpolation/1.15/plexus-interpolation-1.15.jar
7fb51e619000-7fb51e61c000 r--s 0000c000 08:03 12845661                   /home/administrador/.m2/repository/org/codehaus/plexus/plexus-io/2.0.5/plexus-io-2.0.5.jar
7fb51e61c000-7fb51e61e000 r--s 00004000 08:03 12715265                   /home/administrador/.m2/repository/org/apache/maven/maven-archiver/2.5/maven-archiver-2.5.jar
7fb51e61e000-7fb51e620000 r--s 00013000 08:03 12715096                   /home/administrador/.m2/repository/org/apache/maven/plugins/maven-war-plugin/2.3/maven-war-plugin-2.3.jar
7fb51e620000-7fb51e623000 ---p 00000000 00:00 0 
7fb51e623000-7fb51e721000 rw-p 00000000 00:00 0                          [stack:9576]
7fb51e721000-7fb51e724000 ---p 00000000 00:00 0 
7fb51e724000-7fb51e822000 rw-p 00000000 00:00 0                          [stack:9575]
7fb51e822000-7fb51e823000 r--s 00002000 08:03 12715644                   /home/administrador/.m2/repository/org/apache/maven/reporting/maven-reporting-api/2.0.9/maven-reporting-api-2.0.9.jar
7fb51e823000-7fb51e826000 r--s 00034000 08:03 12845730                   /home/administrador/.m2/repository/org/codehaus/plexus/plexus-utils/2.1/plexus-utils-2.1.jar
7fb51e826000-7fb51e828000 r--s 00006000 08:03 12715672                   /home/administrador/.m2/repository/org/apache/maven/shared/maven-common-artifact-filters/1.3/maven-common-artifact-filters-1.3.jar
7fb51e828000-7fb51e82a000 r--s 0000d000 08:03 12845159                   /home/administrador/.m2/repository/org/apache/maven/surefire/maven-surefire-common/2.10/maven-surefire-common-2.10.jar
7fb51e82a000-7fb51e82f000 r--s 00023000 08:03 12845171                   /home/administrador/.m2/repository/org/apache/maven/surefire/surefire-api/2.10/surefire-api-2.10.jar
7fb51e82f000-7fb51e831000 r--s 00007000 08:03 12845178                   /home/administrador/.m2/repository/org/apache/maven/surefire/surefire-booter/2.10/surefire-booter-2.10.jar
7fb51e831000-7fb51e833000 r--s 00006000 08:03 12715085                   /home/administrador/.m2/repository/org/apache/maven/plugins/maven-surefire-plugin/2.10/maven-surefire-plugin-2.10.jar
7fb51e833000-7fb51ea33000 rw-p 00000000 00:00 0 
7fb51ea33000-7fb51ec33000 rw-p 00000000 00:00 0 
7fb51ec33000-7fb51ecac000 r--s 010df000 08:03 15867054                   /usr/local/java/jdk1.8.0_25/lib/tools.jar
7fb51ecac000-7fb51ecaf000 r--s 0001b000 08:03 12846842                   /home/administrador/.m2/repository/junit/junit/3.8.2/junit-3.8.2.jar
7fb51ecaf000-7fb51ecbd000 r--s 0008f000 08:03 12846468                   /home/administrador/.m2/repository/com/google/collections/google-collections/1.0/google-collections-1.0.jar
7fb51ecbd000-7fb51ecbe000 r--s 0000a000 08:03 12846732                   /home/administrador/.m2/repository/commons-logging/commons-logging-api/1.1/commons-logging-api-1.1.jar
7fb51ecbe000-7fb51ecc5000 r--s 00051000 08:03 12846850                   /home/administrador/.m2/repository/log4j/log4j/1.2.12/log4j-1.2.12.jar
7fb51ecc5000-7fb51ecc9000 r--s 0001d000 08:03 12845363                   /home/administrador/.m2/repository/org/apache/xbean/xbean-reflect/3.4/xbean-reflect-3.4.jar
7fb51ecc9000-7fb51ecca000 r--s 00004000 08:03 12845506                   /home/administrador/.m2/repository/org/codehaus/plexus/plexus-compiler-javac/2.2/plexus-compiler-javac-2.2.jar
7fb51ecca000-7fb51eccc000 r--s 00000000 08:03 12845513                   /home/administrador/.m2/repository/org/codehaus/plexus/plexus-compiler-manager/2.2/plexus-compiler-manager-2.2.jar
7fb51eccc000-7fb51ecce000 r--s 00005000 08:03 12845499                   /home/administrador/.m2/repository/org/codehaus/plexus/plexus-compiler-api/2.2/plexus-compiler-api-2.2.jar
7fb51ecce000-7fb51ecd0000 r--s 00002000 08:03 12845137                   /home/administrador/.m2/repository/org/apache/maven/shared/maven-shared-incremental/1.1/maven-shared-incremental-1.1.jar
7fb51ecd0000-7fb51ecd2000 r--s 00006000 08:03 12846452                   /home/administrador/.m2/repository/com/google/code/findbugs/jsr305/2.0.1/jsr305-2.0.1.jar
7fb51ecd2000-7fb51ecd5000 r--s 00023000 08:03 12845151                   /home/administrador/.m2/repository/org/apache/maven/shared/maven-shared-utils/0.1/maven-shared-utils-0.1.jar
7fb51ecd5000-7fb51ecd9000 r--s 00030000 08:03 12845698                   /home/administrador/.m2/repository/org/codehaus/plexus/plexus-utils/1.5.1/plexus-utils-1.5.1.jar
7fb51ecd9000-7fb51ecdb000 r--s 00009000 08:03 12715072                   /home/administrador/.m2/repository/org/apache/maven/plugins/maven-compiler-plugin/3.1/maven-compiler-plugin-3.1.jar
7fb51ecdb000-7fb51ecdd000 r--s 0000d000 08:03 12845636                   /home/administrador/.m2/repository/org/codehaus/plexus/plexus-interpolation/1.13/plexus-interpolation-1.13.jar
7fb51ecdd000-7fb51ecde000 r--s 00001000 08:03 12846315                   /home/administrador/.m2/repository/org/sonatype/plexus/plexus-build-api/0.0.4/plexus-build-api-0.0.4.jar
7fb51ecde000-7fb51ece0000 r--s 00009000 08:03 12845080                   /home/administrador/.m2/repository/org/apache/maven/shared/maven-filtering/1.0/maven-filtering-1.0.jar
7fb51ece0000-7fb51ece4000 r--s 00033000 08:03 12845724                   /home/administrador/.m2/repository/org/codehaus/plexus/plexus-utils/2.0.5/plexus-utils-2.0.5.jar
7fb51ece4000-7fb51ece5000 r--s 00001000 08:03 12715217                   /home/administrador/.m2/repository/org/apache/maven/doxia/doxia-sink-api/1.0-alpha-7/doxia-sink-api-1.0-alpha-7.jar
7fb51ece5000-7fb51ece6000 r--s 00002000 08:03 12715638                   /home/administrador/.m2/repository/org/apache/maven/reporting/maven-reporting-api/2.0.6/maven-reporting-api-2.0.6.jar
7fb51ece6000-7fb51ece8000 r--s 00005000 08:03 12715077                   /home/administrador/.m2/repository/org/apache/maven/plugins/maven-resources-plugin/2.5/maven-resources-plugin-2.5.jar
7fb51ece8000-7fb51ecf6000 r--s 0007f000 08:03 12846587                   /home/administrador/.m2/repository/commons-collections/commons-collections/3.2.1/commons-collections-3.2.1.jar
7fb51ecf6000-7fb51ecfb000 r--s 00041000 08:03 12846649                   /home/administrador/.m2/repository/commons-lang/commons-lang/2.6/commons-lang-2.6.jar
7fb51ecfb000-7fb51ecfd000 r--s 00006000 08:03 12845093                   /home/administrador/.m2/repository/org/apache/maven/shared/maven-invoker/2.0.11/maven-invoker-2.0.11.jar
7fb51ecfd000-7fb51ecff000 r--s 00006000 08:03 12715678                   /home/administrador/.m2/repository/org/apache/maven/shared/maven-common-artifact-filters/1.4/maven-common-artifact-filters-1.4.jar
7fb51ecff000-7fb51ed01000 r--s 0000c000 08:03 12845066                   /home/administrador/.m2/repository/org/apache/maven/shared/maven-dependency-tree/2.0/maven-dependency-tree-2.0.jar
7fb51ed01000-7fb51ed03000 r--s 00000000 08:03 12845525                   /home/administrador/.m2/repository/org/codehaus/plexus/plexus-component-annotations/1.5.5/plexus-component-annotations-1.5.5.jar
7fb51ed03000-7fb51ed04000 r--s 0000a000 08:03 12846360                   /home/administrador/.m2/repository/asm/asm/3.3.1/asm-3.3.1.jar
7fb51ed04000-7fb51ed06000 r--s 00005000 08:03 12845059                   /home/administrador/.m2/repository/org/apache/maven/shared/maven-dependency-analyzer/1.3/maven-dependency-analyzer-1.3.jar
7fb51ed06000-7fb51ed09000 r--s 0000c000 08:03 12845667                   /home/administrador/.m2/repository/org/codehaus/plexus/plexus-io/2.0.6/plexus-io-2.0.6.jar
7fb51ed09000-7fb51ed0c000 r--s 0001b000 08:03 12846836                   /home/administrador/.m2/repository/junit/junit/3.8.1/junit-3.8.1.jar
7fb51ed0c000-7fb51ed0e000 r--s 00008000 08:03 12845144                   /home/administrador/.m2/repository/org/apache/maven/shared/maven-shared-io/1.1/maven-shared-io-1.1.jar
7fb51ed0e000-7fb51ed10000 r--s 00008000 08:03 12715665                   /home/administrador/.m2/repository/org/apache/maven/shared/file-management/1.2.1/file-management-1.2.1.jar
7fb51ed10000-7fb51ed14000 r--s 00035000 08:03 12845750                   /home/administrador/.m2/repository/org/codehaus/plexus/plexus-utils/3.0.9/plexus-utils-3.0.9.jar
7fb51ed14000-7fb51ed19000 r--s 00029000 08:03 12845474                   /home/administrador/.m2/repository/org/codehaus/plexus/plexus-archiver/2.2/plexus-archiver-2.2.jar
7fb51ed19000-7fb51ed1b000 r--s 00004000 08:03 12715195                   /home/administrador/.m2/repository/org/apache/maven/doxia/doxia-module-xhtml/1.0/doxia-module-xhtml-1.0.jar
7fb51ed1b000-7fb51ed1c000 r--s 00006000 08:03 12715188                   /home/administrador/.m2/repository/org/apache/maven/doxia/doxia-module-xdoc/1.0/doxia-module-xdoc-1.0.jar
7fb51ed1c000-7fb51ed1d000 r--s 00004000 08:03 12715181                   /home/administrador/.m2/repository/org/apache/maven/doxia/doxia-module-fml/1.0/doxia-module-fml-1.0.jar
7fb51ed1d000-7fb51ed1f000 r--s 0000a000 08:03 12715174                   /home/administrador/.m2/repository/org/apache/maven/doxia/doxia-module-apt/1.0/doxia-module-apt-1.0.jar
7fb51ed1f000-7fb51ed20000 r--s 0000b000 08:03 12715167                   /home/administrador/.m2/repository/org/apache/maven/doxia/doxia-decoration-model/1.0/doxia-decoration-model-1.0.jar
7fb51ed20000-7fb51ed28000 r--s 00058000 08:03 12845350                   /home/administrador/.m2/repository/org/apache/velocity/velocity/1.5/velocity-1.5.jar
7fb51ed28000-7fb51ed29000 r--s 00001000 08:03 12845757                   /home/administrador/.m2/repository/org/codehaus/plexus/plexus-velocity/1.1.7/plexus-velocity-1.1.7.jar
7fb51ed29000-7fb51ed2a000 r--s 00002000 08:03 12845614                   /home/administrador/.m2/repository/org/codehaus/plexus/plexus-i18n/1.0-beta-7/plexus-i18n-1.0-beta-7.jar
7fb51ed2a000-7fb51ed2c000 r--s 0000a000 08:03 12715224                   /home/administrador/.m2/repository/org/apache/maven/doxia/doxia-site-renderer/1.0/doxia-site-renderer-1.0.jar
7fb51ed2c000-7fb51ed31000 r--s 00016000 08:03 12976156                   /home/administrador/.m2/repository/xml-apis/xml-apis/1.0.b2/xml-apis-1.0.b2.jar
7fb51ed31000-7fb51ed33000 r--s 0000e000 08:03 12976140                   /home/administrador/.m2/repository/oro/oro/2.0.8/oro-2.0.8.jar
7fb51ed33000-7fb51ed38000 r--s 0002a000 08:03 12846537                   /home/administrador/.m2/repository/commons-beanutils/commons-beanutils/1.7.0/commons-beanutils-1.7.0.jar
7fb51ed38000-7fb51ef38000 rw-p 00000000 00:00 0 
7fb51ef38000-7fb51ef4f000 r-xp 00000000 08:03 2360633                    /lib/x86_64-linux-gnu/libresolv-2.19.so
7fb51ef4f000-7fb51f14f000 ---p 00017000 08:03 2360633                    /lib/x86_64-linux-gnu/libresolv-2.19.so
7fb51f14f000-7fb51f150000 r--p 00017000 08:03 2360633                    /lib/x86_64-linux-gnu/libresolv-2.19.so
7fb51f150000-7fb51f151000 rw-p 00018000 08:03 2360633                    /lib/x86_64-linux-gnu/libresolv-2.19.so
7fb51f151000-7fb51f153000 rw-p 00000000 00:00 0 
7fb51f153000-7fb51f158000 r-xp 00000000 08:03 2360613                    /lib/x86_64-linux-gnu/libnss_dns-2.19.so
7fb51f158000-7fb51f357000 ---p 00005000 08:03 2360613                    /lib/x86_64-linux-gnu/libnss_dns-2.19.so
7fb51f357000-7fb51f358000 r--p 00004000 08:03 2360613                    /lib/x86_64-linux-gnu/libnss_dns-2.19.so
7fb51f358000-7fb51f359000 rw-p 00005000 08:03 2360613                    /lib/x86_64-linux-gnu/libnss_dns-2.19.so
7fb51f359000-7fb51f35b000 r-xp 00000000 08:03 2363457                    /lib/x86_64-linux-gnu/libnss_mdns4_minimal.so.2
7fb51f35b000-7fb51f55a000 ---p 00002000 08:03 2363457                    /lib/x86_64-linux-gnu/libnss_mdns4_minimal.so.2
7fb51f55a000-7fb51f55b000 r--p 00001000 08:03 2363457                    /lib/x86_64-linux-gnu/libnss_mdns4_minimal.so.2
7fb51f55b000-7fb51f55c000 rw-p 00002000 08:03 2363457                    /lib/x86_64-linux-gnu/libnss_mdns4_minimal.so.2
7fb51f55c000-7fb51f55d000 r--s 00002000 08:03 12715207                   /home/administrador/.m2/repository/org/apache/maven/doxia/doxia-sink-api/1.0/doxia-sink-api-1.0.jar
7fb51f55d000-7fb51f55f000 r--s 00008000 08:03 12846702                   /home/administrador/.m2/repository/commons-logging/commons-logging/1.0.4/commons-logging-1.0.4.jar
7fb51f55f000-7fb51f57b000 r--s 00393000 08:03 792640                     /usr/local/java/jdk1.8.0_25/jre/lib/ext/cldrdata.jar
7fb51f57b000-7fb51f591000 r-xp 00000000 08:03 2360295                    /lib/x86_64-linux-gnu/libgcc_s.so.1
7fb51f591000-7fb51f790000 ---p 00016000 08:03 2360295                    /lib/x86_64-linux-gnu/libgcc_s.so.1
7fb51f790000-7fb51f791000 rw-p 00015000 08:03 2360295                    /lib/x86_64-linux-gnu/libgcc_s.so.1
7fb51f791000-7fb51f7c3000 r-xp 00000000 08:03 792580                     /usr/local/java/jdk1.8.0_25/jre/lib/amd64/libsunec.so
7fb51f7c3000-7fb51f9c2000 ---p 00032000 08:03 792580                     /usr/local/java/jdk1.8.0_25/jre/lib/amd64/libsunec.so
7fb51f9c2000-7fb51f9c8000 rw-p 00031000 08:03 792580                     /usr/local/java/jdk1.8.0_25/jre/lib/amd64/libsunec.so
7fb51f9c8000-7fb51fbd8000 rw-p 00000000 00:00 0 
7fb51fbd8000-7fb51fbe9000 r-xp 00000000 08:03 792619                     /usr/local/java/jdk1.8.0_25/jre/lib/amd64/libnio.so
7fb51fbe9000-7fb51fde8000 ---p 00011000 08:03 792619                     /usr/local/java/jdk1.8.0_25/jre/lib/amd64/libnio.so
7fb51fde8000-7fb51fde9000 rw-p 00010000 08:03 792619                     /usr/local/java/jdk1.8.0_25/jre/lib/amd64/libnio.so
7fb51fde9000-7fb51fdff000 r-xp 00000000 08:03 792594                     /usr/local/java/jdk1.8.0_25/jre/lib/amd64/libnet.so
7fb51fdff000-7fb51ffff000 ---p 00016000 08:03 792594                     /usr/local/java/jdk1.8.0_25/jre/lib/amd64/libnet.so
7fb51ffff000-7fb520000000 rw-p 00016000 08:03 792594                     /usr/local/java/jdk1.8.0_25/jre/lib/amd64/libnet.so
7fb520000000-7fb520021000 rw-p 00000000 00:00 0 
7fb520021000-7fb524000000 ---p 00000000 00:00 0 
7fb524000000-7fb524004000 r--s 00026000 08:03 12846595                   /home/administrador/.m2/repository/commons-digester/commons-digester/1.6/commons-digester-1.6.jar
7fb524004000-7fb524007000 r--s 00014000 08:03 12846750                   /home/administrador/.m2/repository/commons-validator/commons-validator/1.2.0/commons-validator-1.2.0.jar
7fb524007000-7fb52400a000 r--s 00018000 08:03 12846621                   /home/administrador/.m2/repository/commons-io/commons-io/1.4/commons-io-1.4.jar
7fb52400a000-7fb52400c000 r--s 00009000 08:03 12845073                   /home/administrador/.m2/repository/org/apache/maven/shared/maven-doxia-tools/1.0.2/maven-doxia-tools-1.0.2.jar
7fb52400c000-7fb52400f000 r--s 0000b000 08:03 12715160                   /home/administrador/.m2/repository/org/apache/maven/doxia/doxia-core/1.0/doxia-core-1.0.jar
7fb52400f000-7fb524011000 r--s 00004000 08:03 12715657                   /home/administrador/.m2/repository/org/apache/maven/reporting/maven-reporting-impl/2.0.5/maven-reporting-impl-2.0.5.jar
7fb524011000-7fb524012000 r--s 00002000 08:03 12715650                   /home/administrador/.m2/repository/org/apache/maven/reporting/maven-reporting-api/3.0/maven-reporting-api-3.0.jar
7fb524012000-7fb524014000 r--s 00002000 08:03 12845621                   /home/administrador/.m2/repository/org/codehaus/plexus/plexus-interactivity-api/1.0-alpha-4/plexus-interactivity-api-1.0-alpha-4.jar
7fb524014000-7fb524016000 r--s 00006000 08:03 12846555                   /home/administrador/.m2/repository/commons-cli/commons-cli/1.0/commons-cli-1.0.jar
7fb524016000-7fb524019000 r--s 00021000 08:03 12715104                   /home/administrador/.m2/repository/org/apache/maven/plugins/maven-dependency-plugin/2.6/maven-dependency-plugin-2.6.jar
7fb524019000-7fb52401c000 ---p 00000000 00:00 0 
7fb52401c000-7fb52411a000 rw-p 00000000 00:00 0                          [stack:9574]
7fb52411a000-7fb52411b000 r--s 00009000 08:03 792635                     /usr/local/java/jdk1.8.0_25/jre/lib/ext/sunec.jar
7fb52411b000-7fb52411e000 r--s 0003a000 08:03 792642                     /usr/local/java/jdk1.8.0_25/jre/lib/ext/sunpkcs11.jar
7fb52411e000-7fb524120000 r--s 0001a000 08:03 527856                     /usr/local/java/jdk1.8.0_25/jre/lib/jce.jar
7fb524120000-7fb524320000 rw-p 00000000 00:00 0 
7fb524320000-7fb524323000 ---p 00000000 00:00 0 
7fb524323000-7fb524359000 rw-p 00000000 00:00 0                          [stack:9569]
7fb524359000-7fb52435d000 r--s 00093000 08:03 527866                     /usr/local/java/jdk1.8.0_25/jre/lib/jsse.jar
7fb52435d000-7fb52455d000 rw-p 00000000 00:00 0 
7fb52455d000-7fb52455f000 r--s 0000c000 08:03 14421589                   /home/administrador/.netbeans/8.0.2/maven-nblib/netbeans-eventspy.jar
7fb52455f000-7fb524561000 r--s 0000d000 08:03 15864063                   /usr/local/netbeans-8.0.2/java/maven/lib/plexus-interpolation-1.14.jar
7fb524561000-7fb524565000 r--s 00021000 08:03 15864061                   /usr/local/netbeans-8.0.2/java/maven/lib/maven-model-builder-3.0.5.jar
7fb524565000-7fb52456f000 r--s 00116000 08:03 792634                     /usr/local/java/jdk1.8.0_25/jre/lib/ext/localedata.jar
7fb52456f000-7fb524573000 r--s 00013000 08:03 15864141                   /usr/local/netbeans-8.0.2/java/maven/lib/aether-api-1.13.1.jar
7fb524573000-7fb524579000 r--s 0003f000 08:03 15864136                   /usr/local/netbeans-8.0.2/java/maven/lib/maven-compat-3.0.5.jar
7fb524579000-7fb52457b000 r--s 0000b000 08:03 15864106                   /usr/local/netbeans-8.0.2/java/maven/lib/maven-plugin-api-3.0.5.jar
7fb52457b000-7fb52457f000 r--s 00033000 08:03 15864133                   /usr/local/netbeans-8.0.2/java/maven/lib/plexus-utils-2.0.6.jar
7fb52457f000-7fb524581000 r--s 00002000 08:03 15864140                   /usr/local/netbeans-8.0.2/java/maven/lib/plexus-cipher-1.7.jar
7fb524581000-7fb524584000 r--s 0001d000 08:03 15864134                   /usr/local/netbeans-8.0.2/java/maven/lib/aether-impl-1.13.1.jar
7fb524584000-7fb524586000 r--s 0000c000 08:03 15864028                   /usr/local/netbeans-8.0.2/java/maven/lib/maven-aether-provider-3.0.5.jar
7fb524586000-7fb52458d000 r--s 0002b000 08:03 15864082                   /usr/local/netbeans-8.0.2/java/maven/lib/sisu-inject-plexus-2.3.0.jar
7fb52458d000-7fb5245a8000 r--s 000e4000 08:03 15864115                   /usr/local/netbeans-8.0.2/java/maven/lib/wagon-http-2.4-shaded.jar
7fb5245a8000-7fb5245c7000 r--s 00154000 08:03 15864148                   /usr/local/netbeans-8.0.2/java/maven/lib/sisu-guava-0.9.9.jar
7fb5245c7000-7fb5245c8000 ---p 00000000 00:00 0 
7fb5245c8000-7fb5246c8000 rw-p 00000000 00:00 0                          [stack:9566]
7fb5246c8000-7fb5246cb000 ---p 00000000 00:00 0 
7fb5246cb000-7fb5247c9000 rw-p 00000000 00:00 0                          [stack:9565]
7fb5247c9000-7fb5247cc000 ---p 00000000 00:00 0 
7fb5247cc000-7fb5248ca000 rw-p 00000000 00:00 0                          [stack:9564]
7fb5248ca000-7fb5248cd000 ---p 00000000 00:00 0 
7fb5248cd000-7fb5249cb000 rw-p 00000000 00:00 0                          [stack:9563]
7fb5249cb000-7fb5249ce000 ---p 00000000 00:00 0 
7fb5249ce000-7fb524acc000 rw-p 00000000 00:00 0                          [stack:9562]
7fb524acc000-7fb524acf000 ---p 00000000 00:00 0 
7fb524acf000-7fb524bcd000 rw-p 00000000 00:00 0                          [stack:9561]
7fb524bcd000-7fb524e97000 r--p 00000000 08:03 15734748                   /usr/lib/locale/locale-archive
7fb524e97000-7fb524e9a000 ---p 00000000 00:00 0 
7fb524e9a000-7fb524f98000 rw-p 00000000 00:00 0                          [stack:9560]
7fb524f98000-7fb524f9b000 ---p 00000000 00:00 0 
7fb524f9b000-7fb525099000 rw-p 00000000 00:00 0                          [stack:9559]
7fb525099000-7fb52509a000 ---p 00000000 00:00 0 
7fb52509a000-7fb525fea000 rw-p 00000000 00:00 0                          [stack:9558]
7fb525fea000-7fb5261c0000 r--s 03caa000 08:03 527863                     /usr/local/java/jdk1.8.0_25/jre/lib/rt.jar
7fb5261c0000-7fb528000000 rw-p 00000000 00:00 0 
7fb528000000-7fb528021000 rw-p 00000000 00:00 0 
7fb528021000-7fb52c000000 ---p 00000000 00:00 0 
7fb52c000000-7fb52c001000 r--p 00000000 00:00 0 
7fb52c001000-7fb52c009000 r--s 00050000 08:03 15864093                   /usr/local/netbeans-8.0.2/java/maven/lib/sisu-guice-3.1.0-no_aop.jar
7fb52c009000-7fb52c015000 r--s 0007d000 08:03 15864147                   /usr/local/netbeans-8.0.2/java/maven/lib/maven-core-3.0.5.jar
7fb52c015000-7fb52c017000 r--s 0000b000 08:03 15864120                   /usr/local/netbeans-8.0.2/java/maven/lib/maven-artifact-3.0.5.jar
7fb52c017000-7fb52c019000 r--s 00026000 08:03 15864139                   /usr/local/netbeans-8.0.2/java/maven/lib/maven-model-3.0.5.jar
7fb52c019000-7fb52c01d000 r--s 0001c000 08:03 15864135                   /usr/local/netbeans-8.0.2/java/maven/lib/aether-util-1.13.1.jar
7fb52c01d000-7fb52cbba000 rw-p 00000000 00:00 0 
7fb52cbba000-7fb52cbbb000 ---p 00000000 00:00 0 
7fb52cbbb000-7fb52ccbb000 rw-p 00000000 00:00 0                          [stack:9557]
7fb52ccbb000-7fb52ccbc000 ---p 00000000 00:00 0 
7fb52ccbc000-7fb52cdbc000 rw-p 00000000 00:00 0                          [stack:9556]
7fb52cdbc000-7fb52cdbd000 ---p 00000000 00:00 0 
7fb52cdbd000-7fb52cee9000 rw-p 00000000 00:00 0                          [stack:9555]
7fb52cee9000-7fb52d000000 ---p 00000000 00:00 0 
7fb52d000000-7fb52e520000 rwxp 00000000 00:00 0 
7fb52e520000-7fb53c000000 ---p 00000000 00:00 0 
7fb53c000000-7fb53d112000 rw-p 00000000 00:00 0 
7fb53d112000-7fb540000000 ---p 00000000 00:00 0 
7fb540000000-7fb540003000 r--s 00008000 08:03 15864012                   /usr/local/netbeans-8.0.2/java/maven/lib/maven-settings-builder-3.0.5.jar
7fb540003000-7fb54000a000 r--s 0003f000 08:03 15864107                   /usr/local/netbeans-8.0.2/java/maven/lib/sisu-inject-bean-2.3.0.jar
7fb54000a000-7fb54000b000 r--s 00002000 08:03 15864152                   /usr/local/netbeans-8.0.2/java/maven/lib/wagon-file-2.4.jar
7fb54000b000-7fb54000c000 r--s 00003000 08:03 15864142                   /usr/local/netbeans-8.0.2/java/maven/lib/aether-spi-1.13.1.jar
7fb54000c000-7fb54000e000 r--s 0000a000 08:03 15864122                   /usr/local/netbeans-8.0.2/java/maven/lib/maven-settings-3.0.5.jar
7fb54000e000-7fb54000f000 r--s 0000a000 08:03 15864121                   /usr/local/netbeans-8.0.2/java/maven/lib/maven-embedder-3.0.5.jar
7fb54000f000-7fb540011000 r--s 00000000 08:03 15863781                   /usr/local/netbeans-8.0.2/java/maven/lib/plexus-component-annotations-1.5.5.jar
7fb540011000-7fb540013000 r--s 00009000 08:03 15864150                   /usr/local/netbeans-8.0.2/java/maven/lib/commons-cli-1.2.jar
7fb540013000-7fb540034000 rw-p 00000000 00:00 0 
7fb540034000-7fb540035000 ---p 00000000 00:00 0 
7fb540035000-7fb540161000 rw-p 00000000 00:00 0                          [stack:9554]
7fb540161000-7fb540277000 ---p 00000000 00:00 0 
7fb540277000-7fb5402c8000 rw-p 00000000 00:00 0 
7fb5402c8000-7fb540319000 ---p 00000000 00:00 0 
7fb540319000-7fb54036f000 rw-p 00000000 00:00 0 
7fb54036f000-7fb5406da000 ---p 00000000 00:00 0 
7fb5406da000-7fb5406f4000 r-xp 00000000 08:03 792588                     /usr/local/java/jdk1.8.0_25/jre/lib/amd64/libzip.so
7fb5406f4000-7fb5408f4000 ---p 0001a000 08:03 792588                     /usr/local/java/jdk1.8.0_25/jre/lib/amd64/libzip.so
7fb5408f4000-7fb5408f5000 rw-p 0001a000 08:03 792588                     /usr/local/java/jdk1.8.0_25/jre/lib/amd64/libzip.so
7fb5408f5000-7fb540900000 r-xp 00000000 08:03 2360643                    /lib/x86_64-linux-gnu/libnss_files-2.19.so
7fb540900000-7fb540aff000 ---p 0000b000 08:03 2360643                    /lib/x86_64-linux-gnu/libnss_files-2.19.so
7fb540aff000-7fb540b00000 r--p 0000a000 08:03 2360643                    /lib/x86_64-linux-gnu/libnss_files-2.19.so
7fb540b00000-7fb540b01000 rw-p 0000b000 08:03 2360643                    /lib/x86_64-linux-gnu/libnss_files-2.19.so
7fb540b01000-7fb540b0c000 r-xp 00000000 08:03 2360637                    /lib/x86_64-linux-gnu/libnss_nis-2.19.so
7fb540b0c000-7fb540d0b000 ---p 0000b000 08:03 2360637                    /lib/x86_64-linux-gnu/libnss_nis-2.19.so
7fb540d0b000-7fb540d0c000 r--p 0000a000 08:03 2360637                    /lib/x86_64-linux-gnu/libnss_nis-2.19.so
7fb540d0c000-7fb540d0d000 rw-p 0000b000 08:03 2360637                    /lib/x86_64-linux-gnu/libnss_nis-2.19.so
7fb540d0d000-7fb540d24000 r-xp 00000000 08:03 2360625                    /lib/x86_64-linux-gnu/libnsl-2.19.so
7fb540d24000-7fb540f23000 ---p 00017000 08:03 2360625                    /lib/x86_64-linux-gnu/libnsl-2.19.so
7fb540f23000-7fb540f24000 r--p 00016000 08:03 2360625                    /lib/x86_64-linux-gnu/libnsl-2.19.so
7fb540f24000-7fb540f25000 rw-p 00017000 08:03 2360625                    /lib/x86_64-linux-gnu/libnsl-2.19.so
7fb540f25000-7fb540f27000 rw-p 00000000 00:00 0 
7fb540f27000-7fb540f30000 r-xp 00000000 08:03 2360619                    /lib/x86_64-linux-gnu/libnss_compat-2.19.so
7fb540f30000-7fb54112f000 ---p 00009000 08:03 2360619                    /lib/x86_64-linux-gnu/libnss_compat-2.19.so
7fb54112f000-7fb541130000 r--p 00008000 08:03 2360619                    /lib/x86_64-linux-gnu/libnss_compat-2.19.so
7fb541130000-7fb541131000 rw-p 00009000 08:03 2360619                    /lib/x86_64-linux-gnu/libnss_compat-2.19.so
7fb541131000-7fb54115b000 r-xp 00000000 08:03 792567                     /usr/local/java/jdk1.8.0_25/jre/lib/amd64/libjava.so
7fb54115b000-7fb54135b000 ---p 0002a000 08:03 792567                     /usr/local/java/jdk1.8.0_25/jre/lib/amd64/libjava.so
7fb54135b000-7fb54135d000 rw-p 0002a000 08:03 792567                     /usr/local/java/jdk1.8.0_25/jre/lib/amd64/libjava.so
7fb54135d000-7fb54136a000 r-xp 00000000 08:03 792582                     /usr/local/java/jdk1.8.0_25/jre/lib/amd64/libverify.so
7fb54136a000-7fb54156a000 ---p 0000d000 08:03 792582                     /usr/local/java/jdk1.8.0_25/jre/lib/amd64/libverify.so
7fb54156a000-7fb54156c000 rw-p 0000d000 08:03 792582                     /usr/local/java/jdk1.8.0_25/jre/lib/amd64/libverify.so
7fb54156c000-7fb541573000 r-xp 00000000 08:03 2360609                    /lib/x86_64-linux-gnu/librt-2.19.so
7fb541573000-7fb541772000 ---p 00007000 08:03 2360609                    /lib/x86_64-linux-gnu/librt-2.19.so
7fb541772000-7fb541773000 r--p 00006000 08:03 2360609                    /lib/x86_64-linux-gnu/librt-2.19.so
7fb541773000-7fb541774000 rw-p 00007000 08:03 2360609                    /lib/x86_64-linux-gnu/librt-2.19.so
7fb541774000-7fb541879000 r-xp 00000000 08:03 2360623                    /lib/x86_64-linux-gnu/libm-2.19.so
7fb541879000-7fb541a78000 ---p 00105000 08:03 2360623                    /lib/x86_64-linux-gnu/libm-2.19.so
7fb541a78000-7fb541a79000 r--p 00104000 08:03 2360623                    /lib/x86_64-linux-gnu/libm-2.19.so
7fb541a79000-7fb541a7a000 rw-p 00105000 08:03 2360623                    /lib/x86_64-linux-gnu/libm-2.19.so
7fb541a7a000-7fb5426e7000 r-xp 00000000 08:03 792604                     /usr/local/java/jdk1.8.0_25/jre/lib/amd64/server/libjvm.so
7fb5426e7000-7fb5428e6000 ---p 00c6d000 08:03 792604                     /usr/local/java/jdk1.8.0_25/jre/lib/amd64/server/libjvm.so
7fb5428e6000-7fb5429bc000 rw-p 00c6c000 08:03 792604                     /usr/local/java/jdk1.8.0_25/jre/lib/amd64/server/libjvm.so
7fb5429bc000-7fb5429ff000 rw-p 00000000 00:00 0 
7fb5429ff000-7fb542bba000 r-xp 00000000 08:03 2360607                    /lib/x86_64-linux-gnu/libc-2.19.so
7fb542bba000-7fb542dba000 ---p 001bb000 08:03 2360607                    /lib/x86_64-linux-gnu/libc-2.19.so
7fb542dba000-7fb542dbe000 r--p 001bb000 08:03 2360607                    /lib/x86_64-linux-gnu/libc-2.19.so
7fb542dbe000-7fb542dc0000 rw-p 001bf000 08:03 2360607                    /lib/x86_64-linux-gnu/libc-2.19.so
7fb542dc0000-7fb542dc5000 rw-p 00000000 00:00 0 
7fb542dc5000-7fb542dc8000 r-xp 00000000 08:03 2360615                    /lib/x86_64-linux-gnu/libdl-2.19.so
7fb542dc8000-7fb542fc7000 ---p 00003000 08:03 2360615                    /lib/x86_64-linux-gnu/libdl-2.19.so
7fb542fc7000-7fb542fc8000 r--p 00002000 08:03 2360615                    /lib/x86_64-linux-gnu/libdl-2.19.so
7fb542fc8000-7fb542fc9000 rw-p 00003000 08:03 2360615                    /lib/x86_64-linux-gnu/libdl-2.19.so
7fb542fc9000-7fb542fde000 r-xp 00000000 08:03 16255386                   /usr/local/java/jdk1.8.0_25/lib/amd64/jli/libjli.so
7fb542fde000-7fb5431dd000 ---p 00015000 08:03 16255386                   /usr/local/java/jdk1.8.0_25/lib/amd64/jli/libjli.so
7fb5431dd000-7fb5431de000 rw-p 00014000 08:03 16255386                   /usr/local/java/jdk1.8.0_25/lib/amd64/jli/libjli.so
7fb5431de000-7fb5431f7000 r-xp 00000000 08:03 2360641                    /lib/x86_64-linux-gnu/libpthread-2.19.so
7fb5431f7000-7fb5433f6000 ---p 00019000 08:03 2360641                    /lib/x86_64-linux-gnu/libpthread-2.19.so
7fb5433f6000-7fb5433f7000 r--p 00018000 08:03 2360641                    /lib/x86_64-linux-gnu/libpthread-2.19.so
7fb5433f7000-7fb5433f8000 rw-p 00019000 08:03 2360641                    /lib/x86_64-linux-gnu/libpthread-2.19.so
7fb5433f8000-7fb5433fc000 rw-p 00000000 00:00 0 
7fb5433fc000-7fb54341f000 r-xp 00000000 08:03 2360603                    /lib/x86_64-linux-gnu/ld-2.19.so
7fb54341f000-7fb543420000 r--s 00006000 08:03 15864062                   /usr/local/netbeans-8.0.2/java/maven/lib/plexus-sec-dispatcher-1.3.jar
7fb543420000-7fb543422000 r--s 00006000 08:03 15863987                   /usr/local/netbeans-8.0.2/java/maven/lib/aether-connector-wagon-1.13.1.jar
7fb543422000-7fb543424000 r--s 00006000 08:03 15863908                   /usr/local/netbeans-8.0.2/java/maven/lib/maven-repository-metadata-3.0.5.jar
7fb543424000-7fb543426000 r--s 0000b000 08:03 15864105                   /usr/local/netbeans-8.0.2/java/maven/lib/wagon-provider-api-2.4.jar
7fb543426000-7fb5434f8000 rw-p 00000000 00:00 0 
7fb5434f8000-7fb5434fb000 ---p 00000000 00:00 0 
7fb5434fb000-7fb5435fd000 rw-p 00000000 00:00 0                          [stack:9553]
7fb5435fd000-7fb5435ff000 r--s 0000a000 08:03 15864095                   /usr/local/netbeans-8.0.2/java/maven/boot/plexus-classworlds-2.4.jar
7fb5435ff000-7fb543612000 rw-p 00000000 00:00 0 
7fb543612000-7fb54361a000 rw-s 00000000 08:03 1967079                    /tmp/hsperfdata_administrador/9550
7fb54361a000-7fb54361b000 rw-p 00000000 00:00 0 
7fb54361b000-7fb54361c000 ---p 00000000 00:00 0 
7fb54361c000-7fb54361e000 rw-p 00000000 00:00 0 
7fb54361e000-7fb54361f000 r--p 00022000 08:03 2360603                    /lib/x86_64-linux-gnu/ld-2.19.so
7fb54361f000-7fb543620000 rw-p 00023000 08:03 2360603                    /lib/x86_64-linux-gnu/ld-2.19.so
7fb543620000-7fb543621000 rw-p 00000000 00:00 0 
7fff29bda000-7fff29bfb000 rw-p 00000000 00:00 0                          [stack]
7fff29bfe000-7fff29c00000 r-xp 00000000 00:00 0                          [vdso]
ffffffffff600000-ffffffffff601000 r-xp 00000000 00:00 0                  [vsyscall]

VM Arguments:
jvm_args: -Dclassworlds.conf=/usr/local/netbeans-8.0.2/java/maven/bin/m2.conf -Dmaven.home=/usr/local/netbeans-8.0.2/java/maven 
java_command: org.codehaus.plexus.classworlds.launcher.Launcher -Dnetbeans.deploy=true -Dmaven.ext.class.path=/home/administrador/.netbeans/8.0.2/maven-nblib/netbeans-eventspy.jar package
java_class_path (initial): /usr/local/netbeans-8.0.2/java/maven/boot/plexus-classworlds-2.4.jar
Launcher Type: SUN_STANDARD

Environment Variables:
JAVA_HOME=/usr/local/java/jdk1.8.0_25
PATH=/usr/local/sbin:/usr/local/bin:/usr/sbin:/usr/bin:/sbin:/bin:/usr/games:/usr/local/games:/home/administrador/bin:/usr/local/java/jdk1.8.0_25/bin
USERNAME=administrador
LD_LIBRARY_PATH=/usr/local/java/jdk1.8.0_25/jre/lib/amd64:/usr/local/java/jdk1.8.0_25/jre/lib/i386:
SHELL=/bin/bash
DISPLAY=:0

Signal Handlers:
SIGSEGV: [libjvm.so+0xa79a80], sa_mask[0]=11111111011111111101111111111110, sa_flags=SA_RESTART|SA_SIGINFO
SIGBUS: [libjvm.so+0xa79a80], sa_mask[0]=11111111011111111101111111111110, sa_flags=SA_RESTART|SA_SIGINFO
SIGFPE: [libjvm.so+0x8e24e0], sa_mask[0]=11111111011111111101111111111110, sa_flags=SA_RESTART|SA_SIGINFO
SIGPIPE: [libjvm.so+0x8e24e0], sa_mask[0]=11111111011111111101111111111110, sa_flags=SA_RESTART|SA_SIGINFO
SIGXFSZ: [libjvm.so+0x8e24e0], sa_mask[0]=11111111011111111101111111111110, sa_flags=SA_RESTART|SA_SIGINFO
SIGILL: [libjvm.so+0x8e24e0], sa_mask[0]=11111111011111111101111111111110, sa_flags=SA_RESTART|SA_SIGINFO
SIGUSR1: SIG_DFL, sa_mask[0]=00000000000000000000000000000000, sa_flags=none
SIGUSR2: [libjvm.so+0x8e3d10], sa_mask[0]=00100000000000000000000000000000, sa_flags=SA_RESTART|SA_SIGINFO
SIGHUP: [libjvm.so+0x8e50d0], sa_mask[0]=11111111011111111101111111111110, sa_flags=SA_RESTART|SA_SIGINFO
SIGINT: SIG_IGN, sa_mask[0]=00000000000000000000000000000000, sa_flags=none
SIGTERM: [libjvm.so+0x8e50d0], sa_mask[0]=11111111011111111101111111111110, sa_flags=SA_RESTART|SA_SIGINFO
SIGQUIT: [libjvm.so+0x8e50d0], sa_mask[0]=11111111011111111101111111111110, sa_flags=SA_RESTART|SA_SIGINFO


---------------  S Y S T E M  ---------------

OS:DISTRIB_ID=LinuxMint
DISTRIB_RELEASE=17
DISTRIB_CODENAME=qiana
DISTRIB_DESCRIPTION="Linux Mint 17 Qiana"

uname:Linux 3.13.0-24-generic #47-Ubuntu SMP Fri May 2 23:30:00 UTC 2014 x86_64
libc:glibc 2.19 NPTL 2.19 
rlimit: STACK 8192k, CORE 0k, NPROC 30677, NOFILE 4096, AS infinity
load average:12,24 6,44 3,12

/proc/meminfo:
MemTotal:        3957820 kB
MemFree:          110668 kB
Buffers:             220 kB
Cached:           455352 kB
SwapCached:            0 kB
Active:          3261492 kB
Inactive:         412096 kB
Active(anon):    3259544 kB
Inactive(anon):   408052 kB
Active(file):       1948 kB
Inactive(file):     4044 kB
Unevictable:           0 kB
Mlocked:               0 kB
SwapTotal:             0 kB
SwapFree:              0 kB
Dirty:               152 kB
Writeback:             0 kB
AnonPages:       3218388 kB
Mapped:           231276 kB
Shmem:            449208 kB
Slab:              60768 kB
SReclaimable:      28920 kB
SUnreclaim:        31848 kB
KernelStack:        4952 kB
PageTables:        37516 kB
NFS_Unstable:          0 kB
Bounce:                0 kB
WritebackTmp:          0 kB
CommitLimit:     1978908 kB
Committed_AS:    5710532 kB
VmallocTotal:   34359738367 kB
VmallocUsed:      547024 kB
VmallocChunk:   34359182992 kB
HardwareCorrupted:     0 kB
AnonHugePages:   1144832 kB
HugePages_Total:       0
HugePages_Free:        0
HugePages_Rsvd:        0
HugePages_Surp:        0
Hugepagesize:       2048 kB
DirectMap4k:       72016 kB
DirectMap2M:     4032512 kB


CPU:total 4 (2 cores per cpu, 2 threads per core) family 6 model 42 stepping 7, cmov, cx8, fxsr, mmx, sse, sse2, sse3, ssse3, sse4.1, sse4.2, popcnt, avx, clmul, ht, tsc, tscinvbit

/proc/cpuinfo:
processor	: 0
vendor_id	: GenuineIntel
cpu family	: 6
model		: 42
model name	: Intel(R) Core(TM) i3-2120 CPU @ 3.30GHz
stepping	: 7
microcode	: 0x12
cpu MHz		: 3300.000
cache size	: 3072 KB
physical id	: 0
siblings	: 4
core id		: 0
cpu cores	: 2
apicid		: 0
initial apicid	: 0
fpu		: yes
fpu_exception	: yes
cpuid level	: 13
wp		: yes
flags		: fpu vme de pse tsc msr pae mce cx8 apic sep mtrr pge mca cmov pat pse36 clflush dts acpi mmx fxsr sse sse2 ss ht tm pbe syscall nx rdtscp lm constant_tsc arch_perfmon pebs bts rep_good nopl xtopology nonstop_tsc aperfmperf eagerfpu pni pclmulqdq dtes64 monitor ds_cpl vmx est tm2 ssse3 cx16 xtpr pdcm pcid sse4_1 sse4_2 popcnt tsc_deadline_timer xsave avx lahf_lm arat epb xsaveopt pln pts dtherm tpr_shadow vnmi flexpriority ept vpid
bogomips	: 6584.84
clflush size	: 64
cache_alignment	: 64
address sizes	: 36 bits physical, 48 bits virtual
power management:

processor	: 1
vendor_id	: GenuineIntel
cpu family	: 6
model		: 42
model name	: Intel(R) Core(TM) i3-2120 CPU @ 3.30GHz
stepping	: 7
microcode	: 0x12
cpu MHz		: 3300.000
cache size	: 3072 KB
physical id	: 0
siblings	: 4
core id		: 1
cpu cores	: 2
apicid		: 2
initial apicid	: 2
fpu		: yes
fpu_exception	: yes
cpuid level	: 13
wp		: yes
flags		: fpu vme de pse tsc msr pae mce cx8 apic sep mtrr pge mca cmov pat pse36 clflush dts acpi mmx fxsr sse sse2 ss ht tm pbe syscall nx rdtscp lm constant_tsc arch_perfmon pebs bts rep_good nopl xtopology nonstop_tsc aperfmperf eagerfpu pni pclmulqdq dtes64 monitor ds_cpl vmx est tm2 ssse3 cx16 xtpr pdcm pcid sse4_1 sse4_2 popcnt tsc_deadline_timer xsave avx lahf_lm arat epb xsaveopt pln pts dtherm tpr_shadow vnmi flexpriority ept vpid
bogomips	: 6584.84
clflush size	: 64
cache_alignment	: 64
address sizes	: 36 bits physical, 48 bits virtual
power management:

processor	: 2
vendor_id	: GenuineIntel
cpu family	: 6
model		: 42
model name	: Intel(R) Core(TM) i3-2120 CPU @ 3.30GHz
stepping	: 7
microcode	: 0x12
cpu MHz		: 1600.000
cache size	: 3072 KB
physical id	: 0
siblings	: 4
core id		: 0
cpu cores	: 2
apicid		: 1
initial apicid	: 1
fpu		: yes
fpu_exception	: yes
cpuid level	: 13
wp		: yes
flags		: fpu vme de pse tsc msr pae mce cx8 apic sep mtrr pge mca cmov pat pse36 clflush dts acpi mmx fxsr sse sse2 ss ht tm pbe syscall nx rdtscp lm constant_tsc arch_perfmon pebs bts rep_good nopl xtopology nonstop_tsc aperfmperf eagerfpu pni pclmulqdq dtes64 monitor ds_cpl vmx est tm2 ssse3 cx16 xtpr pdcm pcid sse4_1 sse4_2 popcnt tsc_deadline_timer xsave avx lahf_lm arat epb xsaveopt pln pts dtherm tpr_shadow vnmi flexpriority ept vpid
bogomips	: 6584.84
clflush size	: 64
cache_alignment	: 64
address sizes	: 36 bits physical, 48 bits virtual
power management:

processor	: 3
vendor_id	: GenuineIntel
cpu family	: 6
model		: 42
model name	: Intel(R) Core(TM) i3-2120 CPU @ 3.30GHz
stepping	: 7
microcode	: 0x12
cpu MHz		: 1600.000
cache size	: 3072 KB
physical id	: 0
siblings	: 4
core id		: 1
cpu cores	: 2
apicid		: 3
initial apicid	: 3
fpu		: yes
fpu_exception	: yes
cpuid level	: 13
wp		: yes
flags		: fpu vme de pse tsc msr pae mce cx8 apic sep mtrr pge mca cmov pat pse36 clflush dts acpi mmx fxsr sse sse2 ss ht tm pbe syscall nx rdtscp lm constant_tsc arch_perfmon pebs bts rep_good nopl xtopology nonstop_tsc aperfmperf eagerfpu pni pclmulqdq dtes64 monitor ds_cpl vmx est tm2 ssse3 cx16 xtpr pdcm pcid sse4_1 sse4_2 popcnt tsc_deadline_timer xsave avx lahf_lm arat epb xsaveopt pln pts dtherm tpr_shadow vnmi flexpriority ept vpid
bogomips	: 6584.84
clflush size	: 64
cache_alignment	: 64
address sizes	: 36 bits physical, 48 bits virtual
power management:



Memory: 4k page, physical 3957820k(108436k free), swap 0k(0k free)

vm_info: Java HotSpot(TM) 64-Bit Server VM (25.25-b02) for linux-amd64 JRE (1.8.0_25-b17), built on Sep 17 2014 17:32:11 by "java_re" with gcc 4.3.0 20080428 (Red Hat 4.3.0-8)

time: Thu Dec 29 14:56:25 2016
elapsed time: 186 seconds (0d 0h 3m 6s)

