<?xml version="1.0" encoding="utf-8"?>
<!-- Generated by IcoMoon.io -->
<!DOCTYPE svg PUBLIC "-//W3C//DTD SVG 1.1//EN" "http://www.w3.org/Graphics/SVG/1.1/DTD/svg11.dtd">
<svg version="1.1" xmlns="http://www.w3.org/2000/svg" xmlns:xlink="http://www.w3.org/1999/xlink" width="32" height="32" viewBox="0 0 32 32">
<path d="M0.125 26.357h31.75v3.226h-31.75v-3.226z" fill="#000000"></path>
<path d="M5.016 18.484c0.424 0.593 0.904 0.907 1.426 0.932 0.997 0.044 1.887-0.945 1.896-0.955 0.078-0.093 1.025-1.194 2.236-1.159 0.704 0.023 1.339 0.42 1.883 1.181 0.425 0.593 0.904 0.907 1.425 0.932 0.995 0.044 1.887-0.945 1.897-0.955 0.078-0.093 1.033-1.194 2.236-1.159 0.706 0.023 1.339 0.42 1.884 1.181 0.424 0.593 0.904 0.907 1.426 0.932 0.997 0.044 1.887-0.945 1.896-0.955 0.077-0.093 1.025-1.194 2.236-1.159 0.704 0.023 1.339 0.42 1.883 1.181 0.424 0.593 0.904 0.907 1.426 0.932 0.604 0.027 1.168-0.326 1.522-0.611v-2.067c0-0.329-0.267-0.595-0.596-0.595l-3.607-0.011v-3.050c-0.251 0.133-0.547 0.232-0.877 0.232h-0.018c-0.577-0.007-1.098-0.309-1.551-0.898-0.304-0.394-0.618-0.595-0.935-0.595-0.544 0-1.001 0.554-1.031 0.591l-0.135 0.149c-0.243 0.253-0.818 0.754-1.564 0.754h-0.017c-0.578-0.007-1.098-0.309-1.552-0.898-0.303-0.394-0.618-0.595-0.936-0.595-0.544 0-1 0.554-1.030 0.591l-0.134 0.149c-0.243 0.253-0.819 0.754-1.565 0.754h-0.017c-0.577-0.007-1.098-0.309-1.551-0.898-0.303-0.394-0.619-0.595-0.936-0.595-0.544 0-1.001 0.554-1.030 0.591l-0.010 0.011-0.125 0.137c-0.244 0.253-0.82 0.754-1.566 0.754h-0.016c-0.578-0.007-1.1-0.309-1.553-0.898-0.303-0.394-0.618-0.595-0.936-0.595-0.354 0-0.671 0.236-0.859 0.411v3.9l-3.835 0.013c-0.328 0-0.594 0.266-0.594 0.595v1.014c0.384-0.251 0.877-0.467 1.419-0.451 0.706 0.023 1.34 0.42 1.884 1.182z" fill="#000000"></path>
<path d="M8.552 10.365c0.301 0.391 0.618 0.591 0.943 0.595h0.001c0.602 0 1.092-0.597 1.097-0.603l0.128-0.146c0.243-0.257 0.798-0.744 1.514-0.744 0.571 0 1.092 0.302 1.551 0.898 0.301 0.391 0.619 0.591 0.945 0.595 0.59 0 1.089-0.594 1.098-0.603 0.007-0.008 0.018-0.024 0.041-0.050l0.086-0.095c0.243-0.257 0.799-0.745 1.514-0.745 0.57 0 1.093 0.302 1.552 0.898 0.301 0.391 0.618 0.591 0.943 0.595 0 0 0.001 0 0.002 0 0.587 0 1.081-0.585 1.094-0.601 0.007-0.008 0.020-0.024 0.042-0.050l0.088-0.097c0.243-0.257 0.798-0.745 1.514-0.745 0.571 0 1.093 0.302 1.551 0.898 0.301 0.391 0.618 0.591 0.944 0.595h0.001c0.372 0 0.69-0.215 0.887-0.389v-1.913c0-0.329-0.267-0.595-0.595-0.595h-18.752c-0.329 0-0.596 0.266-0.596 0.595v1.042c0.244-0.133 0.534-0.234 0.857-0.234 0.572 0 1.094 0.302 1.553 0.898z" fill="#000000"></path>
<path d="M30.251 24.868c0.021-0.063 0.037-0.129 0.037-0.199v-3.746c-0.392 0.25-0.895 0.472-1.45 0.472-0.034 0-0.067-0.001-0.102-0.003-0.712-0.035-1.345-0.432-1.88-1.18-0.431-0.603-0.909-0.917-1.419-0.933-0.949-0.030-1.754 0.939-1.762 0.949l-0.007 0.007c-0.042 0.049-1.029 1.16-2.271 1.16-0.035 0-0.067-0.001-0.102-0.003-0.713-0.035-1.345-0.432-1.88-1.18-0.431-0.603-0.91-0.917-1.419-0.933-0.952-0.030-1.754 0.939-1.762 0.949l-0.007 0.007c-0.043 0.049-1.030 1.16-2.272 1.16-0.034 0-0.067-0.001-0.101-0.003-0.713-0.035-1.346-0.432-1.881-1.18-0.432-0.603-0.91-0.917-1.419-0.933-0.937-0.030-1.755 0.939-1.763 0.949l-0.007 0.007c-0.042 0.049-1.029 1.16-2.272 1.16-0.033 0-0.067-0.001-0.101-0.003-0.712-0.035-1.345-0.432-1.881-1.18-0.432-0.603-0.908-0.917-1.419-0.933-0.559-0.018-1.074 0.318-1.4 0.595v4.795c0 0.070 0.014 0.136 0.036 0.199h28.503z" fill="#000000"></path>
<path d="M10.688 4.526l-0.308-0.133c0.154-0.168 0.26-0.473 0.26-0.83 0-0.535-0.522-1.146-0.522-1.146s-0.521 0.612-0.521 1.146c0 0.354 0.104 0.661 0.256 0.829l-0.282 0.133v2.938h1.117v-2.938z" fill="#000000"></path>
<path d="M14.601 4.526l-0.307-0.133c0.154-0.168 0.259-0.473 0.259-0.83 0-0.535-0.521-1.146-0.521-1.146s-0.521 0.612-0.521 1.146c0 0.354 0.104 0.661 0.256 0.829l-0.282 0.133v2.938h1.117v-2.938z" fill="#000000"></path>
<path d="M18.516 4.526l-0.308-0.133c0.154-0.168 0.26-0.473 0.26-0.83 0-0.535-0.522-1.146-0.522-1.146s-0.521 0.612-0.521 1.146c0 0.354 0.104 0.661 0.256 0.829l-0.282 0.133v2.938h1.117v-2.938z" fill="#000000"></path>
<path d="M22.43 4.526l-0.308-0.133c0.155-0.168 0.26-0.473 0.26-0.83 0-0.535-0.522-1.146-0.522-1.146s-0.521 0.612-0.521 1.146c0 0.354 0.104 0.661 0.257 0.829l-0.283 0.133v2.938h1.117v-2.938z" fill="#000000"></path>
</svg>
