<?xml version="1.0" encoding="UTF-8" standalone="no"?>
<!-- Created with Inkscape (http://www.inkscape.org/) -->

<svg
   xmlns:dc="http://purl.org/dc/elements/1.1/"
   xmlns:cc="http://creativecommons.org/ns#"
   xmlns:rdf="http://www.w3.org/1999/02/22-rdf-syntax-ns#"
   xmlns:svg="http://www.w3.org/2000/svg"
   xmlns="http://www.w3.org/2000/svg"
   xmlns:sodipodi="http://sodipodi.sourceforge.net/DTD/sodipodi-0.dtd"
   xmlns:inkscape="http://www.inkscape.org/namespaces/inkscape"
   width="129"
   height="129"
   id="svg2"
   version="1.1"
   inkscape:version="0.48.4 r9939"
   sodipodi:docname="dinop.svg">
  <defs
     id="defs4" />
  <sodipodi:namedview
     id="base"
     pagecolor="#ffffff"
     bordercolor="#666666"
     borderopacity="1.0"
     inkscape:pageopacity="0.0"
     inkscape:pageshadow="2"
     inkscape:zoom="1.4142136"
     inkscape:cx="181.72017"
     inkscape:cy="24.996147"
     inkscape:document-units="px"
     inkscape:current-layer="layer1"
     showgrid="false"
     showguides="true"
     inkscape:guide-bbox="true"
     inkscape:window-width="799"
     inkscape:window-height="852"
     inkscape:window-x="799"
     inkscape:window-y="23"
     inkscape:window-maximized="0">
    <sodipodi:guide
       orientation="1,0"
       position="107.07617,708.11693"
       id="guide3098" />
    <sodipodi:guide
       orientation="1,0"
       position="-314.08188,371.35037"
       id="guide3879" />
    <sodipodi:guide
       orientation="0,1"
       position="-436.67224,247.86518"
       id="guide3881" />
  </sodipodi:namedview>
  <metadata
     id="metadata7">
    <rdf:RDF>
      <cc:Work
         rdf:about="">
        <dc:format>image/svg+xml</dc:format>
        <dc:type
           rdf:resource="http://purl.org/dc/dcmitype/StillImage" />
        <dc:title />
      </cc:Work>
    </rdf:RDF>
  </metadata>
  <g
     inkscape:label="Layer 1"
     inkscape:groupmode="layer"
     id="layer1"
     transform="translate(0,-923.36218)">
    <g
       id="g3955"
       transform="matrix(0.16740997,0,0,0.16488064,1.5112244,911.26902)">
      <path
         sodipodi:nodetypes="ccccssccc"
         inkscape:connector-curvature="0"
         id="path3050"
         d="m 648.57143,186.6479 c -0.26017,-16.52967 50,-17.0972 50,0 l 0,602.85714 c 0,35.83103 -27.56195,63.57143 -63.57143,63.57143 l -455,0 c -27.10451,0 -27.73016,-49.28572 0,-49.28572 l 437.14286,0 c 16.52075,0 32.85714,-2.75969 32.85714,-32.85714 z"
         style="fill:#333333;fill-opacity:1;stroke:#333333;stroke-width:1px;stroke-linecap:butt;stroke-linejoin:miter;stroke-opacity:1" />
      <g
         transform="translate(610.51643,-507.63205)"
         id="g3933">
        <path
           style="fill:none;stroke:#333333;stroke-width:30;stroke-linecap:round;stroke-linejoin:round;stroke-miterlimit:4;stroke-opacity:1;stroke-dasharray:none"
           d="m -515.78098,797.11471 195.46452,-195.46451 332.84526,0 0,660.1347 c 0,15.9351 -8.5397564,25.7589 -25.75889,25.7589 -160.78261,0 -328.36328,0 -482.34784,0 -14.85191,0 -20.20305,-21.0012 -20.20305,-34.9927 z"
           id="path3096"
           inkscape:connector-curvature="0"
           sodipodi:nodetypes="cccccccc" />
        <path
           style="fill:none;stroke:#333333;stroke-width:30;stroke-linecap:round;stroke-linejoin:round;stroke-miterlimit:4;stroke-opacity:1;stroke-dasharray:none"
           d="m -515.41641,804.497 201.33453,0 0,-202.22936 z"
           id="path3883"
           inkscape:connector-curvature="0" />
      </g>
      <rect
         ry="0.018761884"
         y="233.01915"
         x="383.45898"
         height="20.786777"
         width="151.81096"
         id="rect3885"
         style="fill:#333333;fill-opacity:1;stroke:#333333;stroke-width:14.90782261;stroke-linecap:round;stroke-linejoin:round;stroke-miterlimit:4;stroke-opacity:1;stroke-dasharray:none" />
      <rect
         ry="0.018761884"
         y="303.26303"
         x="383.45898"
         height="20.786777"
         width="151.81096"
         id="rect3885-8"
         style="fill:#333333;fill-opacity:1;stroke:#333333;stroke-width:14.90782261;stroke-linecap:round;stroke-linejoin:round;stroke-miterlimit:4;stroke-opacity:1;stroke-dasharray:none" />
      <rect
         ry="0.018761884"
         y="440.23911"
         x="383.45898"
         height="20.786777"
         width="151.81096"
         id="rect3885-6"
         style="fill:#333333;fill-opacity:1;stroke:#333333;stroke-width:14.90782261;stroke-linecap:round;stroke-linejoin:round;stroke-miterlimit:4;stroke-opacity:1;stroke-dasharray:none" />
      <rect
         ry="0.018761884"
         y="509.83978"
         x="383.45898"
         height="20.786777"
         width="151.81096"
         id="rect3885-7"
         style="fill:#333333;fill-opacity:1;stroke:#333333;stroke-width:14.90782261;stroke-linecap:round;stroke-linejoin:round;stroke-miterlimit:4;stroke-opacity:1;stroke-dasharray:none" />
      <rect
         ry="0.018761884"
         y="578.1756"
         x="383.45898"
         height="20.786777"
         width="151.81096"
         id="rect3885-3"
         style="fill:#333333;fill-opacity:1;stroke:#333333;stroke-width:14.90782261;stroke-linecap:round;stroke-linejoin:round;stroke-miterlimit:4;stroke-opacity:1;stroke-dasharray:none" />
      <rect
         ry="0.018761884"
         y="646.51068"
         x="383.45898"
         height="20.786777"
         width="151.81096"
         id="rect3885-87"
         style="fill:#333333;fill-opacity:1;stroke:#333333;stroke-width:14.90782261;stroke-linecap:round;stroke-linejoin:round;stroke-miterlimit:4;stroke-opacity:1;stroke-dasharray:none" />
      <text
         sodipodi:linespacing="125%"
         id="text3937"
         y="647.2865"
         x="168.10391"
         style="font-size:81.10367584px;font-style:normal;font-weight:normal;line-height:125%;letter-spacing:0px;word-spacing:0px;fill:#2b79c2;fill-opacity:1;stroke:none;font-family:Sans"
         xml:space="preserve"><tspan
           style="font-size:291.97323608px;font-style:normal;font-variant:normal;font-weight:bold;font-stretch:normal;fill:#2b79c2;fill-opacity:1;font-family:Loma;-inkscape-font-specification:Loma Bold"
           y="647.2865"
           x="168.10391"
           id="tspan3939"
           sodipodi:role="line">$</tspan></text>
    </g>
  </g>
</svg>
