<?xml version="1.0" encoding="utf-8"?>
<!-- Generator: Adobe Illustrator 16.0.0, SVG Export Plug-In . SVG Version: 6.00 Build 0)  -->
<!DOCTYPE svg PUBLIC "-//W3C//DTD SVG 1.1//EN" "http://www.w3.org/Graphics/SVG/1.1/DTD/svg11.dtd">
<svg version="1.1" id="Layer_1" xmlns="http://www.w3.org/2000/svg" xmlns:xlink="http://www.w3.org/1999/xlink" x="0px" y="0px"
	 width="48px" height="48px" viewBox="0 0 48 48" enable-background="new 0 0 48 48" xml:space="preserve">
<path fill="#020202" d="M32.823,27.202l-3.572-0.894c1.507-1.338,2.736-3.181,3.559-5.2c1.152-0.255,2.208-1.214,2.382-3.327
	c0.165-1.99-0.444-2.877-1.26-3.264c-0.009-0.237-0.02-0.469-0.034-0.696c1.049-5.812-3.103-7.843-3.427-7.941
	c-0.541-0.822-4.207-5.821-10.857-1.763c-0.974,0.594-2.519,1.764-3.344,2.942c-0.992,1.246-1.713,3.049-2.009,5.655
	c-0.205,0.022-0.409,0.054-0.611,0.1c-0.054-1.279,0.017-5.048,2.405-7.728C17.821,3.105,20.503,2.1,24.023,2.1
	c3.526,0,6.263,1.013,8.135,3.009c3.075,3.28,2.797,8.175,2.794,8.224c-0.017,0.262,0.182,0.489,0.444,0.506
	c0.011,0.001,0.021,0.001,0.032,0.001c0.249,0,0.458-0.193,0.475-0.445c0.015-0.217,0.313-5.345-3.044-8.933
	c-2.06-2.201-5.033-3.317-8.837-3.317c-3.808,0-6.73,1.114-8.686,3.312c-2.859,3.213-2.706,7.66-2.625,8.695
	c-1.113,0.595-1.917,1.89-1.689,4.662c0.301,3.653,2.422,4.926,4.428,4.926c0.39,0,0.734-0.084,1.038-0.239
	c1.148,0.743,2.991,1.387,5.944,1.507c0.29,0.436,0.896,0.735,1.6,0.735c0.982,0,1.779-0.586,1.779-1.309s-0.797-1.309-1.779-1.309
	c-0.801,0-1.478,0.389-1.701,0.924c-1.937-0.092-3.324-0.421-4.315-0.836c-1.353-1.819-1.996-4.907-1.996-6.671
	c0-0.653,0.021-1.26,0.059-1.825c6.256,0.21,9.974-2.319,12.007-4.516c2.617,2.608,3.548,6.138,3.858,7.825
	c-0.606,4.628-3.906,9.54-7.912,9.54c-1.723,0-3.316-0.909-4.62-2.313c-1.332-0.279-2.441-0.714-3.323-1.304
	c0.72,1.287,1.614,2.438,2.645,3.353l-3.58,0.898c-4.889,1.224-8.28,5.598-8.28,10.637v6.032c0,1.711,1.347,3.13,3.058,3.13h28.09
	c1.712,0,3.102-1.418,3.102-3.13v-6.032C41.125,32.8,37.712,28.425,32.823,27.202z M31.345,28.797l-4.65,3.183l-1.417-3.622
	c0.64-0.12,1.259-0.33,1.853-0.617L31.345,28.797z M20.858,27.734c0.583,0.28,1.194,0.488,1.827,0.611l-1.422,3.636l-4.651-3.184
	L20.858,27.734z M19.825,45.041h-5.352v-2.533c0-0.263-0.211-0.477-0.475-0.477c-0.263,0-0.475,0.213-0.475,0.477v2.533h-3.59
	c-0.66,0-1.159-0.511-1.159-1.171v-6.032c0-4.088,2.702-7.646,6.624-8.73l5.872,4.026c0.06,0.614,0.572,1.119,1.229,1.136
	L19.825,45.041z M23.221,29.608l0.446-1.144c0.121,0.006,0.542,0.007,0.631,0.004l0.445,1.14H23.221z M39.225,43.87
	c0,0.66-0.542,1.171-1.202,1.171h-3.606v-2.533c0-0.263-0.211-0.477-0.475-0.477c-0.263,0-0.475,0.213-0.475,0.477v2.533h-5.343
	l-2.674-10.77c0.652-0.017,1.162-0.515,1.228-1.123l5.901-4.039c3.922,1.083,6.645,4.642,6.645,8.729V43.87z"/>
</svg>
