<?xml version="1.0" encoding="UTF-8" standalone="no"?>
<!-- Created with Inkscape (http://www.inkscape.org/) -->

<svg
   xmlns:dc="http://purl.org/dc/elements/1.1/"
   xmlns:cc="http://creativecommons.org/ns#"
   xmlns:rdf="http://www.w3.org/1999/02/22-rdf-syntax-ns#"
   xmlns:svg="http://www.w3.org/2000/svg"
   xmlns="http://www.w3.org/2000/svg"
   xmlns:sodipodi="http://sodipodi.sourceforge.net/DTD/sodipodi-0.dtd"
   xmlns:inkscape="http://www.inkscape.org/namespaces/inkscape"
   width="130"
   height="130"
   id="svg2"
   version="1.1"
   inkscape:version="0.48.4 r9939"
   sodipodi:docname="New document 1">
  <defs
     id="defs4" />
  <sodipodi:namedview
     id="base"
     pagecolor="#ffffff"
     bordercolor="#666666"
     borderopacity="1.0"
     inkscape:pageopacity="0.0"
     inkscape:pageshadow="2"
     inkscape:zoom="1.9427215"
     inkscape:cx="182.61946"
     inkscape:cy="122.9259"
     inkscape:document-units="px"
     inkscape:current-layer="layer1"
     showgrid="false"
     inkscape:snap-global="false"
     showguides="true"
     inkscape:guide-bbox="true"
     inkscape:window-width="1920"
     inkscape:window-height="1055"
     inkscape:window-x="1600"
     inkscape:window-y="0"
     inkscape:window-maximized="1" />
  <metadata
     id="metadata7">
    <rdf:RDF>
      <cc:Work
         rdf:about="">
        <dc:format>image/svg+xml</dc:format>
        <dc:type
           rdf:resource="http://purl.org/dc/dcmitype/StillImage" />
        <dc:title></dc:title>
      </cc:Work>
    </rdf:RDF>
  </metadata>
  <g
     inkscape:label="Layer 1"
     inkscape:groupmode="layer"
     id="layer1"
     transform="translate(0,-922.36218)">
    <g
       id="g4270"
       transform="matrix(1.1651947,0,0,1.1651947,-1974.5097,1235.9273)">
      <path
         sodipodi:type="arc"
         style="fill:#2a5ca9;fill-opacity:1;stroke:#2a5ca9;stroke-width:1.0340426;stroke-linecap:round;stroke-linejoin:round;stroke-miterlimit:4;stroke-opacity:1;stroke-dasharray:none"
         id="path3392"
         sodipodi:cx="1754.6262"
         sodipodi:cy="-1173.7123"
         sodipodi:rx="10.423522"
         sodipodi:ry="10.423522"
         d="m 1765.0497,-1173.7123 c 0,5.7568 -4.6667,10.4235 -10.4235,10.4235 -5.7567,0 -10.4235,-4.6667 -10.4235,-10.4235 0,-5.7567 4.6668,-10.4235 10.4235,-10.4235 5.7568,0 10.4235,4.6668 10.4235,10.4235 z"
         transform="matrix(1.1604938,0,0,1.1604938,-247.24765,1149.0143)" />
      <path
         transform="matrix(1.1604938,0,0,1.1604938,-323.17207,1149.0144)"
         d="m 1765.0497,-1173.7123 c 0,5.7568 -4.6667,10.4235 -10.4235,10.4235 -5.7567,0 -10.4235,-4.6667 -10.4235,-10.4235 0,-5.7567 4.6668,-10.4235 10.4235,-10.4235 5.7568,0 10.4235,4.6668 10.4235,10.4235 z"
         sodipodi:ry="10.423522"
         sodipodi:rx="10.423522"
         sodipodi:cy="-1173.7123"
         sodipodi:cx="1754.6262"
         id="path3394"
         style="fill:#2a5ca9;fill-opacity:1;stroke:#2a5ca9;stroke-width:1.0340426;stroke-linecap:round;stroke-linejoin:round;stroke-miterlimit:4;stroke-opacity:1;stroke-dasharray:none"
         sodipodi:type="arc" />
      <path
         sodipodi:type="arc"
         style="fill:#333333;fill-opacity:1;stroke:#2a5ca9;stroke-width:1.0340426;stroke-linecap:round;stroke-linejoin:round;stroke-miterlimit:4;stroke-opacity:1;stroke-dasharray:none"
         id="path3396"
         sodipodi:cx="1754.6262"
         sodipodi:cy="-1173.7123"
         sodipodi:rx="10.423522"
         sodipodi:ry="10.423522"
         d="m 1765.0497,-1173.7123 c 0,5.7568 -4.6667,10.4235 -10.4235,10.4235 -5.7567,0 -10.4235,-4.6667 -10.4235,-10.4235 0,-5.7567 4.6668,-10.4235 10.4235,-10.4235 5.7568,0 10.4235,4.6668 10.4235,10.4235 z"
         transform="matrix(1.1604938,0,0,1.1604938,-285.46723,1187.8773)" />
      <path
         transform="matrix(1.1604938,0,0,1.1604938,-285.20986,1109.6366)"
         d="m 1765.0497,-1173.7123 c 0,5.7568 -4.6667,10.4235 -10.4235,10.4235 -5.7567,0 -10.4235,-4.6667 -10.4235,-10.4235 0,-5.7567 4.6668,-10.4235 10.4235,-10.4235 5.7568,0 10.4235,4.6668 10.4235,10.4235 z"
         sodipodi:ry="10.423522"
         sodipodi:rx="10.423522"
         sodipodi:cy="-1173.7123"
         sodipodi:cx="1754.6262"
         id="path3379"
         style="fill:#333333;fill-opacity:1;stroke:#2a5ca9;stroke-width:1.0340426;stroke-linecap:round;stroke-linejoin:round;stroke-miterlimit:4;stroke-opacity:1;stroke-dasharray:none"
         sodipodi:type="arc" />
      <rect
         y="-249.90347"
         x="1745.415"
         height="14.589255"
         width="11.118308"
         id="rect4246"
         style="fill:#333333;fill-opacity:1;stroke:#000000;stroke-width:1.80768144;stroke-linecap:round;stroke-linejoin:round;stroke-miterlimit:4;stroke-opacity:0;stroke-dasharray:none" />
      <rect
         ry="3.9127574"
         transform="translate(0,922.36218)"
         y="-1135.9135"
         x="1726.9819"
         height="24.659472"
         width="33.030952"
         id="rect4250"
         style="fill:#333333;fill-opacity:1;stroke:#000000;stroke-width:1.20000005;stroke-linecap:round;stroke-linejoin:round;stroke-miterlimit:4;stroke-opacity:0;stroke-dasharray:none" />
      <path
         sodipodi:nodetypes="sssccssssss"
         inkscape:connector-curvature="0"
         id="rect4166"
         d="m 1731.0767,-237.06604 39.6351,0 c 2.2813,0 4.1179,1.8366 4.1179,4.11793 l 0,13.30017 0,13.74015 0,13.36692 c 0,2.28133 -1.8366,4.11793 -4.1179,4.11793 l -39.6351,0 c -2.2814,0 -4.118,-1.8366 -4.118,-4.11793 l 0,-40.40724 c 0,-2.28133 1.8366,-4.11793 4.118,-4.11793 z"
         style="fill:none;stroke:none" />
      <path
         transform="translate(0,922.36218)"
         inkscape:connector-curvature="0"
         id="path4168"
         d="m 1745.1034,-1164.3183 -0.1286,4.7614 0.1286,-0.3861"
         style="fill:none;stroke:#2a5ca9;stroke-width:1px;stroke-linecap:butt;stroke-linejoin:miter;stroke-opacity:1" />
      <path
         transform="translate(0,922.36218)"
         inkscape:connector-curvature="0"
         id="path4170"
         d="m 1756.5564,-1164.1896 0.1287,5.0187"
         style="fill:none;stroke:#2a5ca9;stroke-width:1px;stroke-linecap:butt;stroke-linejoin:miter;stroke-opacity:1" />
      <path
         transform="translate(0,922.36218)"
         inkscape:connector-curvature="0"
         id="path4180"
         d="m 1723.3556,-1141.7983 3.6032,0 0.2574,0.1286"
         style="fill:none;stroke:#2a5ca9;stroke-width:1px;stroke-linecap:butt;stroke-linejoin:miter;stroke-opacity:1" />
      <path
         transform="translate(0,922.36218)"
         inkscape:connector-curvature="0"
         id="path4182"
         d="m 1723.0982,-1128.9298 3.4745,0"
         style="fill:none;stroke:#2a5ca9;stroke-width:1px;stroke-linecap:butt;stroke-linejoin:miter;stroke-opacity:1" />
      <path
         inkscape:connector-curvature="0"
         id="path4184"
         d="m 1744.2991,-183.88934 0,-5.14237"
         style="fill:none;stroke:#2a5ca9;stroke-width:1.08825755px;stroke-linecap:butt;stroke-linejoin:miter;stroke-opacity:1" />
      <path
         transform="translate(0,922.36218)"
         inkscape:connector-curvature="0"
         id="path4186"
         d="m 1757.0712,-1107.0533 0,-3.7318"
         style="fill:none;stroke:#2a5ca9;stroke-width:1px;stroke-linecap:butt;stroke-linejoin:miter;stroke-opacity:1" />
      <path
         transform="translate(0,922.36218)"
         inkscape:connector-curvature="0"
         id="path4188"
         d="m 1779.0764,-1128.5437 -3.9893,0"
         style="fill:none;stroke:#2a5ca9;stroke-width:1px;stroke-linecap:butt;stroke-linejoin:miter;stroke-opacity:1" />
      <path
         transform="translate(0,922.36218)"
         inkscape:connector-curvature="0"
         id="path4190"
         d="m 1779.0764,-1142.1844 -4.3753,0"
         style="fill:none;stroke:#2a5ca9;stroke-width:1px;stroke-linecap:butt;stroke-linejoin:miter;stroke-opacity:1" />
      <rect
         ry="3.9127574"
         y="-236.89137"
         x="1741.8595"
         height="24.659472"
         width="33.030952"
         id="rect4250-1"
         style="fill:#333333;fill-opacity:1;stroke:#000000;stroke-width:1.20000005;stroke-linecap:round;stroke-linejoin:round;stroke-miterlimit:4;stroke-opacity:0;stroke-dasharray:none" />
      <path
         sodipodi:nodetypes="csssscccssc"
         inkscape:connector-curvature="0"
         id="rect4192"
         d="m 1731.0469,-237.00624 15.8283,0 c 2.2813,0 4.1179,1.8366 4.1179,4.11793 l 0,15.82831 c 0,5.16659 0.6935,4.09336 -4.1179,4.11794 l -15.9537,0.0815 -3.9693,6.19714 -0.023,-10.39655 0,-15.82831 c 0,-2.28133 1.8366,-4.11793 4.1179,-4.11793 z"
         style="fill:#2a5ca9;fill-opacity:1;stroke:#2a5ca9;stroke-width:1.20000005;stroke-linecap:round;stroke-linejoin:round;stroke-miterlimit:4;stroke-opacity:1" />
      <path
         inkscape:connector-curvature="0"
         id="path4230"
         d="m 1721.3296,-258.9425 c -3.6389,-1.0796 -6.4392,-3.883 -7.7564,-7.765 -0.5086,-1.499 -0.4773,-4.7562 0.062,-6.4606 1.1086,-3.5032 3.7784,-6.2274 7.3605,-7.5104 1.8368,-0.658 4.8808,-0.6998 6.7945,-0.093 3.5586,1.1276 6.2928,3.8212 7.575,7.4628 0.528,1.4994 0.6516,4.3099 0.2624,5.9647 -0.7059,3.0012 -2.9285,5.9666 -5.5626,7.4217 -2.5898,1.4306 -5.9475,1.8075 -8.7354,0.9803 z"
         style="opacity:0.02999998;fill:#2a5ca9;fill-opacity:0.63921569;stroke:#2a5ca9;stroke-width:0.21838647;stroke-linecap:round;stroke-linejoin:round;stroke-miterlimit:4;stroke-opacity:1;stroke-dasharray:none" />
      <rect
         rx="0"
         ry="0"
         transform="translate(0,922.36218)"
         y="-1141.9646"
         x="1774.7539"
         height="13.512673"
         width="8.7354736"
         id="rect4242"
         style="fill:#2a5ca9;fill-opacity:1;stroke:#000000;stroke-width:1.20000005;stroke-linecap:round;stroke-linejoin:round;stroke-miterlimit:4;stroke-opacity:0;stroke-dasharray:none" />
      <rect
         transform="translate(0,922.36218)"
         y="-1141.7826"
         x="1721.8862"
         height="13.148685"
         width="5.2776728"
         id="rect4244"
         style="fill:#2a5ca9;fill-opacity:1;stroke:#000000;stroke-width:1.20000005;stroke-linecap:round;stroke-linejoin:round;stroke-miterlimit:4;stroke-opacity:0;stroke-dasharray:none" />
      <rect
         y="-189.36765"
         x="1744.434"
         height="11.959943"
         width="12.458518"
         id="rect4248"
         style="fill:#333333;fill-opacity:1;stroke:#000000;stroke-width:1.25320625;stroke-linecap:round;stroke-linejoin:round;stroke-miterlimit:4;stroke-opacity:0;stroke-dasharray:none" />
      <path
         sodipodi:nodetypes="sssssssss"
         inkscape:connector-curvature="0"
         id="rect4192-6"
         d="m 1754.8284,-212.75319 15.8283,0 c 2.2813,0 4.4149,-8.26365 4.3909,-5.98243 l -0.273,25.92868 c -0.024,2.2812 -1.8366,4.11793 -4.1179,4.11793 l -15.8283,0 c -2.2814,0 -4.118,-1.8366 -4.118,-4.11793 l 0,-15.82831 c 0,-5.32519 -1.0161,-4.11794 4.118,-4.11794 z"
         style="fill:#2a5ca9;fill-opacity:1;stroke:#2a5ca9;stroke-width:1.20000005;stroke-linecap:round;stroke-linejoin:round;stroke-miterlimit:4;stroke-opacity:1" />
    </g>
  </g>
</svg>
