<?xml version="1.0" encoding="UTF-8" standalone="no"?>
<!-- Created with Inkscape (http://www.inkscape.org/) -->

<svg
   xmlns:dc="http://purl.org/dc/elements/1.1/"
   xmlns:cc="http://creativecommons.org/ns#"
   xmlns:rdf="http://www.w3.org/1999/02/22-rdf-syntax-ns#"
   xmlns:svg="http://www.w3.org/2000/svg"
   xmlns="http://www.w3.org/2000/svg"
   xmlns:sodipodi="http://sodipodi.sourceforge.net/DTD/sodipodi-0.dtd"
   xmlns:inkscape="http://www.inkscape.org/namespaces/inkscape"
   width="29.782015"
   height="40.476601"
   id="svg5738"
   version="1.1"
   inkscape:version="0.48.4 r9939"
   sodipodi:docname="RURAL.svg">
  <defs
     id="defs5740" />
  <sodipodi:namedview
     id="base"
     pagecolor="#ffffff"
     bordercolor="#666666"
     borderopacity="1.0"
     inkscape:pageopacity="0.0"
     inkscape:pageshadow="2"
     inkscape:zoom="7.2407734"
     inkscape:cx="14.891012"
     inkscape:cy="20.238305"
     inkscape:document-units="px"
     inkscape:current-layer="layer1"
     showgrid="false"
     showborder="true"
     borderlayer="true"
     inkscape:showpageshadow="false"
     fit-margin-top="0"
     fit-margin-left="0"
     fit-margin-right="0"
     fit-margin-bottom="0"
     inkscape:window-width="1600"
     inkscape:window-height="848"
     inkscape:window-x="1024"
     inkscape:window-y="0"
     inkscape:window-maximized="1" />
  <metadata
     id="metadata5743">
    <rdf:RDF>
      <cc:Work
         rdf:about="">
        <dc:format>image/svg+xml</dc:format>
        <dc:type
           rdf:resource="http://purl.org/dc/dcmitype/StillImage" />
        <dc:title></dc:title>
      </cc:Work>
    </rdf:RDF>
  </metadata>
  <g
     inkscape:label="Layer 1"
     inkscape:groupmode="layer"
     id="layer1"
     transform="translate(-190.1028,-738.71016)">
    <g
       transform="matrix(0.87414992,0,0,0.87414992,-124.53314,528.64099)"
       style="display:inline"
       id="g5739-1-72-4">
      <path
         id="path282-9-22-7"
         style="fill:#f9ab5a;fill-opacity:1;fill-rule:nonzero;stroke:none"
         d="m 365.55663,286.50752 c 5.27875,0.31 18.2275,-0.14 22.26375,-0.14 4.035,0 5.9825,-2.365 6.12125,-7.93125 0.13875,-5.565 0,-18.9225 0,-22.40125 0,-3.47875 -1.80875,-5.565 -3.47875,-6.4 -1.66875,-0.835 -27.55,-0.5575 -27.55,-0.5575 0,0 -2.64375,2.2275 -2.7825,5.4275 -0.13875,3.2 -0.27875,21.2875 -0.13875,25.3225 0.13875,4.035 3.2,6.54 5.565,6.68"
         inkscape:connector-curvature="0" />
      <path
         id="path284-3-0-8"
         style="fill:#fbcc84;fill-opacity:1;fill-rule:nonzero;stroke:none"
         d="m 392.55038,251.16502 c 0,0 -1.80875,-2.64375 -1.80875,-3.89625 0,-1.25125 0.835,-1.1125 0.69625,-3.75625 -0.14,-2.64375 -1.81,-3.2 -3.6175,-3.2 -1.81,0 -20.59375,0.2775 -22.54125,0.2775 -1.94875,0 -3.34,0.4175 -3.47875,2.64375 -0.13875,2.22625 0.835,2.9225 0.835,4.17375 0,1.2525 -2.0875,3.0625 -1.67,4.03625 0.4175,0.97375 3.2,-1.11375 3.2,-1.11375 0,0 0.55625,1.80875 2.22625,1.9475 1.67,0.14 2.36625,-1.66875 3.6175,-1.66875 1.2525,0 0.69625,1.66875 2.505,1.66875 1.80875,0 2.365,-1.9475 4.17375,-1.9475 1.81,0 2.78375,1.9475 4.31375,1.9475 1.53125,0 2.7825,-1.8075 3.89625,-1.8075 1.1125,0 1.39125,1.39 2.7825,1.39 1.39125,0 0.835,-1.25125 1.9475,-1.25125 1.11375,0 2.9225,0.55625 2.9225,0.55625"
         inkscape:connector-curvature="0" />
      <path
         id="path286-5-0-1"
         style="fill:#f7931d;fill-opacity:1;fill-rule:evenodd;stroke:none"
         d="m 367.88538,263.20377 c -0.76,-0.90125 -0.80625,-2.18625 -0.06,-3.01625 0.7475,-0.83 2.03,-0.91875 3.0075,-0.25875 3.2125,-1.6525 7.9625,-0.7075 11.6325,2.595 3.67,3.3025 5.10875,7.92625 3.80375,11.295 0.76,0.90125 0.80625,2.18625 0.0587,3.01625 -0.74625,0.83 -2.02875,0.91875 -3.005,0.25875 -3.21375,1.65375 -7.96375,0.70875 -11.63375,-2.59375 -3.67,-3.3025 -5.11,-7.92625 -3.80375,-11.29625"
         inkscape:connector-curvature="0" />
    </g>
  </g>
</svg>
