<?xml version="1.0" encoding="UTF-8" standalone="no"?>
<!-- Created with Inkscape (http://www.inkscape.org/) -->

<svg
   xmlns:dc="http://purl.org/dc/elements/1.1/"
   xmlns:cc="http://creativecommons.org/ns#"
   xmlns:rdf="http://www.w3.org/1999/02/22-rdf-syntax-ns#"
   xmlns:svg="http://www.w3.org/2000/svg"
   xmlns="http://www.w3.org/2000/svg"
   xmlns:sodipodi="http://sodipodi.sourceforge.net/DTD/sodipodi-0.dtd"
   xmlns:inkscape="http://www.inkscape.org/namespaces/inkscape"
   width="30.40341"
   height="43.586609"
   id="svg5738"
   version="1.1"
   inkscape:version="0.48.4 r9939"
   sodipodi:docname="New document 21">
  <defs
     id="defs5740" />
  <sodipodi:namedview
     id="base"
     pagecolor="#ffffff"
     bordercolor="#666666"
     borderopacity="1.0"
     inkscape:pageopacity="0.0"
     inkscape:pageshadow="2"
     inkscape:zoom="7.2407734"
     inkscape:cx="11.624083"
     inkscape:cy="28.922699"
     inkscape:document-units="px"
     inkscape:current-layer="layer1"
     showgrid="false"
     showborder="true"
     borderlayer="true"
     inkscape:showpageshadow="false"
     fit-margin-top="0"
     fit-margin-left="0"
     fit-margin-right="0"
     fit-margin-bottom="0"
     inkscape:window-width="1600"
     inkscape:window-height="848"
     inkscape:window-x="1024"
     inkscape:window-y="0"
     inkscape:window-maximized="1" />
  <metadata
     id="metadata5743">
    <rdf:RDF>
      <cc:Work
         rdf:about="">
        <dc:format>image/svg+xml</dc:format>
        <dc:type
           rdf:resource="http://purl.org/dc/dcmitype/StillImage" />
        <dc:title></dc:title>
      </cc:Work>
    </rdf:RDF>
  </metadata>
  <g
     inkscape:label="Layer 1"
     inkscape:groupmode="layer"
     id="layer1"
     transform="translate(-193.36972,-727.71173)">
    <g
       style="display:inline"
       id="g5268"
       transform="translate(73.930844,535.11953)">
      <path
         id="path596-9-3-3-2-8"
         style="fill:#f2f0f0;fill-opacity:1;fill-rule:nonzero;stroke:none"
         d="m 119.43888,236.17881 30.40341,0 0,-43.58661 -30.40341,0 0,43.58661 z"
         inkscape:connector-curvature="0" />
      <path
         id="path598-1-8-6-5-0"
         style="fill:#008080;fill-opacity:1;fill-rule:nonzero;stroke:none"
         d="m 120.9634,234.65432 27.08488,0 0,-34.25954 -27.08488,0 0,34.25954 z"
         inkscape:connector-curvature="0" />
      <path
         id="path600-9-7-0-3-3"
         style="fill:#ff2a2a;fill-opacity:1;fill-rule:nonzero;stroke:none"
         d="m 143.53895,218.83006 c -3.30867,2.61834 -7.18768,4.55374 -11.17847,5.89414 -3.72373,1.25082 -7.63969,1.81048 -11.39708,2.89282 l 0,7.0373 27.08488,0 0,-20.02132 c -1.38803,1.50065 -2.88375,2.91008 -4.50933,4.19706"
         inkscape:connector-curvature="0" />
    </g>
  </g>
</svg>
