<?xml version="1.0" encoding="UTF-8" standalone="no"?>
<!-- Created with Inkscape (http://www.inkscape.org/) -->

<svg
   xmlns:dc="http://purl.org/dc/elements/1.1/"
   xmlns:cc="http://creativecommons.org/ns#"
   xmlns:rdf="http://www.w3.org/1999/02/22-rdf-syntax-ns#"
   xmlns:svg="http://www.w3.org/2000/svg"
   xmlns="http://www.w3.org/2000/svg"
   xmlns:sodipodi="http://sodipodi.sourceforge.net/DTD/sodipodi-0.dtd"
   xmlns:inkscape="http://www.inkscape.org/namespaces/inkscape"
   width="1601.8629"
   height="745.00848"
   id="svg7448"
   version="1.1"
   inkscape:version="0.48.4 r9939"
   sodipodi:docname="cenario2.svg"
    style="width: 100%; height: 100%">
  <defs
     id="defs7450">
    <clipPath
       clipPathUnits="userSpaceOnUse"
       id="clipPath6050">
      <g
         id="g6052">
        <path
           sodipodi:nodetypes="ccccc"
           inkscape:connector-curvature="0"
           id="path6054"
           d="m 80.815334,469.31256 -44.165195,117.8315 119.526191,0 36.5219,-118.29093 z"
           style="fill:#008080;stroke:#000000;stroke-width:1px;stroke-linecap:butt;stroke-linejoin:miter;stroke-opacity:1;display:inline" />
        <path
           sodipodi:nodetypes="ccccc"
           inkscape:connector-curvature="0"
           id="path6056"
           d="m -72.204966,588.49081 -44.165204,117.8315 119.526209,0 36.5219,-118.29093 z"
           style="fill:#008080;stroke:#000000;stroke-width:1px;stroke-linecap:butt;stroke-linejoin:miter;stroke-opacity:1;display:inline" />
        <path
           sodipodi:nodetypes="ccccc"
           inkscape:connector-curvature="0"
           id="path6058"
           d="m 2.325339,707.36867 -39.861,121.35308 141.046891,-0.39129 33.0003,-121.42122 z"
           style="fill:#008080;stroke:#000000;stroke-width:1px;stroke-linecap:butt;stroke-linejoin:miter;stroke-opacity:1;display:inline" />
        <path
           sodipodi:nodetypes="ccccc"
           inkscape:connector-curvature="0"
           id="path6060"
           d="m 270.96963,708.22803 -25.3834,119.00536 143.0033,0.78257 18.1315,-120.63865 z"
           style="fill:#008080;stroke:#000000;stroke-width:1px;stroke-linecap:butt;stroke-linejoin:miter;stroke-opacity:1;display:inline" />
        <path
           sodipodi:nodetypes="ccccc"
           inkscape:connector-curvature="0"
           id="path6062"
           d="m 106.46523,827.24979 -25.383386,119.00538 143.003286,0.7826 18.1315,-120.6387 z"
           style="fill:#008080;stroke:#000000;stroke-width:1px;stroke-linecap:butt;stroke-linejoin:miter;stroke-opacity:1;display:inline" />
        <path
           sodipodi:nodetypes="ccccc"
           inkscape:connector-curvature="0"
           id="path6064"
           d="m 389.67173,829.16011 -19.9054,119.00536 152.7855,0.7826 8.7406,-121.02997 z"
           style="fill:#008080;stroke:#000000;stroke-width:1px;stroke-linecap:butt;stroke-linejoin:miter;stroke-opacity:1;display:inline" />
        <path
           sodipodi:nodetypes="ccccc"
           inkscape:connector-curvature="0"
           id="path6066"
           d="m 541.64273,707.88453 -10.5145,119.98357 142.0112,-0.19564 3.207,-120.47658 z"
           style="fill:#008080;stroke:#000000;stroke-width:1px;stroke-linecap:butt;stroke-linejoin:miter;stroke-opacity:1;display:inline" />
        <path
           sodipodi:nodetypes="ccccc"
           inkscape:connector-curvature="0"
           id="path6068"
           d="m 424.86593,586.41521 -17.8818,121.22863 134.4024,-0.19564 11.9225,-121.72164 z"
           style="fill:#008080;stroke:#000000;stroke-width:1px;stroke-linecap:butt;stroke-linejoin:miter;stroke-opacity:1;display:inline" />
        <path
           sodipodi:nodetypes="ccccc"
           inkscape:connector-curvature="0"
           id="path6070"
           d="m 167.39313,587.15484 -29.6204,120.44606 134.4024,-0.19564 23.6611,-120.1565 z"
           style="fill:#008080;stroke:#000000;stroke-width:1px;stroke-linecap:butt;stroke-linejoin:miter;stroke-opacity:1;display:inline" />
        <path
           sodipodi:nodetypes="ccccc"
           inkscape:connector-curvature="0"
           id="path6072"
           d="m 679.08163,584.85962 -2.2304,122.0112 134.4024,-0.19564 -2.5551,-121.72164 z"
           style="fill:#008080;stroke:#000000;stroke-width:1px;stroke-linecap:butt;stroke-linejoin:miter;stroke-opacity:1;display:inline" />
        <path
           sodipodi:nodetypes="ccccc"
           inkscape:connector-curvature="0"
           id="path6074"
           d="m 935.73433,585.98991 9.8995,121.61991 135.57617,-0.19564 -18.9891,-121.72164 z"
           style="fill:#008080;stroke:#000000;stroke-width:1px;stroke-linecap:butt;stroke-linejoin:miter;stroke-opacity:1;display:inline" />
        <path
           sodipodi:nodetypes="ccccc"
           inkscape:connector-curvature="0"
           id="path6076"
           d="m 811.64713,707.64219 2.0738,121.22863 142.6194,-0.19564 -10.3808,-121.72164 z"
           style="fill:#008080;stroke:#000000;stroke-width:1px;stroke-linecap:butt;stroke-linejoin:miter;stroke-opacity:1;display:inline" />
        <path
           sodipodi:nodetypes="ccccc"
           inkscape:connector-curvature="0"
           id="path6078"
           d="m 958.73303,829.64219 0.8999,121.22868 153.57537,-1.3695 -13.511,-120.54783 c -46.9881,0.22955 -146.20717,0.4591 -140.96427,0.68865 z"
           style="fill:#008080;stroke:#000000;stroke-width:1px;stroke-linecap:butt;stroke-linejoin:miter;stroke-opacity:1;display:inline" />
        <path
           sodipodi:nodetypes="ccccc"
           inkscape:connector-curvature="0"
           id="path6080"
           d="m 672.82013,827.98991 -7.7083,121.22866 153.5754,-2.5434 -4.5115,-118.20006 z"
           style="fill:#008080;stroke:#000000;stroke-width:1px;stroke-linecap:butt;stroke-linejoin:miter;stroke-opacity:1;display:inline" />
        <path
           sodipodi:nodetypes="ccccc"
           inkscape:connector-curvature="0"
           id="path6082"
           d="m 1081.6757,707.58082 18.1165,119.07655 140.076,-0.19564 -24.1806,-119.23151 z"
           style="fill:#008080;stroke:#000000;stroke-width:1px;stroke-linecap:butt;stroke-linejoin:miter;stroke-opacity:1;display:inline" />
        <path
           sodipodi:nodetypes="ccccc"
           inkscape:connector-curvature="0"
           id="path6084"
           d="m 1191.3378,586.83697 24.7952,119.36714 135.0679,1.50377 -30.6097,-119.50819 z"
           style="fill:#008080;stroke:#000000;stroke-width:1px;stroke-linecap:butt;stroke-linejoin:miter;stroke-opacity:1;display:inline" />
        <path
           sodipodi:nodetypes="ccccc"
           inkscape:connector-curvature="0"
           id="path6086"
           d="m 1240.1916,828.00693 27.0537,124.11004 148.3036,-0.1956 -32.7532,-123.72702 z"
           style="fill:#008080;stroke:#000000;stroke-width:1px;stroke-linecap:butt;stroke-linejoin:miter;stroke-opacity:1;display:inline" />
        <path
           sodipodi:nodetypes="ccccc"
           inkscape:connector-curvature="0"
           id="path6088"
           d="m 1353.0902,709.78941 31.8076,120.11903 143.0106,-0.68475 -41.5859,-119.56956 z"
           style="fill:#008080;stroke:#000000;stroke-width:1px;stroke-linecap:butt;stroke-linejoin:miter;stroke-opacity:1;display:inline" />
        <path
           sodipodi:nodetypes="ccccc"
           inkscape:connector-curvature="0"
           id="path6090"
           d="m 1447.8315,588.10256 39.0013,120.39571 143.0106,-0.68475 -41.5859,-119.56956 c -44.4108,0.0451 -186.1277,-0.18649 -140.426,-0.1414 z"
           style="fill:#008080;stroke:#000000;stroke-width:1px;stroke-linecap:butt;stroke-linejoin:miter;stroke-opacity:1;display:inline" />
        <path
           sodipodi:nodetypes="ccccc"
           inkscape:connector-curvature="0"
           id="path6092"
           d="m 1543.3742,468.40987 45.6417,119.84235 146.8841,-0.40807 -59.8468,-121.50632 z"
           style="fill:#008080;stroke:#000000;stroke-width:1px;stroke-linecap:butt;stroke-linejoin:miter;stroke-opacity:1;display:inline" />
        <path
           sodipodi:nodetypes="ccccc"
           inkscape:connector-curvature="0"
           id="path6094"
           d="m 1287.8486,468.68656 32.9143,119.56566 125.8564,0.1453 -39.6491,-120.67629 z"
           style="fill:#008080;stroke:#000000;stroke-width:1px;stroke-linecap:butt;stroke-linejoin:miter;stroke-opacity:1;display:inline" />
      </g>
    </clipPath>
  </defs>
  <sodipodi:namedview
     id="base"
     pagecolor="#ffffff"
     bordercolor="#666666"
     borderopacity="1.0"
     inkscape:pageopacity="0.0"
     inkscape:pageshadow="2"
     inkscape:zoom="0.25"
     inkscape:cx="827.28623"
     inkscape:cy="126.48736"
     inkscape:document-units="px"
     inkscape:current-layer="layer1"
     showgrid="false"
     inkscape:window-width="1024"
     inkscape:window-height="741"
     inkscape:window-x="0"
     inkscape:window-y="107"
     inkscape:window-maximized="1"
     inkscape:showpageshadow="false"
     fit-margin-top="0"
     fit-margin-left="0"
     fit-margin-right="0"
     fit-margin-bottom="0" />
  <metadata
     id="metadata7453">
    <rdf:RDF>
      <cc:Work
         rdf:about="">
        <dc:format>image/svg+xml</dc:format>
        <dc:type
           rdf:resource="http://purl.org/dc/dcmitype/StillImage" />
        <dc:title></dc:title>
      </cc:Work>
    </rdf:RDF>
  </metadata>
  <g
     inkscape:label="Layer 1"
     inkscape:groupmode="layer"
     id="layer1"
     transform="translate(425.93145,-159.85796)">
    <rect
       style="fill:none;stroke:none;display:inline"
       id="rect4706"
       width="1600"
       height="745"
       x="-424.97403"
       y="159.85796" />
    <g
       id="g3367"
       style="fill:#37abc8;fill-opacity:1;stroke:none"
       transform="translate(534.28571,-325.71429)">
      <g
         transform="translate(-937.64576,476.34039)"
         id="g6052-6"
         style="fill:#37abc8;fill-opacity:1;stroke:none">
        <path
           sodipodi:nodetypes="ccccc"
           inkscape:connector-curvature="0"
           id="path6054-5"
           d="m 80.815334,469.31256 -44.165195,117.8315 119.526191,0 36.5219,-118.29093 z"
           style="fill:#37abc8;fill-opacity:1;stroke:none;stroke-width:1px;stroke-linecap:butt;stroke-linejoin:miter;stroke-opacity:1;display:inline" />
        <path
           sodipodi:nodetypes="ccccc"
           inkscape:connector-curvature="0"
           id="path6056-3"
           d="m -72.204966,588.49081 -44.165204,117.8315 119.526209,0 36.5219,-118.29093 z"
           style="fill:#37abc8;fill-opacity:1;stroke:none;stroke-width:1px;stroke-linecap:butt;stroke-linejoin:miter;stroke-opacity:1;display:inline" />
        <path
           sodipodi:nodetypes="ccccc"
           inkscape:connector-curvature="0"
           id="path6058-5"
           d="m 2.325339,707.36867 -39.861,121.35308 141.046891,-0.39129 33.0003,-121.42122 z"
           style="fill:#37abc8;fill-opacity:1;stroke:none;stroke-width:1px;stroke-linecap:butt;stroke-linejoin:miter;stroke-opacity:1;display:inline" />
        <path
           sodipodi:nodetypes="ccccc"
           inkscape:connector-curvature="0"
           id="path6060-4"
           d="m 270.96963,708.22803 -25.3834,119.00536 143.0033,0.78257 18.1315,-120.63865 z"
           style="fill:#37abc8;fill-opacity:1;stroke:none;stroke-width:1px;stroke-linecap:butt;stroke-linejoin:miter;stroke-opacity:1;display:inline" />
        <path
           sodipodi:nodetypes="ccccc"
           inkscape:connector-curvature="0"
           id="path6062-7"
           d="m 106.46523,827.24979 -25.383386,119.00538 143.003286,0.7826 18.1315,-120.6387 z"
           style="fill:#37abc8;fill-opacity:1;stroke:none;stroke-width:1px;stroke-linecap:butt;stroke-linejoin:miter;stroke-opacity:1;display:inline" />
        <path
           sodipodi:nodetypes="ccccc"
           inkscape:connector-curvature="0"
           id="path6064-6"
           d="m 389.67173,829.16011 -19.9054,119.00536 152.7855,0.7826 8.7406,-121.02997 z"
           style="fill:#37abc8;fill-opacity:1;stroke:none;stroke-width:1px;stroke-linecap:butt;stroke-linejoin:miter;stroke-opacity:1;display:inline" />
        <path
           sodipodi:nodetypes="ccccc"
           inkscape:connector-curvature="0"
           id="path6066-1"
           d="m 541.64273,707.88453 -10.5145,119.98357 142.0112,-0.19564 3.207,-120.47658 z"
           style="fill:#37abc8;fill-opacity:1;stroke:none;stroke-width:1px;stroke-linecap:butt;stroke-linejoin:miter;stroke-opacity:1;display:inline" />
        <path
           sodipodi:nodetypes="ccccc"
           inkscape:connector-curvature="0"
           id="path6068-6"
           d="m 424.86593,586.41521 -17.8818,121.22863 134.4024,-0.19564 11.9225,-121.72164 z"
           style="fill:#37abc8;fill-opacity:1;stroke:none;stroke-width:1px;stroke-linecap:butt;stroke-linejoin:miter;stroke-opacity:1;display:inline" />
        <path
           sodipodi:nodetypes="ccccc"
           inkscape:connector-curvature="0"
           id="path6070-6"
           d="m 167.39313,587.15484 -29.6204,120.44606 134.4024,-0.19564 23.6611,-120.1565 z"
           style="fill:#37abc8;fill-opacity:1;stroke:none;stroke-width:1px;stroke-linecap:butt;stroke-linejoin:miter;stroke-opacity:1;display:inline" />
        <path
           sodipodi:nodetypes="ccccc"
           inkscape:connector-curvature="0"
           id="path6072-4"
           d="m 679.08163,584.85962 -2.2304,122.0112 134.4024,-0.19564 -2.5551,-121.72164 z"
           style="fill:#37abc8;fill-opacity:1;stroke:none;stroke-width:1px;stroke-linecap:butt;stroke-linejoin:miter;stroke-opacity:1;display:inline" />
        <path
           sodipodi:nodetypes="ccccc"
           inkscape:connector-curvature="0"
           id="path6074-0"
           d="m 935.73433,585.98991 9.8995,121.61991 135.57617,-0.19564 -18.9891,-121.72164 z"
           style="fill:#37abc8;fill-opacity:1;stroke:none;stroke-width:1px;stroke-linecap:butt;stroke-linejoin:miter;stroke-opacity:1;display:inline" />
        <path
           sodipodi:nodetypes="ccccc"
           inkscape:connector-curvature="0"
           id="path6076-2"
           d="m 811.64713,707.64219 2.0738,121.22863 142.6194,-0.19564 -10.3808,-121.72164 z"
           style="fill:#37abc8;fill-opacity:1;stroke:none;stroke-width:1px;stroke-linecap:butt;stroke-linejoin:miter;stroke-opacity:1;display:inline" />
        <path
           sodipodi:nodetypes="ccccc"
           inkscape:connector-curvature="0"
           id="path6078-5"
           d="m 958.73303,829.64219 0.8999,121.22868 153.57537,-1.3695 -13.511,-120.54783 c -46.9881,0.22955 -146.20717,0.4591 -140.96427,0.68865 z"
           style="fill:#37abc8;fill-opacity:1;stroke:none;stroke-width:1px;stroke-linecap:butt;stroke-linejoin:miter;stroke-opacity:1;display:inline" />
        <path
           sodipodi:nodetypes="ccccc"
           inkscape:connector-curvature="0"
           id="path6080-0"
           d="m 672.82013,827.98991 -7.7083,121.22866 153.5754,-2.5434 -4.5115,-118.20006 z"
           style="fill:#37abc8;fill-opacity:1;stroke:none;stroke-width:1px;stroke-linecap:butt;stroke-linejoin:miter;stroke-opacity:1;display:inline" />
        <path
           sodipodi:nodetypes="ccccc"
           inkscape:connector-curvature="0"
           id="path6082-7"
           d="m 1081.6757,707.58082 18.1165,119.07655 140.076,-0.19564 -24.1806,-119.23151 z"
           style="fill:#37abc8;fill-opacity:1;stroke:none;stroke-width:1px;stroke-linecap:butt;stroke-linejoin:miter;stroke-opacity:1;display:inline" />
        <path
           sodipodi:nodetypes="ccccc"
           inkscape:connector-curvature="0"
           id="path6084-8"
           d="m 1191.3378,586.83697 24.7952,119.36714 135.0679,1.50377 -30.6097,-119.50819 z"
           style="fill:#37abc8;fill-opacity:1;stroke:none;stroke-width:1px;stroke-linecap:butt;stroke-linejoin:miter;stroke-opacity:1;display:inline" />
        <path
           sodipodi:nodetypes="ccccc"
           inkscape:connector-curvature="0"
           id="path6086-7"
           d="m 1240.1916,828.00693 27.0537,124.11004 148.3036,-0.1956 -32.7532,-123.72702 z"
           style="fill:#37abc8;fill-opacity:1;stroke:none;stroke-width:1px;stroke-linecap:butt;stroke-linejoin:miter;stroke-opacity:1;display:inline" />
        <path
           sodipodi:nodetypes="ccccc"
           inkscape:connector-curvature="0"
           id="path6088-8"
           d="m 1353.0902,709.78941 31.8076,120.11903 143.0106,-0.68475 -41.5859,-119.56956 z"
           style="fill:#37abc8;fill-opacity:1;stroke:none;stroke-width:1px;stroke-linecap:butt;stroke-linejoin:miter;stroke-opacity:1;display:inline" />
        <path
           sodipodi:nodetypes="ccccc"
           inkscape:connector-curvature="0"
           id="path6090-9"
           d="m 1447.8315,588.10256 39.0013,120.39571 143.0106,-0.68475 -41.5859,-119.56956 c -44.4108,0.0451 -186.1277,-0.18649 -140.426,-0.1414 z"
           style="fill:#37abc8;fill-opacity:1;stroke:none;stroke-width:1px;stroke-linecap:butt;stroke-linejoin:miter;stroke-opacity:1;display:inline" />
        <path
           sodipodi:nodetypes="ccccc"
           inkscape:connector-curvature="0"
           id="path6092-1"
           d="m 1543.3742,468.40987 45.6417,119.84235 146.8841,-0.40807 -59.8468,-121.50632 z"
           style="fill:#37abc8;fill-opacity:1;stroke:none;stroke-width:1px;stroke-linecap:butt;stroke-linejoin:miter;stroke-opacity:1;display:inline" />
        <path
           sodipodi:nodetypes="ccccc"
           inkscape:connector-curvature="0"
           id="path6094-4"
           d="m 1287.8486,468.68656 32.9143,119.56566 125.8564,0.1453 -39.6491,-120.67629 z"
           style="fill:#37abc8;fill-opacity:1;stroke:none;stroke-width:1px;stroke-linecap:butt;stroke-linejoin:miter;stroke-opacity:1;display:inline" />
      </g>
      <path
         inkscape:connector-curvature="0"
         id="path11793-0"
         d="m -629.86635,963.81364 -19.44666,102.72746 136.12659,0 11.25859,-104.39782 z"
         style="fill:#37abc8;fill-opacity:1;stroke:none" />
    </g>
    <g
       transform="translate(-350.68831,1474.1521)"
       style="display:inline"
       id="g7596">
      <rect
         clip-path="url(#clipPath6050)"
         y="0"
         x="0"
         height="745"
         width="1600"
         id="rect5403"
         style="fill:#37abc8;stroke:none;display:inline" />
      <path
         inkscape:connector-curvature="0"
         id="path11793"
         d="m 307.77941,487.47325 -19.44666,102.72747 136.12659,0 11.25859,-104.39783 z"
         style="fill:#37abc8;fill-opacity:1;stroke:none" />
    </g>
    <g
       style="display:inline"
       id="g10231"
       transform="matrix(1.6018629,0,0,0.96115327,946.49911,566.97114)">
      <path
         id="path14"
         style="fill:#a67c52;fill-opacity:1;fill-rule:nonzero;stroke:none;display:inline"
         d="m -856.77155,85.141903 1000,0 0,-29.0375 -1000,0 0,29.0375 z"
         inkscape:connector-curvature="0" />
      <path
         id="path16"
         style="fill:#754c24;fill-opacity:1;fill-rule:nonzero;stroke:none;display:inline"
         d="m -856.77155,56.104403 1000,0 0,-10.80375 -1000,0 0,10.80375 z"
         inkscape:connector-curvature="0" />
    </g>
    <g
       style="display:inline"
       id="g12927"
       transform="translate(-416.97403,-147.49579)">
      <path
         transform="translate(0,307.36218)"
         sodipodi:nodetypes="ccccc"
         inkscape:connector-curvature="0"
         id="path4733-0-2-0-4-5-2-4-5-5-3-5-3-0-5-1-8-7"
         d="m 1440.1401,339.37092 30.5634,106.89683 94.9647,-0.36315 -36.0972,-106.65407 z"
         style="fill:#008080;stroke:#000000;stroke-width:0.83807683px;stroke-linecap:butt;stroke-linejoin:miter;stroke-opacity:1;display:inline" />
      <path
         id="path198-7"
         style="fill:#67686e;fill-opacity:1;fill-rule:nonzero;stroke:none"
         d="m 423.82187,892.95775 1140.52213,0 0,-540.95753 -1140.52213,0 0,540.95753 z"
         inkscape:connector-curvature="0" />
      <path
         id="path202-7"
         style="fill:#919897;fill-opacity:1;fill-rule:nonzero;stroke:none"
         d="m 423.82187,617.86792 1137.81993,0 0,-51.46989 -1137.81993,0 0,51.46989 z"
         inkscape:connector-curvature="0" />
      <path
         id="path204-9"
         style="fill:#919897;fill-opacity:1;fill-rule:nonzero;stroke:none"
         d="m 423.82187,752.20393 1137.81993,0 0,-51.46988 -1137.81993,0 0,51.46988 z"
         inkscape:connector-curvature="0" />
      <path
         id="path206-7"
         style="fill:#919897;fill-opacity:1;fill-rule:nonzero;stroke:none"
         d="m 423.82187,883.50562 1137.81993,0 0,-52.5215 -1137.81993,0 0,52.5215 z"
         inkscape:connector-curvature="0" />
      <path
         id="path200-0"
         style="fill:#919897;fill-opacity:1;fill-rule:nonzero;stroke:none"
         d="m 423.71677,483.27202 1135.04653,0 0,-51.46988 -1135.04653,0 0,51.46986 z"
         inkscape:connector-curvature="0" />
      <path
         id="path208-1"
         style="fill:#d2d0ce;fill-opacity:1;fill-rule:nonzero;stroke:none"
         d="m 439.98888,482.52878 0,-121.09305 1108.18452,0 0,121.09305 -1108.18452,0 z m 1108.18452,133.66542 -1108.18452,0 0,-121.09444 1108.18452,0 0,121.09444 z m 0,133.66402 -1108.18452,0 0,-121.09306 1108.18452,0 0,121.09306 z m 0,133.66403 -1108.18452,0 0,-121.09444 1108.18452,0 0,121.09444 z M 407.6477,348.86476 l 0,547.22846 1172.8669,0 0,-547.22846 -1172.8669,0"
         inkscape:connector-curvature="0" />
    </g>
    <g
       id="g7162"
       transform="translate(-425.09277,-147.49579)">
      <rect
         ry="7.2057858"
         y="341.27432"
         x="596.98962"
         height="28.509848"
         width="113.40708"
         id="rect6143-1"
         style="fill:#225500;fill-opacity:1;fill-rule:evenodd;stroke:#e2e3db;stroke-width:2.14212655999999990;stroke-linejoin:round;stroke-miterlimit:4;stroke-opacity:1;stroke-dasharray:none;display:inline" />
      <text
         xml:space="preserve"
         style="font-size:15.05729198px;font-style:normal;font-variant:normal;font-weight:normal;font-stretch:normal;text-align:start;line-height:125%;letter-spacing:0px;word-spacing:0px;writing-mode:lr-tb;text-anchor:start;fill:#f9f9f9;fill-opacity:1;stroke:none;display:inline;font-family:Standard Symbols L;-inkscape-font-specification:Standard Symbols L"
         x="657.36389"
         y="354.20679"
         id="text4133-2-5-0"
         sodipodi:linespacing="125%"
         transform="matrix(0.9999471,0.01028616,-0.01028616,0.9999471,0,0)"><tspan
           sodipodi:role="line"
           x="657.36389"
           y="354.20679"
           style="font-size:15.05729198px;font-style:normal;font-variant:normal;font-weight:600;font-stretch:normal;text-align:center;line-height:125%;writing-mode:lr-tb;text-anchor:middle;fill:#f9f9f9;fill-opacity:1;font-family:URW Gothic L;-inkscape-font-specification:URW Gothic L Semi-Bold"
           id="tspan12984-6-4-5">CRÉDITO PF</tspan></text>
      <g
         transform="translate(13.49942,-0.83467627)"
         id="g7001">
        <path
           inkscape:connector-curvature="0"
           d="m 592.97291,355.13825 c -0.67687,-1.81202 -2.69464,-2.73219 -4.50663,-2.05531 -1.81206,0.6769 -2.73221,2.69463 -2.05534,4.50665 0.67692,1.81203 2.6947,2.7322 4.50669,2.05531 1.81199,-0.67689 2.7322,-2.69463 2.05528,-4.50665"
           style="fill:#e8e5e4;fill-opacity:1;fill-rule:nonzero;stroke:none;display:inline"
           id="path194-2-3-1-9-6-9-3" />
        <path
           inkscape:connector-curvature="0"
           d="m 592.75424,357.20495 c -0.10838,0.30888 -0.44684,0.47149 -0.75567,0.36309 l -4.67758,-1.64234 c -0.30857,-0.1084 -0.47114,-0.44685 -0.36276,-0.75543 l 0,0 c 0.10838,-0.30887 0.44684,-0.47147 0.75567,-0.36307 l 4.67726,1.64203 c 0.30889,0.1087 0.47146,0.44684 0.36308,0.75572 l 0,0"
           style="fill:#919897;fill-opacity:1;fill-rule:nonzero;stroke:none;display:inline"
           id="path196-9-3-1-3-4-6-0" />
      </g>
      <g
         transform="translate(113.7187,-0.83467627)"
         id="g7001-9"
         style="display:inline">
        <path
           inkscape:connector-curvature="0"
           d="m 592.97291,355.13825 c -0.67687,-1.81202 -2.69464,-2.73219 -4.50663,-2.05531 -1.81206,0.6769 -2.73221,2.69463 -2.05534,4.50665 0.67692,1.81203 2.6947,2.7322 4.50669,2.05531 1.81199,-0.67689 2.7322,-2.69463 2.05528,-4.50665"
           style="fill:#e8e5e4;fill-opacity:1;fill-rule:nonzero;stroke:none;display:inline"
           id="path194-2-3-1-9-6-9-3-2" />
        <path
           inkscape:connector-curvature="0"
           d="m 592.75424,357.20495 c -0.10838,0.30888 -0.44684,0.47149 -0.75567,0.36309 l -4.67758,-1.64234 c -0.30857,-0.1084 -0.47114,-0.44685 -0.36276,-0.75543 l 0,0 c 0.10838,-0.30887 0.44684,-0.47147 0.75567,-0.36307 l 4.67726,1.64203 c 0.30889,0.1087 0.47146,0.44684 0.36308,0.75572 l 0,0"
           style="fill:#919897;fill-opacity:1;fill-rule:nonzero;stroke:none;display:inline"
           id="path196-9-3-1-3-4-6-0-2" />
      </g>
    </g>
    <g
       style="display:inline"
       id="g7490"
       transform="translate(-425.09277,-147.49579)">
      <rect
         ry="7.2057858"
         y="474.66022"
         x="596.98962"
         height="28.509848"
         width="113.40708"
         id="rect6143-1-3"
         style="fill:#f7931d;fill-opacity:1;fill-rule:evenodd;stroke:#fbcc84;stroke-width:2.14212656;stroke-linejoin:round;stroke-miterlimit:4;stroke-opacity:1;stroke-dasharray:none;display:inline" />
      <text
         xml:space="preserve"
         style="font-size:21.44863701px;font-style:normal;font-variant:normal;font-weight:normal;font-stretch:normal;text-align:start;line-height:125%;letter-spacing:0px;word-spacing:0px;writing-mode:lr-tb;text-anchor:start;fill:#f9f9f9;fill-opacity:1;stroke:none;display:inline;font-family:Standard Symbols L;-inkscape-font-specification:Standard Symbols L"
         x="659.03705"
         y="489.95117"
         id="text4133-2-5-0-6"
         sodipodi:linespacing="125%"
         transform="matrix(0.9999471,0.01028616,-0.01028616,0.9999471,0,0)"><tspan
           sodipodi:role="line"
           x="659.03705"
           y="489.95117"
           style="font-size:21.44863701px;font-style:normal;font-variant:normal;font-weight:600;font-stretch:normal;text-align:center;line-height:125%;writing-mode:lr-tb;text-anchor:middle;fill:#f9f9f9;fill-opacity:1;font-family:URW Gothic L;-inkscape-font-specification:URW Gothic L Semi-Bold"
           id="tspan12984-6-4-5-4">AUTO</tspan></text>
      <g
         transform="translate(13.499437,132.55119)"
         id="g7001-4"
         style="display:inline">
        <path
           inkscape:connector-curvature="0"
           d="m 592.97291,355.13825 c -0.67687,-1.81202 -2.69464,-2.73219 -4.50663,-2.05531 -1.81206,0.6769 -2.73221,2.69463 -2.05534,4.50665 0.67692,1.81203 2.6947,2.7322 4.50669,2.05531 1.81199,-0.67689 2.7322,-2.69463 2.05528,-4.50665"
           style="fill:#e8e5e4;fill-opacity:1;fill-rule:nonzero;stroke:none;display:inline"
           id="path194-2-3-1-9-6-9-3-9" />
        <path
           inkscape:connector-curvature="0"
           d="m 592.75424,357.20495 c -0.10838,0.30888 -0.44684,0.47149 -0.75567,0.36309 l -4.67758,-1.64234 c -0.30857,-0.1084 -0.47114,-0.44685 -0.36276,-0.75543 l 0,0 c 0.10838,-0.30887 0.44684,-0.47147 0.75567,-0.36307 l 4.67726,1.64203 c 0.30889,0.1087 0.47146,0.44684 0.36308,0.75572 l 0,0"
           style="fill:#919897;fill-opacity:1;fill-rule:nonzero;stroke:none;display:inline"
           id="path196-9-3-1-3-4-6-0-0" />
      </g>
      <g
         transform="translate(113.71872,132.55119)"
         id="g7001-9-8"
         style="display:inline">
        <path
           inkscape:connector-curvature="0"
           d="m 592.97291,355.13825 c -0.67687,-1.81202 -2.69464,-2.73219 -4.50663,-2.05531 -1.81206,0.6769 -2.73221,2.69463 -2.05534,4.50665 0.67692,1.81203 2.6947,2.7322 4.50669,2.05531 1.81199,-0.67689 2.7322,-2.69463 2.05528,-4.50665"
           style="fill:#e8e5e4;fill-opacity:1;fill-rule:nonzero;stroke:none;display:inline"
           id="path194-2-3-1-9-6-9-3-2-4" />
        <path
           inkscape:connector-curvature="0"
           d="m 592.75424,357.20495 c -0.10838,0.30888 -0.44684,0.47149 -0.75567,0.36309 l -4.67758,-1.64234 c -0.30857,-0.1084 -0.47114,-0.44685 -0.36276,-0.75543 l 0,0 c 0.10838,-0.30887 0.44684,-0.47147 0.75567,-0.36307 l 4.67726,1.64203 c 0.30889,0.1087 0.47146,0.44684 0.36308,0.75572 l 0,0"
           style="fill:#919897;fill-opacity:1;fill-rule:nonzero;stroke:none;display:inline"
           id="path196-9-3-1-3-4-6-0-2-4" />
      </g>
    </g>
    <g
       style="display:inline"
       id="g7501"
       transform="translate(-424.28919,-147.49579)">
      <rect
         ry="7.2057858"
         y="608.58765"
         x="596.18604"
         height="28.509848"
         width="113.40708"
         id="rect6143-1-34"
         style="fill:#ff2a2a;fill-opacity:1;fill-rule:evenodd;stroke:#008080;stroke-width:2.14212656;stroke-linejoin:round;stroke-miterlimit:4;stroke-opacity:1;stroke-dasharray:none;display:inline" />
      <text
         xml:space="preserve"
         style="font-size:23.11471367px;font-style:normal;font-variant:normal;font-weight:normal;font-stretch:normal;text-align:start;line-height:125%;letter-spacing:0px;word-spacing:0px;writing-mode:lr-tb;text-anchor:start;fill:#f9f9f9;fill-opacity:1;stroke:none;display:inline;font-family:Standard Symbols L;-inkscape-font-specification:Standard Symbols L"
         x="659.15552"
         y="624.78497"
         id="text4133-2-5-0-0"
         sodipodi:linespacing="125%"
         transform="matrix(0.9999471,0.01028616,-0.01028616,0.9999471,0,0)"><tspan
           sodipodi:role="line"
           x="659.15552"
           y="624.78497"
           style="font-size:23.11471367px;font-style:normal;font-variant:normal;font-weight:600;font-stretch:normal;text-align:center;line-height:125%;writing-mode:lr-tb;text-anchor:middle;fill:#f9f9f9;fill-opacity:1;font-family:URW Gothic L;-inkscape-font-specification:URW Gothic L Semi-Bold"
           id="tspan12984-6-4-5-2">CAP</tspan></text>
      <g
         transform="translate(12.69581,266.47861)"
         id="g7001-95"
         style="display:inline">
        <path
           inkscape:connector-curvature="0"
           d="m 592.97291,355.13825 c -0.67687,-1.81202 -2.69464,-2.73219 -4.50663,-2.05531 -1.81206,0.6769 -2.73221,2.69463 -2.05534,4.50665 0.67692,1.81203 2.6947,2.7322 4.50669,2.05531 1.81199,-0.67689 2.7322,-2.69463 2.05528,-4.50665"
           style="fill:#e8e5e4;fill-opacity:1;fill-rule:nonzero;stroke:none;display:inline"
           id="path194-2-3-1-9-6-9-3-5" />
        <path
           inkscape:connector-curvature="0"
           d="m 592.75424,357.20495 c -0.10838,0.30888 -0.44684,0.47149 -0.75567,0.36309 l -4.67758,-1.64234 c -0.30857,-0.1084 -0.47114,-0.44685 -0.36276,-0.75543 l 0,0 c 0.10838,-0.30887 0.44684,-0.47147 0.75567,-0.36307 l 4.67726,1.64203 c 0.30889,0.1087 0.47146,0.44684 0.36308,0.75572 l 0,0"
           style="fill:#919897;fill-opacity:1;fill-rule:nonzero;stroke:none;display:inline"
           id="path196-9-3-1-3-4-6-0-3" />
      </g>
      <g
         transform="translate(112.91509,266.47861)"
         id="g7001-9-4"
         style="display:inline">
        <path
           inkscape:connector-curvature="0"
           d="m 592.97291,355.13825 c -0.67687,-1.81202 -2.69464,-2.73219 -4.50663,-2.05531 -1.81206,0.6769 -2.73221,2.69463 -2.05534,4.50665 0.67692,1.81203 2.6947,2.7322 4.50669,2.05531 1.81199,-0.67689 2.7322,-2.69463 2.05528,-4.50665"
           style="fill:#e8e5e4;fill-opacity:1;fill-rule:nonzero;stroke:none;display:inline"
           id="path194-2-3-1-9-6-9-3-2-7" />
        <path
           inkscape:connector-curvature="0"
           d="m 592.75424,357.20495 c -0.10838,0.30888 -0.44684,0.47149 -0.75567,0.36309 l -4.67758,-1.64234 c -0.30857,-0.1084 -0.47114,-0.44685 -0.36276,-0.75543 l 0,0 c 0.10838,-0.30887 0.44684,-0.47147 0.75567,-0.36307 l 4.67726,1.64203 c 0.30889,0.1087 0.47146,0.44684 0.36308,0.75572 l 0,0"
           style="fill:#919897;fill-opacity:1;fill-rule:nonzero;stroke:none;display:inline"
           id="path196-9-3-1-3-4-6-0-2-9" />
      </g>
    </g>
    <g
       style="display:inline"
       id="g7512"
       transform="translate(-425.65888,-147.49579)">
      <rect
         ry="7.2057858"
         y="741.44836"
         x="597.55573"
         height="28.509848"
         width="113.40708"
         id="rect6143-1-34-0"
         style="fill:#68b743;fill-opacity:1;fill-rule:evenodd;stroke:#f89d3e;stroke-width:2.14212656;stroke-linejoin:round;stroke-miterlimit:4;stroke-opacity:1;stroke-dasharray:none;display:inline" />
      <text
         xml:space="preserve"
         style="font-size:23.11471367px;font-style:normal;font-variant:normal;font-weight:normal;font-stretch:normal;text-align:start;line-height:125%;letter-spacing:0px;word-spacing:0px;writing-mode:lr-tb;text-anchor:start;fill:#f9f9f9;fill-opacity:1;stroke:none;display:inline;font-family:Standard Symbols L;-inkscape-font-specification:Standard Symbols L"
         x="661.30975"
         y="757.47443"
         id="text4133-2-5-0-0-2"
         sodipodi:linespacing="125%"
         transform="matrix(0.9999471,0.01028616,-0.01028616,0.9999471,0,0)"><tspan
           sodipodi:role="line"
           x="661.30975"
           y="757.47443"
           style="font-size:23.11471367px;font-style:normal;font-variant:normal;font-weight:600;font-stretch:normal;text-align:center;line-height:125%;writing-mode:lr-tb;text-anchor:middle;fill:#f9f9f9;fill-opacity:1;font-family:URW Gothic L;-inkscape-font-specification:URW Gothic L Semi-Bold"
           id="tspan12984-6-4-5-2-3">RURAL</tspan></text>
      <g
         transform="translate(14.065489,399.33932)"
         id="g7001-95-3"
         style="display:inline">
        <path
           inkscape:connector-curvature="0"
           d="m 592.97291,355.13825 c -0.67687,-1.81202 -2.69464,-2.73219 -4.50663,-2.05531 -1.81206,0.6769 -2.73221,2.69463 -2.05534,4.50665 0.67692,1.81203 2.6947,2.7322 4.50669,2.05531 1.81199,-0.67689 2.7322,-2.69463 2.05528,-4.50665"
           style="fill:#e8e5e4;fill-opacity:1;fill-rule:nonzero;stroke:none;display:inline"
           id="path194-2-3-1-9-6-9-3-5-2" />
        <path
           inkscape:connector-curvature="0"
           d="m 592.75424,357.20495 c -0.10838,0.30888 -0.44684,0.47149 -0.75567,0.36309 l -4.67758,-1.64234 c -0.30857,-0.1084 -0.47114,-0.44685 -0.36276,-0.75543 l 0,0 c 0.10838,-0.30887 0.44684,-0.47147 0.75567,-0.36307 l 4.67726,1.64203 c 0.30889,0.1087 0.47146,0.44684 0.36308,0.75572 l 0,0"
           style="fill:#919897;fill-opacity:1;fill-rule:nonzero;stroke:none;display:inline"
           id="path196-9-3-1-3-4-6-0-3-1" />
      </g>
      <g
         transform="translate(114.28477,399.33932)"
         id="g7001-9-4-9"
         style="display:inline">
        <path
           inkscape:connector-curvature="0"
           d="m 592.97291,355.13825 c -0.67687,-1.81202 -2.69464,-2.73219 -4.50663,-2.05531 -1.81206,0.6769 -2.73221,2.69463 -2.05534,4.50665 0.67692,1.81203 2.6947,2.7322 4.50669,2.05531 1.81199,-0.67689 2.7322,-2.69463 2.05528,-4.50665"
           style="fill:#e8e5e4;fill-opacity:1;fill-rule:nonzero;stroke:none;display:inline"
           id="path194-2-3-1-9-6-9-3-2-7-4" />
        <path
           inkscape:connector-curvature="0"
           d="m 592.75424,357.20495 c -0.10838,0.30888 -0.44684,0.47149 -0.75567,0.36309 l -4.67758,-1.64234 c -0.30857,-0.1084 -0.47114,-0.44685 -0.36276,-0.75543 l 0,0 c 0.10838,-0.30887 0.44684,-0.47147 0.75567,-0.36307 l 4.67726,1.64203 c 0.30889,0.1087 0.47146,0.44684 0.36308,0.75572 l 0,0"
           style="fill:#919897;fill-opacity:1;fill-rule:nonzero;stroke:none;display:inline"
           id="path196-9-3-1-3-4-6-0-2-9-0" />
      </g>
    </g>
    <g
       style="display:inline"
       id="g7434"
       transform="translate(-425.36362,-147.49579)">
      <rect
         ry="7.2057858"
         y="340.64478"
         x="1295.3546"
         height="28.509848"
         width="113.40708"
         id="rect6143-1-6"
         style="fill:#36b981;fill-opacity:1;fill-rule:evenodd;stroke:#e1c81c;stroke-width:2.14212656;stroke-linejoin:round;stroke-miterlimit:4;stroke-opacity:1;stroke-dasharray:none;display:inline" />
      <text
         xml:space="preserve"
         style="font-size:13.40350628px;font-style:normal;font-variant:normal;font-weight:normal;font-stretch:normal;text-align:start;line-height:125%;letter-spacing:0px;word-spacing:0px;writing-mode:lr-tb;text-anchor:start;fill:#f9f9f9;fill-opacity:1;stroke:none;display:inline;font-family:Standard Symbols L;-inkscape-font-specification:Standard Symbols L"
         x="1355.2417"
         y="347.0473"
         id="text4133-2-5-0-3"
         sodipodi:linespacing="125%"
         transform="matrix(0.9999471,0.01028616,-0.01028616,0.9999471,0,0)"><tspan
           sodipodi:role="line"
           x="1355.2417"
           y="347.0473"
           style="font-size:13.40350628px;font-style:normal;font-variant:normal;font-weight:600;font-stretch:normal;text-align:center;line-height:125%;writing-mode:lr-tb;text-anchor:middle;fill:#f9f9f9;fill-opacity:1;font-family:URW Gothic L;-inkscape-font-specification:URW Gothic L Semi-Bold"
           id="tspan7276">PREVIDÊNCIA</tspan></text>
      <g
         transform="translate(711.86437,-1.4642124)"
         id="g7001-2">
        <path
           inkscape:connector-curvature="0"
           d="m 592.97291,355.13825 c -0.67687,-1.81202 -2.69464,-2.73219 -4.50663,-2.05531 -1.81206,0.6769 -2.73221,2.69463 -2.05534,4.50665 0.67692,1.81203 2.6947,2.7322 4.50669,2.05531 1.81199,-0.67689 2.7322,-2.69463 2.05528,-4.50665"
           style="fill:#e8e5e4;fill-opacity:1;fill-rule:nonzero;stroke:none;display:inline"
           id="path194-2-3-1-9-6-9-3-0" />
        <path
           inkscape:connector-curvature="0"
           d="m 592.75424,357.20495 c -0.10838,0.30888 -0.44684,0.47149 -0.75567,0.36309 l -4.67758,-1.64234 c -0.30857,-0.1084 -0.47114,-0.44685 -0.36276,-0.75543 l 0,0 c 0.10838,-0.30887 0.44684,-0.47147 0.75567,-0.36307 l 4.67726,1.64203 c 0.30889,0.1087 0.47146,0.44684 0.36308,0.75572 l 0,0"
           style="fill:#919897;fill-opacity:1;fill-rule:nonzero;stroke:none;display:inline"
           id="path196-9-3-1-3-4-6-0-9" />
      </g>
      <g
         transform="translate(812.08365,-1.4642124)"
         id="g7001-9-40"
         style="display:inline">
        <path
           inkscape:connector-curvature="0"
           d="m 592.97291,355.13825 c -0.67687,-1.81202 -2.69464,-2.73219 -4.50663,-2.05531 -1.81206,0.6769 -2.73221,2.69463 -2.05534,4.50665 0.67692,1.81203 2.6947,2.7322 4.50669,2.05531 1.81199,-0.67689 2.7322,-2.69463 2.05528,-4.50665"
           style="fill:#e8e5e4;fill-opacity:1;fill-rule:nonzero;stroke:none;display:inline"
           id="path194-2-3-1-9-6-9-3-2-5" />
        <path
           inkscape:connector-curvature="0"
           d="m 592.75424,357.20495 c -0.10838,0.30888 -0.44684,0.47149 -0.75567,0.36309 l -4.67758,-1.64234 c -0.30857,-0.1084 -0.47114,-0.44685 -0.36276,-0.75543 l 0,0 c 0.10838,-0.30887 0.44684,-0.47147 0.75567,-0.36307 l 4.67726,1.64203 c 0.30889,0.1087 0.47146,0.44684 0.36308,0.75572 l 0,0"
           style="fill:#919897;fill-opacity:1;fill-rule:nonzero;stroke:none;display:inline"
           id="path196-9-3-1-3-4-6-0-2-93" />
      </g>
    </g>
    <g
       style="display:inline"
       id="g7445"
       transform="translate(-426.655,-147.49579)">
      <rect
         ry="7.2057858"
         y="474.30096"
         x="1296.646"
         height="28.509848"
         width="113.40708"
         id="rect6143-1-6-9"
         style="fill:#ee2446;fill-opacity:1;fill-rule:evenodd;stroke:#f9b1c0;stroke-width:2.14212656;stroke-linejoin:round;stroke-miterlimit:4;stroke-opacity:1;stroke-dasharray:none;display:inline" />
      <text
         xml:space="preserve"
         style="font-size:14.16700268px;font-style:normal;font-variant:normal;font-weight:normal;font-stretch:normal;text-align:start;line-height:125%;letter-spacing:0px;word-spacing:0px;writing-mode:lr-tb;text-anchor:start;fill:#f9f9f9;fill-opacity:1;stroke:none;display:inline;font-family:Standard Symbols L;-inkscape-font-specification:Standard Symbols L"
         x="1357.8729"
         y="479.83786"
         id="text4133-2-5-0-3-9"
         sodipodi:linespacing="125%"
         transform="matrix(0.9999471,0.01028616,-0.01028616,0.9999471,0,0)"><tspan
           sodipodi:role="line"
           x="1357.8729"
           y="479.83786"
           style="font-size:14.16700268px;font-style:normal;font-variant:normal;font-weight:600;font-stretch:normal;text-align:center;line-height:125%;writing-mode:lr-tb;text-anchor:middle;fill:#f9f9f9;fill-opacity:1;font-family:URW Gothic L;-inkscape-font-specification:URW Gothic L Semi-Bold"
           id="tspan7276-7">PRESTAMISTA</tspan></text>
      <g
         transform="translate(713.15569,132.19196)"
         id="g7001-2-8"
         style="display:inline">
        <path
           inkscape:connector-curvature="0"
           d="m 592.97291,355.13825 c -0.67687,-1.81202 -2.69464,-2.73219 -4.50663,-2.05531 -1.81206,0.6769 -2.73221,2.69463 -2.05534,4.50665 0.67692,1.81203 2.6947,2.7322 4.50669,2.05531 1.81199,-0.67689 2.7322,-2.69463 2.05528,-4.50665"
           style="fill:#e8e5e4;fill-opacity:1;fill-rule:nonzero;stroke:none;display:inline"
           id="path194-2-3-1-9-6-9-3-0-6" />
        <path
           inkscape:connector-curvature="0"
           d="m 592.75424,357.20495 c -0.10838,0.30888 -0.44684,0.47149 -0.75567,0.36309 l -4.67758,-1.64234 c -0.30857,-0.1084 -0.47114,-0.44685 -0.36276,-0.75543 l 0,0 c 0.10838,-0.30887 0.44684,-0.47147 0.75567,-0.36307 l 4.67726,1.64203 c 0.30889,0.1087 0.47146,0.44684 0.36308,0.75572 l 0,0"
           style="fill:#919897;fill-opacity:1;fill-rule:nonzero;stroke:none;display:inline"
           id="path196-9-3-1-3-4-6-0-9-2" />
      </g>
      <g
         transform="translate(813.37497,132.19196)"
         id="g7001-9-40-1"
         style="display:inline">
        <path
           inkscape:connector-curvature="0"
           d="m 592.97291,355.13825 c -0.67687,-1.81202 -2.69464,-2.73219 -4.50663,-2.05531 -1.81206,0.6769 -2.73221,2.69463 -2.05534,4.50665 0.67692,1.81203 2.6947,2.7322 4.50669,2.05531 1.81199,-0.67689 2.7322,-2.69463 2.05528,-4.50665"
           style="fill:#e8e5e4;fill-opacity:1;fill-rule:nonzero;stroke:none;display:inline"
           id="path194-2-3-1-9-6-9-3-2-5-3" />
        <path
           inkscape:connector-curvature="0"
           d="m 592.75424,357.20495 c -0.10838,0.30888 -0.44684,0.47149 -0.75567,0.36309 l -4.67758,-1.64234 c -0.30857,-0.1084 -0.47114,-0.44685 -0.36276,-0.75543 l 0,0 c 0.10838,-0.30887 0.44684,-0.47147 0.75567,-0.36307 l 4.67726,1.64203 c 0.30889,0.1087 0.47146,0.44684 0.36308,0.75572 l 0,0"
           style="fill:#919897;fill-opacity:1;fill-rule:nonzero;stroke:none;display:inline"
           id="path196-9-3-1-3-4-6-0-2-93-0" />
      </g>
    </g>
    <g
       style="display:inline"
       id="g7456"
       transform="translate(-427.94626,-147.49579)">
      <rect
         ry="7.2057858"
         y="608.08307"
         x="1297.9373"
         height="28.509848"
         width="113.40708"
         id="rect6143-1-6-2"
         style="fill:#57c8df;fill-opacity:1;fill-rule:evenodd;stroke:#f2f0f0;stroke-width:2.14212656;stroke-linejoin:round;stroke-miterlimit:4;stroke-opacity:1;stroke-dasharray:none;display:inline" />
      <text
         xml:space="preserve"
         style="font-size:20.98071098px;font-style:normal;font-variant:normal;font-weight:normal;font-stretch:normal;text-align:start;line-height:125%;letter-spacing:0px;word-spacing:0px;writing-mode:lr-tb;text-anchor:start;fill:#f9f9f9;fill-opacity:1;stroke:none;display:inline;font-family:Standard Symbols L;-inkscape-font-specification:Standard Symbols L"
         x="1360.9625"
         y="616.12335"
         id="text4133-2-5-0-3-3"
         sodipodi:linespacing="125%"
         transform="matrix(0.9999471,0.01028616,-0.01028616,0.9999471,0,0)"><tspan
           sodipodi:role="line"
           x="1360.9625"
           y="616.12335"
           style="font-size:20.98071098px;font-style:normal;font-variant:normal;font-weight:600;font-stretch:normal;text-align:center;line-height:125%;writing-mode:lr-tb;text-anchor:middle;fill:#f9f9f9;fill-opacity:1;font-family:URW Gothic L;-inkscape-font-specification:URW Gothic L Semi-Bold"
           id="tspan7276-4">VIDA</tspan></text>
      <g
         transform="translate(714.44706,265.97405)"
         id="g7001-2-5"
         style="display:inline">
        <path
           inkscape:connector-curvature="0"
           d="m 592.97291,355.13825 c -0.67687,-1.81202 -2.69464,-2.73219 -4.50663,-2.05531 -1.81206,0.6769 -2.73221,2.69463 -2.05534,4.50665 0.67692,1.81203 2.6947,2.7322 4.50669,2.05531 1.81199,-0.67689 2.7322,-2.69463 2.05528,-4.50665"
           style="fill:#e8e5e4;fill-opacity:1;fill-rule:nonzero;stroke:none;display:inline"
           id="path194-2-3-1-9-6-9-3-0-69" />
        <path
           inkscape:connector-curvature="0"
           d="m 592.75424,357.20495 c -0.10838,0.30888 -0.44684,0.47149 -0.75567,0.36309 l -4.67758,-1.64234 c -0.30857,-0.1084 -0.47114,-0.44685 -0.36276,-0.75543 l 0,0 c 0.10838,-0.30887 0.44684,-0.47147 0.75567,-0.36307 l 4.67726,1.64203 c 0.30889,0.1087 0.47146,0.44684 0.36308,0.75572 l 0,0"
           style="fill:#919897;fill-opacity:1;fill-rule:nonzero;stroke:none;display:inline"
           id="path196-9-3-1-3-4-6-0-9-6" />
      </g>
      <g
         transform="translate(814.66634,265.97405)"
         id="g7001-9-40-5"
         style="display:inline">
        <path
           inkscape:connector-curvature="0"
           d="m 592.97291,355.13825 c -0.67687,-1.81202 -2.69464,-2.73219 -4.50663,-2.05531 -1.81206,0.6769 -2.73221,2.69463 -2.05534,4.50665 0.67692,1.81203 2.6947,2.7322 4.50669,2.05531 1.81199,-0.67689 2.7322,-2.69463 2.05528,-4.50665"
           style="fill:#e8e5e4;fill-opacity:1;fill-rule:nonzero;stroke:none;display:inline"
           id="path194-2-3-1-9-6-9-3-2-5-38" />
        <path
           inkscape:connector-curvature="0"
           d="m 592.75424,357.20495 c -0.10838,0.30888 -0.44684,0.47149 -0.75567,0.36309 l -4.67758,-1.64234 c -0.30857,-0.1084 -0.47114,-0.44685 -0.36276,-0.75543 l 0,0 c 0.10838,-0.30887 0.44684,-0.47147 0.75567,-0.36307 l 4.67726,1.64203 c 0.30889,0.1087 0.47146,0.44684 0.36308,0.75572 l 0,0"
           style="fill:#919897;fill-opacity:1;fill-rule:nonzero;stroke:none;display:inline"
           id="path196-9-3-1-3-4-6-0-2-93-7" />
      </g>
    </g>
    <g
       style="display:inline"
       id="g7467"
       transform="translate(-422.0018,-147.49579)">
      <rect
         ry="7.2057858"
         y="741.7312"
         x="1291.9928"
         height="28.509848"
         width="113.40708"
         id="rect6143-1-6-24"
         style="fill:#373748;fill-opacity:1;fill-rule:evenodd;stroke:#8787de;stroke-width:2.14212656;stroke-linejoin:round;stroke-miterlimit:4;stroke-opacity:1;stroke-dasharray:none;display:inline" />
      <text
         xml:space="preserve"
         style="font-size:13.40350628px;font-style:normal;font-variant:normal;font-weight:normal;font-stretch:normal;text-align:start;line-height:125%;letter-spacing:0px;word-spacing:0px;writing-mode:lr-tb;text-anchor:start;fill:#f9f9f9;fill-opacity:1;stroke:none;display:inline;font-family:Standard Symbols L;-inkscape-font-specification:Standard Symbols L"
         x="1355.9854"
         y="746.14728"
         id="text4133-2-5-0-3-6"
         sodipodi:linespacing="125%"
         transform="matrix(0.9999471,0.01028616,-0.01028616,0.9999471,0,0)"><tspan
           sodipodi:role="line"
           x="1355.9854"
           y="746.14728"
           style="font-size:13.40350628px;font-style:normal;font-variant:normal;font-weight:600;font-stretch:normal;text-align:center;line-height:125%;writing-mode:lr-tb;text-anchor:middle;fill:#f9f9f9;fill-opacity:1;font-family:URW Gothic L;-inkscape-font-specification:URW Gothic L Semi-Bold"
           id="tspan7276-44">PATRIMONIO</tspan></text>
      <g
         transform="translate(708.50254,399.6222)"
         id="g7001-2-7"
         style="display:inline">
        <path
           inkscape:connector-curvature="0"
           d="m 592.97291,355.13825 c -0.67687,-1.81202 -2.69464,-2.73219 -4.50663,-2.05531 -1.81206,0.6769 -2.73221,2.69463 -2.05534,4.50665 0.67692,1.81203 2.6947,2.7322 4.50669,2.05531 1.81199,-0.67689 2.7322,-2.69463 2.05528,-4.50665"
           style="fill:#e8e5e4;fill-opacity:1;fill-rule:nonzero;stroke:none;display:inline"
           id="path194-2-3-1-9-6-9-3-0-9" />
        <path
           inkscape:connector-curvature="0"
           d="m 592.75424,357.20495 c -0.10838,0.30888 -0.44684,0.47149 -0.75567,0.36309 l -4.67758,-1.64234 c -0.30857,-0.1084 -0.47114,-0.44685 -0.36276,-0.75543 l 0,0 c 0.10838,-0.30887 0.44684,-0.47147 0.75567,-0.36307 l 4.67726,1.64203 c 0.30889,0.1087 0.47146,0.44684 0.36308,0.75572 l 0,0"
           style="fill:#919897;fill-opacity:1;fill-rule:nonzero;stroke:none;display:inline"
           id="path196-9-3-1-3-4-6-0-9-62" />
      </g>
      <g
         transform="translate(808.72182,399.6222)"
         id="g7001-9-40-0"
         style="display:inline">
        <path
           inkscape:connector-curvature="0"
           d="m 592.97291,355.13825 c -0.67687,-1.81202 -2.69464,-2.73219 -4.50663,-2.05531 -1.81206,0.6769 -2.73221,2.69463 -2.05534,4.50665 0.67692,1.81203 2.6947,2.7322 4.50669,2.05531 1.81199,-0.67689 2.7322,-2.69463 2.05528,-4.50665"
           style="fill:#e8e5e4;fill-opacity:1;fill-rule:nonzero;stroke:none;display:inline"
           id="path194-2-3-1-9-6-9-3-2-5-9" />
        <path
           inkscape:connector-curvature="0"
           d="m 592.75424,357.20495 c -0.10838,0.30888 -0.44684,0.47149 -0.75567,0.36309 l -4.67758,-1.64234 c -0.30857,-0.1084 -0.47114,-0.44685 -0.36276,-0.75543 l 0,0 c 0.10838,-0.30887 0.44684,-0.47147 0.75567,-0.36307 l 4.67726,1.64203 c 0.30889,0.1087 0.47146,0.44684 0.36308,0.75572 l 0,0"
           style="fill:#919897;fill-opacity:1;fill-rule:nonzero;stroke:none;display:inline"
           id="path196-9-3-1-3-4-6-0-2-93-1" />
      </g>
    </g>
  </g>
</svg>
