<?xml version="1.0" encoding="UTF-8" standalone="no"?>
<!-- Created with Inkscape (http://www.inkscape.org/) -->

<svg
   xmlns:dc="http://purl.org/dc/elements/1.1/"
   xmlns:cc="http://creativecommons.org/ns#"
   xmlns:rdf="http://www.w3.org/1999/02/22-rdf-syntax-ns#"
   xmlns:svg="http://www.w3.org/2000/svg"
   xmlns="http://www.w3.org/2000/svg"
   xmlns:sodipodi="http://sodipodi.sourceforge.net/DTD/sodipodi-0.dtd"
   xmlns:inkscape="http://www.inkscape.org/namespaces/inkscape"
   width="37.817345"
   height="51.78669"
   id="svg3789"
   version="1.1"
   inkscape:version="0.48.4 r9939"
   sodipodi:docname="CREDITOPF.svg">
  <defs
     id="defs3791" />
  <sodipodi:namedview
     id="base"
     pagecolor="#ffffff"
     bordercolor="#666666"
     borderopacity="1.0"
     inkscape:pageopacity="0.0"
     inkscape:pageshadow="2"
     inkscape:zoom="1"
     inkscape:cx="-293.21579"
     inkscape:cy="27.009375"
     inkscape:document-units="px"
     inkscape:current-layer="layer1"
     showgrid="false"
     fit-margin-top="0"
     fit-margin-left="0"
     fit-margin-right="0"
     fit-margin-bottom="0"
     inkscape:window-width="1600"
     inkscape:window-height="848"
     inkscape:window-x="1024"
     inkscape:window-y="0"
     inkscape:window-maximized="1" />
  <metadata
     id="metadata3794">
    <rdf:RDF>
      <cc:Work
         rdf:about="">
        <dc:format>image/svg+xml</dc:format>
        <dc:type
           rdf:resource="http://purl.org/dc/dcmitype/StillImage" />
        <dc:title />
      </cc:Work>
    </rdf:RDF>
  </metadata>
  <g
     inkscape:label="Layer 1"
     inkscape:groupmode="layer"
     id="layer1"
     transform="translate(-494.93972,-501.00328)">
    <g
       transform="matrix(1.4396227,0,0,1.8141172,-137.46458,-352.73902)"
       id="layer1-5-3"
       inkscape:label="Layer 1"
       style="stroke:#e3dbdb;stroke-width:0.62869018;stroke-miterlimit:4;stroke-dasharray:none">
      <g
         transform="matrix(1.0846525,0,0,1.0846525,438.47126,470.92197)"
         id="g3296-17"
         style="stroke:#e3dbdb;stroke-width:0.57962364;stroke-miterlimit:4;stroke-dasharray:none">
        <path
           id="path3298-2"
           d="M 8.792,7.5 C 9.126,8.093 11.265,8.39 12.313,8.352 13.361,8.315 15.505,7.844 15.425,6.945 15.277,5.278 16.292,3.049 16.493,2.739 16.9,2.109 16.933,0.795 15.211,1.421 14.808,1.567 13.857,2.556 13.453,1.384 12.727,-0.722 11.042,-0.137 10.671,1.238 10.414,2.19 9.388,2.262 8.217,2.153 6.845,2.024 6.669,2.883 7.125,3.61 7.369,3.996 8.408,6.82 8.792,7.5 z"
           style="fill:#552200;fill-opacity:1;stroke:#e3dbdb;stroke-width:0.57962364;stroke-miterlimit:4;stroke-dasharray:none"
           inkscape:connector-curvature="0" />
        <g
           style="fill:#552200;fill-opacity:1;stroke:#e3dbdb;stroke-width:0.57962364;stroke-miterlimit:4;stroke-dasharray:none"
           id="g3300-6">
          <path
             id="path3302-4"
             d="M 12.387,9.797 C 9.607,9.899 8.802,8.881 8.64,8.938 c -4.115,1.43 -7.585,5.629 -7.585,9.885 0,5.475 3.124,6.914 11.813,6.914 8.689,0 11.813,-1.475 11.813,-6.914 0,-4.576 -4.228,-8.958 -8.577,-10.195 -0.23,-0.066 -0.642,1.058 -3.717,1.169 z m 0.587,10.918 v 1.12 c 0,0.083 -0.068,0.151 -0.151,0.151 h -1.006 c -0.084,0 -0.152,-0.068 -0.152,-0.151 V 20.806 C 10.953,20.762 10.225,20.555 9.775,20.269 9.718,20.233 9.693,20.165 9.711,20.1 l 0.326,-1.15 c 0.013,-0.045 0.047,-0.082 0.09,-0.1 0.047,-0.016 0.094,-0.013 0.135,0.012 0.318,0.19 0.977,0.511 1.81,0.511 0.695,0 1.144,-0.312 1.144,-0.793 0,-0.458 -0.345,-0.761 -1.23,-1.079 -1.084,-0.396 -2.194,-0.98 -2.194,-2.31 0,-1.103 0.743,-1.935 1.948,-2.194 v -1.049 c 0,-0.084 0.068,-0.152 0.152,-0.152 h 0.992 c 0.083,0 0.151,0.068 0.151,0.152 v 0.969 c 0.76,0.047 1.266,0.26 1.587,0.42 0.065,0.033 0.098,0.108 0.077,0.179 l -0.327,1.112 c -0.012,0.043 -0.044,0.078 -0.085,0.098 -0.041,0.018 -0.087,0.016 -0.128,-0.004 -0.318,-0.16 -0.813,-0.408 -1.578,-0.408 -0.626,0 -0.998,0.261 -0.998,0.696 0,0.386 0.348,0.649 1.379,1.045 1.435,0.538 2.047,1.253 2.047,2.393 -0.001,1.135 -0.796,2.014 -2.035,2.267 z"
             style="fill:#552200;fill-opacity:1;stroke:#e3dbdb;stroke-width:0.57962364;stroke-miterlimit:4;stroke-dasharray:none"
             inkscape:connector-curvature="0" />
        </g>
      </g>
      <g
         transform="matrix(1.0846525,0,0,1.0846525,438.47126,470.92197)"
         id="g3304-23"
         style="stroke:#e3dbdb;stroke-width:0.57962364;stroke-miterlimit:4;stroke-dasharray:none" />
      <g
         transform="matrix(1.0846525,0,0,1.0846525,438.47126,470.92197)"
         id="g3306-3"
         style="stroke:#e3dbdb;stroke-width:0.57962364;stroke-miterlimit:4;stroke-dasharray:none" />
      <g
         transform="matrix(1.0846525,0,0,1.0846525,438.47126,470.92197)"
         id="g3308-2"
         style="stroke:#e3dbdb;stroke-width:0.57962364;stroke-miterlimit:4;stroke-dasharray:none" />
      <g
         transform="matrix(1.0846525,0,0,1.0846525,438.47126,470.92197)"
         id="g3310-0"
         style="stroke:#e3dbdb;stroke-width:0.57962364;stroke-miterlimit:4;stroke-dasharray:none" />
      <g
         transform="matrix(1.0846525,0,0,1.0846525,438.47126,470.92197)"
         id="g3312-8"
         style="stroke:#e3dbdb;stroke-width:0.57962364;stroke-miterlimit:4;stroke-dasharray:none" />
      <g
         transform="matrix(1.0846525,0,0,1.0846525,438.47126,470.92197)"
         id="g3314-5"
         style="stroke:#e3dbdb;stroke-width:0.57962364;stroke-miterlimit:4;stroke-dasharray:none" />
      <g
         transform="matrix(1.0846525,0,0,1.0846525,438.47126,470.92197)"
         id="g3316-9"
         style="stroke:#e3dbdb;stroke-width:0.57962364;stroke-miterlimit:4;stroke-dasharray:none" />
      <g
         transform="matrix(1.0846525,0,0,1.0846525,438.47126,470.92197)"
         id="g3318-8"
         style="stroke:#e3dbdb;stroke-width:0.57962364;stroke-miterlimit:4;stroke-dasharray:none" />
      <g
         transform="matrix(1.0846525,0,0,1.0846525,438.47126,470.92197)"
         id="g3320-1"
         style="stroke:#e3dbdb;stroke-width:0.57962364;stroke-miterlimit:4;stroke-dasharray:none" />
      <g
         transform="matrix(1.0846525,0,0,1.0846525,438.47126,470.92197)"
         id="g3322-1"
         style="stroke:#e3dbdb;stroke-width:0.57962364;stroke-miterlimit:4;stroke-dasharray:none" />
      <g
         transform="matrix(1.0846525,0,0,1.0846525,438.47126,470.92197)"
         id="g3324-8"
         style="stroke:#e3dbdb;stroke-width:0.57962364;stroke-miterlimit:4;stroke-dasharray:none" />
      <g
         transform="matrix(1.0846525,0,0,1.0846525,438.47126,470.92197)"
         id="g3326-7"
         style="stroke:#e3dbdb;stroke-width:0.57962364;stroke-miterlimit:4;stroke-dasharray:none" />
      <g
         transform="matrix(1.0846525,0,0,1.0846525,438.47126,470.92197)"
         id="g3328-7"
         style="stroke:#e3dbdb;stroke-width:0.57962364;stroke-miterlimit:4;stroke-dasharray:none" />
      <g
         transform="matrix(1.0846525,0,0,1.0846525,438.47126,470.92197)"
         id="g3330-7"
         style="stroke:#e3dbdb;stroke-width:0.57962364;stroke-miterlimit:4;stroke-dasharray:none" />
      <g
         transform="matrix(1.0846525,0,0,1.0846525,438.47126,470.92197)"
         id="g3332-7"
         style="stroke:#e3dbdb;stroke-width:0.57962364;stroke-miterlimit:4;stroke-dasharray:none" />
    </g>
  </g>
</svg>
