<?xml version="1.0" encoding="UTF-8" standalone="no"?>
<!-- Created with Inkscape (http://www.inkscape.org/) -->

<svg
   xmlns:dc="http://purl.org/dc/elements/1.1/"
   xmlns:cc="http://creativecommons.org/ns#"
   xmlns:rdf="http://www.w3.org/1999/02/22-rdf-syntax-ns#"
   xmlns:svg="http://www.w3.org/2000/svg"
   xmlns="http://www.w3.org/2000/svg"
   xmlns:sodipodi="http://sodipodi.sourceforge.net/DTD/sodipodi-0.dtd"
   xmlns:inkscape="http://www.inkscape.org/namespaces/inkscape"
   width="105.85604"
   height="90.248451"
   id="svg5738"
   version="1.1"
   inkscape:version="0.48.4 r9939"
   sodipodi:docname="creditoPFCesta2.svg">
  <defs
     id="defs5740" />
  <sodipodi:namedview
     id="base"
     pagecolor="#ffffff"
     bordercolor="#666666"
     borderopacity="1.0"
     inkscape:pageopacity="0.0"
     inkscape:pageshadow="2"
     inkscape:zoom="5.3144667"
     inkscape:cx="66.265023"
     inkscape:cy="42.482414"
     inkscape:document-units="px"
     inkscape:current-layer="layer1"
     showgrid="false"
     showborder="true"
     borderlayer="true"
     inkscape:showpageshadow="false"
     fit-margin-top="0"
     fit-margin-left="0"
     fit-margin-right="0"
     fit-margin-bottom="0"
     inkscape:window-width="1024"
     inkscape:window-height="741"
     inkscape:window-x="0"
     inkscape:window-y="107"
     inkscape:window-maximized="1" />
  <metadata
     id="metadata5743">
    <rdf:RDF>
      <cc:Work
         rdf:about="">
        <dc:format>image/svg+xml</dc:format>
        <dc:type
           rdf:resource="http://purl.org/dc/dcmitype/StillImage" />
        <dc:title></dc:title>
      </cc:Work>
    </rdf:RDF>
  </metadata>
  <g
     inkscape:label="Layer 1"
     inkscape:groupmode="layer"
     id="layer1"
     transform="translate(-117.73571,-716.01201)">
    <g
       transform="matrix(0.96745779,0.25303246,-0.25303246,0.96745779,69.597015,199.59641)"
       id="g3119-12">
      <rect
         y="487.8353"
         x="254.32092"
         height="23.316179"
         width="14.988972"
         id="rect5250-4-3"
         style="fill:#e2e3db;fill-opacity:1;fill-rule:evenodd;stroke:#008000;stroke-width:0.95168078;stroke-miterlimit:4;stroke-opacity:1;stroke-dasharray:none" />
      <g
         style="fill:#225500;stroke:#e3dedb;stroke-width:0.61878955;stroke-miterlimit:4;stroke-dasharray:none"
         inkscape:label="Layer 1"
         id="layer1-5-3-1-2-8"
         transform="matrix(1.3700612,0,0,1.7264605,-358.03942,-345.63294)">
        <g
           style="fill:#225500;stroke:#e3dedb;stroke-width:0.57049567;stroke-miterlimit:4;stroke-dasharray:none"
           id="g3296-17-5-9-9"
           transform="matrix(1.0846525,0,0,1.0846525,438.47126,470.92197)">
          <path
             inkscape:connector-curvature="0"
             style="fill:#225500;fill-opacity:1;stroke:#e3dedb;stroke-width:0.57049567;stroke-miterlimit:4;stroke-dasharray:none"
             d="M 8.792,7.5 C 9.126,8.093 11.265,8.39 12.313,8.352 13.361,8.315 15.505,7.844 15.425,6.945 15.277,5.278 16.292,3.049 16.493,2.739 16.9,2.109 16.933,0.795 15.211,1.421 14.808,1.567 13.857,2.556 13.453,1.384 12.727,-0.722 11.042,-0.137 10.671,1.238 10.414,2.19 9.388,2.262 8.217,2.153 6.845,2.024 6.669,2.883 7.125,3.61 7.369,3.996 8.408,6.82 8.792,7.5 z"
             id="path3298-2-5-7-1" />
          <g
             id="g3300-6-6-52-2"
             style="fill:#225500;fill-opacity:1;stroke:#e3dedb;stroke-width:0.57049567;stroke-miterlimit:4;stroke-dasharray:none">
            <path
               inkscape:connector-curvature="0"
               style="fill:#225500;fill-opacity:1;stroke:#e3dedb;stroke-width:0.57049567;stroke-miterlimit:4;stroke-dasharray:none"
               d="M 12.387,9.797 C 9.607,9.899 8.802,8.881 8.64,8.938 c -4.115,1.43 -7.585,5.629 -7.585,9.885 0,5.475 3.124,6.914 11.813,6.914 8.689,0 11.813,-1.475 11.813,-6.914 0,-4.576 -4.228,-8.958 -8.577,-10.195 -0.23,-0.066 -0.642,1.058 -3.717,1.169 z m 0.587,10.918 v 1.12 c 0,0.083 -0.068,0.151 -0.151,0.151 h -1.006 c -0.084,0 -0.152,-0.068 -0.152,-0.151 V 20.806 C 10.953,20.762 10.225,20.555 9.775,20.269 9.718,20.233 9.693,20.165 9.711,20.1 l 0.326,-1.15 c 0.013,-0.045 0.047,-0.082 0.09,-0.1 0.047,-0.016 0.094,-0.013 0.135,0.012 0.318,0.19 0.977,0.511 1.81,0.511 0.695,0 1.144,-0.312 1.144,-0.793 0,-0.458 -0.345,-0.761 -1.23,-1.079 -1.084,-0.396 -2.194,-0.98 -2.194,-2.31 0,-1.103 0.743,-1.935 1.948,-2.194 v -1.049 c 0,-0.084 0.068,-0.152 0.152,-0.152 h 0.992 c 0.083,0 0.151,0.068 0.151,0.152 v 0.969 c 0.76,0.047 1.266,0.26 1.587,0.42 0.065,0.033 0.098,0.108 0.077,0.179 l -0.327,1.112 c -0.012,0.043 -0.044,0.078 -0.085,0.098 -0.041,0.018 -0.087,0.016 -0.128,-0.004 -0.318,-0.16 -0.813,-0.408 -1.578,-0.408 -0.626,0 -0.998,0.261 -0.998,0.696 0,0.386 0.348,0.649 1.379,1.045 1.435,0.538 2.047,1.253 2.047,2.393 -0.001,1.135 -0.796,2.014 -2.035,2.267 z"
               id="path3302-4-8-0-7" />
          </g>
        </g>
        <g
           style="fill:#225500;stroke:#e3dedb;stroke-width:0.57049567;stroke-miterlimit:4;stroke-dasharray:none"
           id="g3304-23-0-3-9"
           transform="matrix(1.0846525,0,0,1.0846525,438.47126,470.92197)" />
        <g
           style="fill:#225500;stroke:#e3dedb;stroke-width:0.57049567;stroke-miterlimit:4;stroke-dasharray:none"
           id="g3306-3-7-16-3"
           transform="matrix(1.0846525,0,0,1.0846525,438.47126,470.92197)" />
        <g
           style="fill:#225500;stroke:#e3dedb;stroke-width:0.57049567;stroke-miterlimit:4;stroke-dasharray:none"
           id="g3308-2-7-4-9"
           transform="matrix(1.0846525,0,0,1.0846525,438.47126,470.92197)" />
        <g
           style="fill:#225500;stroke:#e3dedb;stroke-width:0.57049567;stroke-miterlimit:4;stroke-dasharray:none"
           id="g3310-0-8-7-4"
           transform="matrix(1.0846525,0,0,1.0846525,438.47126,470.92197)" />
        <g
           style="fill:#225500;stroke:#e3dedb;stroke-width:0.57049567;stroke-miterlimit:4;stroke-dasharray:none"
           id="g3312-8-9-2-48"
           transform="matrix(1.0846525,0,0,1.0846525,438.47126,470.92197)" />
        <g
           style="fill:#225500;stroke:#e3dedb;stroke-width:0.57049567;stroke-miterlimit:4;stroke-dasharray:none"
           id="g3314-5-8-6-4"
           transform="matrix(1.0846525,0,0,1.0846525,438.47126,470.92197)" />
        <g
           style="fill:#225500;stroke:#e3dedb;stroke-width:0.57049567;stroke-miterlimit:4;stroke-dasharray:none"
           id="g3316-9-6-2-34"
           transform="matrix(1.0846525,0,0,1.0846525,438.47126,470.92197)" />
        <g
           style="fill:#225500;stroke:#e3dedb;stroke-width:0.57049567;stroke-miterlimit:4;stroke-dasharray:none"
           id="g3318-8-3-8-3"
           transform="matrix(1.0846525,0,0,1.0846525,438.47126,470.92197)" />
        <g
           style="fill:#225500;stroke:#e3dedb;stroke-width:0.57049567;stroke-miterlimit:4;stroke-dasharray:none"
           id="g3320-1-7-99-0"
           transform="matrix(1.0846525,0,0,1.0846525,438.47126,470.92197)" />
        <g
           style="fill:#225500;stroke:#e3dedb;stroke-width:0.57049567;stroke-miterlimit:4;stroke-dasharray:none"
           id="g3322-1-6-5-5"
           transform="matrix(1.0846525,0,0,1.0846525,438.47126,470.92197)" />
        <g
           style="fill:#225500;stroke:#e3dedb;stroke-width:0.57049567;stroke-miterlimit:4;stroke-dasharray:none"
           id="g3324-8-2-5-0"
           transform="matrix(1.0846525,0,0,1.0846525,438.47126,470.92197)" />
        <g
           style="fill:#225500;stroke:#e3dedb;stroke-width:0.57049567;stroke-miterlimit:4;stroke-dasharray:none"
           id="g3326-7-3-7-4"
           transform="matrix(1.0846525,0,0,1.0846525,438.47126,470.92197)" />
        <g
           style="fill:#225500;stroke:#e3dedb;stroke-width:0.57049567;stroke-miterlimit:4;stroke-dasharray:none"
           id="g3328-7-0-1-0"
           transform="matrix(1.0846525,0,0,1.0846525,438.47126,470.92197)" />
        <g
           style="fill:#225500;stroke:#e3dedb;stroke-width:0.57049567;stroke-miterlimit:4;stroke-dasharray:none"
           id="g3330-7-0-8-9"
           transform="matrix(1.0846525,0,0,1.0846525,438.47126,470.92197)" />
        <g
           style="fill:#225500;stroke:#e3dedb;stroke-width:0.57049567;stroke-miterlimit:4;stroke-dasharray:none"
           id="g3332-7-7-6-7"
           transform="matrix(1.0846525,0,0,1.0846525,438.47126,470.92197)" />
      </g>
    </g>
    <g
       transform="matrix(0.99103196,-0.13362504,0.13362504,0.99103196,-180.80636,288.11378)"
       id="g3119-1-2">
      <rect
         y="487.8353"
         x="254.32092"
         height="23.316179"
         width="14.988972"
         id="rect5250-4-1-5"
         style="fill:#e2e3db;fill-opacity:1;fill-rule:evenodd;stroke:#008000;stroke-width:0.95168078;stroke-miterlimit:4;stroke-opacity:1;stroke-dasharray:none" />
      <g
         style="fill:#225500;stroke:#e3dedb;stroke-width:0.61878955;stroke-miterlimit:4;stroke-dasharray:none"
         inkscape:label="Layer 1"
         id="layer1-5-3-1-2-5-7"
         transform="matrix(1.3700612,0,0,1.7264605,-358.03942,-345.63294)">
        <g
           style="fill:#225500;stroke:#e3dedb;stroke-width:0.57049567;stroke-miterlimit:4;stroke-dasharray:none"
           id="g3296-17-5-9-1-5"
           transform="matrix(1.0846525,0,0,1.0846525,438.47126,470.92197)">
          <path
             inkscape:connector-curvature="0"
             style="fill:#225500;fill-opacity:1;stroke:#e3dedb;stroke-width:0.57049567;stroke-miterlimit:4;stroke-dasharray:none"
             d="M 8.792,7.5 C 9.126,8.093 11.265,8.39 12.313,8.352 13.361,8.315 15.505,7.844 15.425,6.945 15.277,5.278 16.292,3.049 16.493,2.739 16.9,2.109 16.933,0.795 15.211,1.421 14.808,1.567 13.857,2.556 13.453,1.384 12.727,-0.722 11.042,-0.137 10.671,1.238 10.414,2.19 9.388,2.262 8.217,2.153 6.845,2.024 6.669,2.883 7.125,3.61 7.369,3.996 8.408,6.82 8.792,7.5 z"
             id="path3298-2-5-7-7-8" />
          <g
             id="g3300-6-6-52-7-1"
             style="fill:#225500;fill-opacity:1;stroke:#e3dedb;stroke-width:0.57049567;stroke-miterlimit:4;stroke-dasharray:none">
            <path
               inkscape:connector-curvature="0"
               style="fill:#225500;fill-opacity:1;stroke:#e3dedb;stroke-width:0.57049567;stroke-miterlimit:4;stroke-dasharray:none"
               d="M 12.387,9.797 C 9.607,9.899 8.802,8.881 8.64,8.938 c -4.115,1.43 -7.585,5.629 -7.585,9.885 0,5.475 3.124,6.914 11.813,6.914 8.689,0 11.813,-1.475 11.813,-6.914 0,-4.576 -4.228,-8.958 -8.577,-10.195 -0.23,-0.066 -0.642,1.058 -3.717,1.169 z m 0.587,10.918 v 1.12 c 0,0.083 -0.068,0.151 -0.151,0.151 h -1.006 c -0.084,0 -0.152,-0.068 -0.152,-0.151 V 20.806 C 10.953,20.762 10.225,20.555 9.775,20.269 9.718,20.233 9.693,20.165 9.711,20.1 l 0.326,-1.15 c 0.013,-0.045 0.047,-0.082 0.09,-0.1 0.047,-0.016 0.094,-0.013 0.135,0.012 0.318,0.19 0.977,0.511 1.81,0.511 0.695,0 1.144,-0.312 1.144,-0.793 0,-0.458 -0.345,-0.761 -1.23,-1.079 -1.084,-0.396 -2.194,-0.98 -2.194,-2.31 0,-1.103 0.743,-1.935 1.948,-2.194 v -1.049 c 0,-0.084 0.068,-0.152 0.152,-0.152 h 0.992 c 0.083,0 0.151,0.068 0.151,0.152 v 0.969 c 0.76,0.047 1.266,0.26 1.587,0.42 0.065,0.033 0.098,0.108 0.077,0.179 l -0.327,1.112 c -0.012,0.043 -0.044,0.078 -0.085,0.098 -0.041,0.018 -0.087,0.016 -0.128,-0.004 -0.318,-0.16 -0.813,-0.408 -1.578,-0.408 -0.626,0 -0.998,0.261 -0.998,0.696 0,0.386 0.348,0.649 1.379,1.045 1.435,0.538 2.047,1.253 2.047,2.393 -0.001,1.135 -0.796,2.014 -2.035,2.267 z"
               id="path3302-4-8-0-6-9" />
          </g>
        </g>
        <g
           style="fill:#225500;stroke:#e3dedb;stroke-width:0.57049567;stroke-miterlimit:4;stroke-dasharray:none"
           id="g3304-23-0-3-3-2"
           transform="matrix(1.0846525,0,0,1.0846525,438.47126,470.92197)" />
        <g
           style="fill:#225500;stroke:#e3dedb;stroke-width:0.57049567;stroke-miterlimit:4;stroke-dasharray:none"
           id="g3306-3-7-16-9-5"
           transform="matrix(1.0846525,0,0,1.0846525,438.47126,470.92197)" />
        <g
           style="fill:#225500;stroke:#e3dedb;stroke-width:0.57049567;stroke-miterlimit:4;stroke-dasharray:none"
           id="g3308-2-7-4-7-7"
           transform="matrix(1.0846525,0,0,1.0846525,438.47126,470.92197)" />
        <g
           style="fill:#225500;stroke:#e3dedb;stroke-width:0.57049567;stroke-miterlimit:4;stroke-dasharray:none"
           id="g3310-0-8-7-1-1"
           transform="matrix(1.0846525,0,0,1.0846525,438.47126,470.92197)" />
        <g
           style="fill:#225500;stroke:#e3dedb;stroke-width:0.57049567;stroke-miterlimit:4;stroke-dasharray:none"
           id="g3312-8-9-2-4-8"
           transform="matrix(1.0846525,0,0,1.0846525,438.47126,470.92197)" />
        <g
           style="fill:#225500;stroke:#e3dedb;stroke-width:0.57049567;stroke-miterlimit:4;stroke-dasharray:none"
           id="g3314-5-8-6-2-9"
           transform="matrix(1.0846525,0,0,1.0846525,438.47126,470.92197)" />
        <g
           style="fill:#225500;stroke:#e3dedb;stroke-width:0.57049567;stroke-miterlimit:4;stroke-dasharray:none"
           id="g3316-9-6-2-3-9"
           transform="matrix(1.0846525,0,0,1.0846525,438.47126,470.92197)" />
        <g
           style="fill:#225500;stroke:#e3dedb;stroke-width:0.57049567;stroke-miterlimit:4;stroke-dasharray:none"
           id="g3318-8-3-8-9-7"
           transform="matrix(1.0846525,0,0,1.0846525,438.47126,470.92197)" />
        <g
           style="fill:#225500;stroke:#e3dedb;stroke-width:0.57049567;stroke-miterlimit:4;stroke-dasharray:none"
           id="g3320-1-7-99-3-2"
           transform="matrix(1.0846525,0,0,1.0846525,438.47126,470.92197)" />
        <g
           style="fill:#225500;stroke:#e3dedb;stroke-width:0.57049567;stroke-miterlimit:4;stroke-dasharray:none"
           id="g3322-1-6-5-9-0"
           transform="matrix(1.0846525,0,0,1.0846525,438.47126,470.92197)" />
        <g
           style="fill:#225500;stroke:#e3dedb;stroke-width:0.57049567;stroke-miterlimit:4;stroke-dasharray:none"
           id="g3324-8-2-5-4-4"
           transform="matrix(1.0846525,0,0,1.0846525,438.47126,470.92197)" />
        <g
           style="fill:#225500;stroke:#e3dedb;stroke-width:0.57049567;stroke-miterlimit:4;stroke-dasharray:none"
           id="g3326-7-3-7-0-9"
           transform="matrix(1.0846525,0,0,1.0846525,438.47126,470.92197)" />
        <g
           style="fill:#225500;stroke:#e3dedb;stroke-width:0.57049567;stroke-miterlimit:4;stroke-dasharray:none"
           id="g3328-7-0-1-3-0"
           transform="matrix(1.0846525,0,0,1.0846525,438.47126,470.92197)" />
        <g
           style="fill:#225500;stroke:#e3dedb;stroke-width:0.57049567;stroke-miterlimit:4;stroke-dasharray:none"
           id="g3330-7-0-8-2-8"
           transform="matrix(1.0846525,0,0,1.0846525,438.47126,470.92197)" />
        <g
           style="fill:#225500;stroke:#e3dedb;stroke-width:0.57049567;stroke-miterlimit:4;stroke-dasharray:none"
           id="g3332-7-7-6-2-2"
           transform="matrix(1.0846525,0,0,1.0846525,438.47126,470.92197)" />
      </g>
    </g>
    <g
       transform="translate(-90.759,249.28544)"
       id="g3119-1">
      <rect
         y="487.8353"
         x="254.32092"
         height="23.316179"
         width="14.988972"
         id="rect5250-4-1"
         style="fill:#e2e3db;fill-opacity:1;fill-rule:evenodd;stroke:#008000;stroke-width:0.95168078;stroke-miterlimit:4;stroke-opacity:1;stroke-dasharray:none" />
      <g
         style="fill:#225500;stroke:#e3dedb;stroke-width:0.61878955;stroke-miterlimit:4;stroke-dasharray:none"
         inkscape:label="Layer 1"
         id="layer1-5-3-1-2-5"
         transform="matrix(1.3700612,0,0,1.7264605,-358.03942,-345.63294)">
        <g
           style="fill:#225500;stroke:#e3dedb;stroke-width:0.57049567;stroke-miterlimit:4;stroke-dasharray:none"
           id="g3296-17-5-9-1"
           transform="matrix(1.0846525,0,0,1.0846525,438.47126,470.92197)">
          <path
             inkscape:connector-curvature="0"
             style="fill:#225500;fill-opacity:1;stroke:#e3dedb;stroke-width:0.57049567;stroke-miterlimit:4;stroke-dasharray:none"
             d="M 8.792,7.5 C 9.126,8.093 11.265,8.39 12.313,8.352 13.361,8.315 15.505,7.844 15.425,6.945 15.277,5.278 16.292,3.049 16.493,2.739 16.9,2.109 16.933,0.795 15.211,1.421 14.808,1.567 13.857,2.556 13.453,1.384 12.727,-0.722 11.042,-0.137 10.671,1.238 10.414,2.19 9.388,2.262 8.217,2.153 6.845,2.024 6.669,2.883 7.125,3.61 7.369,3.996 8.408,6.82 8.792,7.5 z"
             id="path3298-2-5-7-7" />
          <g
             id="g3300-6-6-52-7"
             style="fill:#225500;fill-opacity:1;stroke:#e3dedb;stroke-width:0.57049567;stroke-miterlimit:4;stroke-dasharray:none">
            <path
               inkscape:connector-curvature="0"
               style="fill:#225500;fill-opacity:1;stroke:#e3dedb;stroke-width:0.57049567;stroke-miterlimit:4;stroke-dasharray:none"
               d="M 12.387,9.797 C 9.607,9.899 8.802,8.881 8.64,8.938 c -4.115,1.43 -7.585,5.629 -7.585,9.885 0,5.475 3.124,6.914 11.813,6.914 8.689,0 11.813,-1.475 11.813,-6.914 0,-4.576 -4.228,-8.958 -8.577,-10.195 -0.23,-0.066 -0.642,1.058 -3.717,1.169 z m 0.587,10.918 v 1.12 c 0,0.083 -0.068,0.151 -0.151,0.151 h -1.006 c -0.084,0 -0.152,-0.068 -0.152,-0.151 V 20.806 C 10.953,20.762 10.225,20.555 9.775,20.269 9.718,20.233 9.693,20.165 9.711,20.1 l 0.326,-1.15 c 0.013,-0.045 0.047,-0.082 0.09,-0.1 0.047,-0.016 0.094,-0.013 0.135,0.012 0.318,0.19 0.977,0.511 1.81,0.511 0.695,0 1.144,-0.312 1.144,-0.793 0,-0.458 -0.345,-0.761 -1.23,-1.079 -1.084,-0.396 -2.194,-0.98 -2.194,-2.31 0,-1.103 0.743,-1.935 1.948,-2.194 v -1.049 c 0,-0.084 0.068,-0.152 0.152,-0.152 h 0.992 c 0.083,0 0.151,0.068 0.151,0.152 v 0.969 c 0.76,0.047 1.266,0.26 1.587,0.42 0.065,0.033 0.098,0.108 0.077,0.179 l -0.327,1.112 c -0.012,0.043 -0.044,0.078 -0.085,0.098 -0.041,0.018 -0.087,0.016 -0.128,-0.004 -0.318,-0.16 -0.813,-0.408 -1.578,-0.408 -0.626,0 -0.998,0.261 -0.998,0.696 0,0.386 0.348,0.649 1.379,1.045 1.435,0.538 2.047,1.253 2.047,2.393 -0.001,1.135 -0.796,2.014 -2.035,2.267 z"
               id="path3302-4-8-0-6" />
          </g>
        </g>
        <g
           style="fill:#225500;stroke:#e3dedb;stroke-width:0.57049567;stroke-miterlimit:4;stroke-dasharray:none"
           id="g3304-23-0-3-3"
           transform="matrix(1.0846525,0,0,1.0846525,438.47126,470.92197)" />
        <g
           style="fill:#225500;stroke:#e3dedb;stroke-width:0.57049567;stroke-miterlimit:4;stroke-dasharray:none"
           id="g3306-3-7-16-9"
           transform="matrix(1.0846525,0,0,1.0846525,438.47126,470.92197)" />
        <g
           style="fill:#225500;stroke:#e3dedb;stroke-width:0.57049567;stroke-miterlimit:4;stroke-dasharray:none"
           id="g3308-2-7-4-7"
           transform="matrix(1.0846525,0,0,1.0846525,438.47126,470.92197)" />
        <g
           style="fill:#225500;stroke:#e3dedb;stroke-width:0.57049567;stroke-miterlimit:4;stroke-dasharray:none"
           id="g3310-0-8-7-1"
           transform="matrix(1.0846525,0,0,1.0846525,438.47126,470.92197)" />
        <g
           style="fill:#225500;stroke:#e3dedb;stroke-width:0.57049567;stroke-miterlimit:4;stroke-dasharray:none"
           id="g3312-8-9-2-4"
           transform="matrix(1.0846525,0,0,1.0846525,438.47126,470.92197)" />
        <g
           style="fill:#225500;stroke:#e3dedb;stroke-width:0.57049567;stroke-miterlimit:4;stroke-dasharray:none"
           id="g3314-5-8-6-2"
           transform="matrix(1.0846525,0,0,1.0846525,438.47126,470.92197)" />
        <g
           style="fill:#225500;stroke:#e3dedb;stroke-width:0.57049567;stroke-miterlimit:4;stroke-dasharray:none"
           id="g3316-9-6-2-3"
           transform="matrix(1.0846525,0,0,1.0846525,438.47126,470.92197)" />
        <g
           style="fill:#225500;stroke:#e3dedb;stroke-width:0.57049567;stroke-miterlimit:4;stroke-dasharray:none"
           id="g3318-8-3-8-9"
           transform="matrix(1.0846525,0,0,1.0846525,438.47126,470.92197)" />
        <g
           style="fill:#225500;stroke:#e3dedb;stroke-width:0.57049567;stroke-miterlimit:4;stroke-dasharray:none"
           id="g3320-1-7-99-3"
           transform="matrix(1.0846525,0,0,1.0846525,438.47126,470.92197)" />
        <g
           style="fill:#225500;stroke:#e3dedb;stroke-width:0.57049567;stroke-miterlimit:4;stroke-dasharray:none"
           id="g3322-1-6-5-9"
           transform="matrix(1.0846525,0,0,1.0846525,438.47126,470.92197)" />
        <g
           style="fill:#225500;stroke:#e3dedb;stroke-width:0.57049567;stroke-miterlimit:4;stroke-dasharray:none"
           id="g3324-8-2-5-4"
           transform="matrix(1.0846525,0,0,1.0846525,438.47126,470.92197)" />
        <g
           style="fill:#225500;stroke:#e3dedb;stroke-width:0.57049567;stroke-miterlimit:4;stroke-dasharray:none"
           id="g3326-7-3-7-0"
           transform="matrix(1.0846525,0,0,1.0846525,438.47126,470.92197)" />
        <g
           style="fill:#225500;stroke:#e3dedb;stroke-width:0.57049567;stroke-miterlimit:4;stroke-dasharray:none"
           id="g3328-7-0-1-3"
           transform="matrix(1.0846525,0,0,1.0846525,438.47126,470.92197)" />
        <g
           style="fill:#225500;stroke:#e3dedb;stroke-width:0.57049567;stroke-miterlimit:4;stroke-dasharray:none"
           id="g3330-7-0-8-2"
           transform="matrix(1.0846525,0,0,1.0846525,438.47126,470.92197)" />
        <g
           style="fill:#225500;stroke:#e3dedb;stroke-width:0.57049567;stroke-miterlimit:4;stroke-dasharray:none"
           id="g3332-7-7-6-2"
           transform="matrix(1.0846525,0,0,1.0846525,438.47126,470.92197)" />
      </g>
    </g>
    <g
       style="fill:#ececec;fill-opacity:1;display:inline"
       id="g3838-9-2"
       transform="matrix(1.0346522,0,0,1.0346522,-474.95925,342.80915)">
      <path
         id="path1014-4-9"
         style="fill:#ececec;fill-opacity:1;fill-rule:nonzero;stroke:none"
         d="m 674.06737,392.73934 c -0.72604,-0.8466 -1.57273,-1.27072 -2.54008,-1.27072 -36.37725,-0.27766 -17.45168,0 -84.43015,0 l -10.62429,0 c -0.96777,0 -1.81397,0.42412 -2.53987,1.27072 -0.72527,0.8466 -1.08835,1.83485 -1.08835,2.96474 0,0.56413 0.0805,1.08159 0.24194,1.55238 l 16.56797,47.99198 c 0.24167,0.75318 0.68529,1.38772 1.3303,1.90518 0.64509,0.51811 1.33037,0.77594 2.05571,0.77594 l 61.91904,0 c 0.72534,0 1.41069,-0.25783 2.05536,-0.77594 0.64537,-0.51746 1.0887,-1.152 1.33072,-1.90518 l 16.5684,-47.99198 c 0.16134,-0.47079 0.24131,-0.98825 0.24131,-1.55238 0,-1.12989 -0.36267,-2.11814 -1.08801,-2.96474"
         inkscape:connector-curvature="0"
         sodipodi:nodetypes="cccscscccsscccsc" />
      <path
         style="fill:#ececec;fill-opacity:1;stroke:none"
         d="m 607.36363,136.98822 c 0,-0.0863 -3.7125,-10.13389 -8.25,-22.32802 -4.5375,-12.19412 -8.25,-22.36103 -8.25,-22.593122 0,-0.232092 21.39375,-0.421986 47.54166,-0.421986 27.62046,0 47.47183,0.186739 47.375,0.44565 -0.0917,0.245108 -4.10416,10.477018 -8.91666,22.737588 l -8.75,22.29193 -30.375,0.0124 c -16.70625,0.007 -30.375,-0.0582 -30.375,-0.14446 z"
         id="path4335-9-9"
         inkscape:connector-curvature="0"
         transform="matrix(0.84487325,0,0,0.84487325,85.484013,323.47922)" />
    </g>
    <path
       style="fill:#225500;fill-opacity:1;stroke:none;display:inline"
       d="m 128.79835,757.04528 15.2976,41.08504 53.7602,0 16.1718,-41.08504 z"
       id="path4333-64-1"
       inkscape:connector-curvature="0" />
    <g
       transform="translate(-117.36018,255.87123)"
       id="g3119" />
  </g>
</svg>
