<?xml version="1.0" encoding="UTF-8" standalone="no"?>
<!-- Created with Inkscape (http://www.inkscape.org/) -->

<svg
   xmlns:dc="http://purl.org/dc/elements/1.1/"
   xmlns:cc="http://creativecommons.org/ns#"
   xmlns:rdf="http://www.w3.org/1999/02/22-rdf-syntax-ns#"
   xmlns:svg="http://www.w3.org/2000/svg"
   xmlns="http://www.w3.org/2000/svg"
   xmlns:sodipodi="http://sodipodi.sourceforge.net/DTD/sodipodi-0.dtd"
   xmlns:inkscape="http://www.inkscape.org/namespaces/inkscape"
   width="29.722513"
   height="40.191551"
   id="svg5738"
   version="1.1"
   inkscape:version="0.48.4 r9939"
   sodipodi:docname="PATRIMONIO.svg">
  <defs
     id="defs5740" />
  <sodipodi:namedview
     id="base"
     pagecolor="#ffffff"
     bordercolor="#666666"
     borderopacity="1.0"
     inkscape:pageopacity="0.0"
     inkscape:pageshadow="2"
     inkscape:zoom="1"
     inkscape:cx="30.739323"
     inkscape:cy="10.758964"
     inkscape:document-units="px"
     inkscape:current-layer="layer1"
     showgrid="false"
     showborder="true"
     borderlayer="true"
     inkscape:showpageshadow="false"
     fit-margin-top="0"
     fit-margin-left="0"
     fit-margin-right="0"
     fit-margin-bottom="0"
     inkscape:window-width="1024"
     inkscape:window-height="741"
     inkscape:window-x="0"
     inkscape:window-y="107"
     inkscape:window-maximized="1" />
  <metadata
     id="metadata5743">
    <rdf:RDF>
      <cc:Work
         rdf:about="">
        <dc:format>image/svg+xml</dc:format>
        <dc:type
           rdf:resource="http://purl.org/dc/dcmitype/StillImage" />
        <dc:title></dc:title>
      </cc:Work>
    </rdf:RDF>
  </metadata>
  <g
     inkscape:label="Layer 1"
     inkscape:groupmode="layer"
     id="layer1"
     transform="translate(-174.25449,-729.51587)">
    <g
       style="display:inline"
       id="g11578-3-9-2-5-1"
       transform="matrix(0.85600121,0,0,0.85600121,2517.8045,575.86355)">
      <path
         id="path958-7-6-9-0-6"
         style="fill:#373748;fill-opacity:1;fill-rule:nonzero;stroke:none"
         d="m -2735.1657,189.5703 2.47,33.025 c 0,0 4.0125,3.8575 11.8825,3.8575 7.8688,0 12.8088,-3.70375 12.8088,-3.70375 l 2.4675,-33.95 -29.6288,0.77125"
         inkscape:connector-curvature="0" />
      <path
         id="path960-1-2-5-7-8"
         style="fill:#8787de;fill-opacity:1;fill-rule:nonzero;stroke:none"
         d="m -2714.8196,204.58028 c -4.9512,6.02375 -11.03,10.03875 -18.4137,11.96625 l 0.4362,5.82125 c 0,0 4.0125,3.8575 11.8825,3.8575 7.8688,0 12.8088,-3.70375 12.8088,-3.70375 l 2.4675,-33.95 -0.4663,0.0125 c -1.8625,5.8375 -4.9187,11.3775 -8.715,15.99625"
         inkscape:connector-curvature="0" />
      <path
         id="path962-1-5-7-8-7"
         style="fill:#ffffff;fill-opacity:1;fill-rule:nonzero;stroke:none"
         d="m -2710.4744,206.7003 c 0,-5.37 -4.3525,-9.7225 -9.7225,-9.7225 -5.3688,0 -9.7225,4.3525 -9.7225,9.7225 0,5.36875 4.3537,9.7225 9.7225,9.7225 5.37,0 9.7225,-4.35375 9.7225,-9.7225"
         inkscape:connector-curvature="0" />
      <path
         id="path964-3-9-7-7-0"
         style="fill:#f2f0f0;fill-opacity:1;fill-rule:nonzero;stroke:none"
         d="m -2737.4794,182.7803 -0.3088,6.01875 c 0,0 4.32,3.24125 16.6663,3.24125 12.3437,0 18.055,-3.395 18.055,-3.395 l 0,-5.40125 c 0,0 0.4625,-3.24125 -16.6663,-3.70375 -17.13,-0.46375 -17.7462,3.24 -17.7462,3.24"
         inkscape:connector-curvature="0" />
      <path
         id="path966-9-0-7-3-1"
         style="fill:#d2d0ce;fill-opacity:1;fill-rule:nonzero;stroke:none"
         d="m -2736.0919,183.8603 c 0,0 4.63,2.9325 14.5062,2.9325 9.8775,0 17.4388,-2.46875 17.4388,-2.46875 l -0.3088,3.395 c 0,0 -21.1425,4.78375 -31.6362,-3.85875"
         inkscape:connector-curvature="0" />
    </g>
  </g>
</svg>
