<?xml version="1.0" encoding="UTF-8" standalone="no"?>
<!-- Created with Inkscape (http://www.inkscape.org/) -->

<svg
   xmlns:dc="http://purl.org/dc/elements/1.1/"
   xmlns:cc="http://creativecommons.org/ns#"
   xmlns:rdf="http://www.w3.org/1999/02/22-rdf-syntax-ns#"
   xmlns:svg="http://www.w3.org/2000/svg"
   xmlns="http://www.w3.org/2000/svg"
   xmlns:sodipodi="http://sodipodi.sourceforge.net/DTD/sodipodi-0.dtd"
   xmlns:inkscape="http://www.inkscape.org/namespaces/inkscape"
   width="105.85604"
   height="92.396088"
   id="svg5738"
   version="1.1"
   inkscape:version="0.48.4 r9939"
   sodipodi:docname="autoSexta.svg">
  <defs
     id="defs5740" />
  <sodipodi:namedview
     id="base"
     pagecolor="#ffffff"
     bordercolor="#666666"
     borderopacity="1.0"
     inkscape:pageopacity="0.0"
     inkscape:pageshadow="2"
     inkscape:zoom="2.56"
     inkscape:cx="79.288553"
     inkscape:cy="6.5297091"
     inkscape:document-units="px"
     inkscape:current-layer="layer1"
     showgrid="false"
     showborder="true"
     borderlayer="true"
     inkscape:showpageshadow="false"
     fit-margin-top="0"
     fit-margin-left="0"
     fit-margin-right="0"
     fit-margin-bottom="0"
     inkscape:window-width="1600"
     inkscape:window-height="848"
     inkscape:window-x="1024"
     inkscape:window-y="0"
     inkscape:window-maximized="1" />
  <metadata
     id="metadata5743">
    <rdf:RDF>
      <cc:Work
         rdf:about="">
        <dc:format>image/svg+xml</dc:format>
        <dc:type
           rdf:resource="http://purl.org/dc/dcmitype/StillImage" />
        <dc:title></dc:title>
      </cc:Work>
    </rdf:RDF>
  </metadata>
  <g
     inkscape:label="Layer 1"
     inkscape:groupmode="layer"
     id="layer1"
     transform="translate(-236.68603,-724.72843)">
    <g
       style="display:inline"
       id="g16692"
       transform="translate(-797.62238,219.74229)">
      <g
         transform="matrix(0.85773471,0.16860975,-0.16860975,0.85773471,1195.2567,490.48678)"
         id="g6369-5-0-3-4-9-0-1-5-5-2"
         style="display:inline">
        <path
           inkscape:connector-curvature="0"
           d="m -114.11531,99.839515 c -0.2425,-6.09125 -6.5775,-13.4025 -6.94375,-21.80875 -0.365,-8.40625 5.60375,-10.4775 5.72625,-18.39625 0.11125,-7.26125 -3.77375,-10.935 -11.0875,-11.49625 l 0,-1.175 -5.36125,0 0,1.29 c -6.61625,0.8175 -10.3875,4.2425 -10.59875,10.04125 -0.24375,6.7 4.63,8.40625 4.5075,18.7625 -0.0863,7.325 -5.72625,15.35 -5.97,22.66 -0.2425,7.311255 4.7525,6.580005 14.7425,6.458755 9.99,-0.1225 15.23,-0.245 14.985,-6.336255"
           style="fill:#ee2446;fill-opacity:1;fill-rule:nonzero;stroke:none"
           id="path210-8-8-2-4-8-6-4-5-0-2" />
        <path
           inkscape:connector-curvature="0"
           d="m -130.80531,47.450765 c 0,0 0.48625,-2.68 0.73,-4.1425 0.24375,-1.46125 1.94875,-1.21875 2.07125,-0.12125 0.1225,1.09625 0.36625,4.62875 0.36625,4.62875 0,0 -2.03125,1.495 -3.1675,-0.365"
           style="fill:#ed1f31;fill-opacity:1;fill-rule:nonzero;stroke:none"
           id="path214-4-8-4-2-1-5-3-1-4-5" />
        <path
           inkscape:connector-curvature="0"
           d="m -119.11031,64.142015 c 0,-4.44125 -4.36375,-8.04125 -9.74625,-8.04125 -5.3825,0 -9.7475,3.6 -9.7475,8.04125 0,4.44125 4.365,8.04125 9.7475,8.04125 5.3825,0 9.74625,-3.6 9.74625,-8.04125"
           style="fill:#f9b1c0;fill-opacity:1;fill-rule:nonzero;stroke:none"
           id="path216-7-4-8-4-1-0-5-3-2-9" />
        <path
           inkscape:connector-curvature="0"
           d="m -129.02531,69.168265 c 2.69625,0 4.89625,-1.80125 4.89625,-4.01 0,-2.21 -2.2,-4.01 -4.89625,-4.01 -2.69625,0 -4.895,1.8 -4.895,4.01 0,2.20875 2.19875,4.01 4.895,4.01"
           style="fill:#f03c52;fill-opacity:1;fill-rule:evenodd;stroke:none"
           id="path218-5-7-7-9-7-1-3-4-9-5" />
      </g>
      <g
         transform="matrix(0.7934425,-0.36686112,0.36686112,0.7934425,1136.7211,432.91478)"
         id="g6369-5-0-3-4-9-0-6-9"
         style="display:inline">
        <path
           inkscape:connector-curvature="0"
           d="m -114.11531,99.839515 c -0.2425,-6.09125 -6.5775,-13.4025 -6.94375,-21.80875 -0.365,-8.40625 5.60375,-10.4775 5.72625,-18.39625 0.11125,-7.26125 -3.77375,-10.935 -11.0875,-11.49625 l 0,-1.175 -5.36125,0 0,1.29 c -6.61625,0.8175 -10.3875,4.2425 -10.59875,10.04125 -0.24375,6.7 4.63,8.40625 4.5075,18.7625 -0.0863,7.325 -5.72625,15.35 -5.97,22.66 -0.2425,7.311255 4.7525,6.580005 14.7425,6.458755 9.99,-0.1225 15.23,-0.245 14.985,-6.336255"
           style="fill:#ee2446;fill-opacity:1;fill-rule:nonzero;stroke:none"
           id="path210-8-8-2-4-8-6-3-4" />
        <path
           inkscape:connector-curvature="0"
           d="m -130.80531,47.450765 c 0,0 0.48625,-2.68 0.73,-4.1425 0.24375,-1.46125 1.94875,-1.21875 2.07125,-0.12125 0.1225,1.09625 0.36625,4.62875 0.36625,4.62875 0,0 -2.03125,1.495 -3.1675,-0.365"
           style="fill:#ed1f31;fill-opacity:1;fill-rule:nonzero;stroke:none"
           id="path214-4-8-4-2-1-5-2-4" />
        <path
           inkscape:connector-curvature="0"
           d="m -119.11031,64.142015 c 0,-4.44125 -4.36375,-8.04125 -9.74625,-8.04125 -5.3825,0 -9.7475,3.6 -9.7475,8.04125 0,4.44125 4.365,8.04125 9.7475,8.04125 5.3825,0 9.74625,-3.6 9.74625,-8.04125"
           style="fill:#f9b1c0;fill-opacity:1;fill-rule:nonzero;stroke:none"
           id="path216-7-4-8-4-1-0-3-1" />
        <path
           inkscape:connector-curvature="0"
           d="m -129.02531,69.168265 c 2.69625,0 4.89625,-1.80125 4.89625,-4.01 0,-2.21 -2.2,-4.01 -4.89625,-4.01 -2.69625,0 -4.895,1.8 -4.895,4.01 0,2.20875 2.19875,4.01 4.895,4.01"
           style="fill:#f03c52;fill-opacity:1;fill-rule:evenodd;stroke:none"
           id="path218-5-7-7-9-7-1-4-4" />
      </g>
      <g
         transform="matrix(0.85773471,0.16860975,-0.16860975,0.85773471,1238.8706,495.23409)"
         id="g6369-5-0-3-4-9-0-1-0-8"
         style="display:inline">
        <path
           inkscape:connector-curvature="0"
           d="m -114.11531,99.839515 c -0.2425,-6.09125 -6.5775,-13.4025 -6.94375,-21.80875 -0.365,-8.40625 5.60375,-10.4775 5.72625,-18.39625 0.11125,-7.26125 -3.77375,-10.935 -11.0875,-11.49625 l 0,-1.175 -5.36125,0 0,1.29 c -6.61625,0.8175 -10.3875,4.2425 -10.59875,10.04125 -0.24375,6.7 4.63,8.40625 4.5075,18.7625 -0.0863,7.325 -5.72625,15.35 -5.97,22.66 -0.2425,7.311255 4.7525,6.580005 14.7425,6.458755 9.99,-0.1225 15.23,-0.245 14.985,-6.336255"
           style="fill:#ee2446;fill-opacity:1;fill-rule:nonzero;stroke:none"
           id="path210-8-8-2-4-8-6-4-1-5" />
        <path
           inkscape:connector-curvature="0"
           d="m -130.80531,47.450765 c 0,0 0.48625,-2.68 0.73,-4.1425 0.24375,-1.46125 1.94875,-1.21875 2.07125,-0.12125 0.1225,1.09625 0.36625,4.62875 0.36625,4.62875 0,0 -2.03125,1.495 -3.1675,-0.365"
           style="fill:#ed1f31;fill-opacity:1;fill-rule:nonzero;stroke:none"
           id="path214-4-8-4-2-1-5-3-6-5" />
        <path
           inkscape:connector-curvature="0"
           d="m -119.11031,64.142015 c 0,-4.44125 -4.36375,-8.04125 -9.74625,-8.04125 -5.3825,0 -9.7475,3.6 -9.7475,8.04125 0,4.44125 4.365,8.04125 9.7475,8.04125 5.3825,0 9.74625,-3.6 9.74625,-8.04125"
           style="fill:#f9b1c0;fill-opacity:1;fill-rule:nonzero;stroke:none"
           id="path216-7-4-8-4-1-0-5-33-0" />
        <path
           inkscape:connector-curvature="0"
           d="m -129.02531,69.168265 c 2.69625,0 4.89625,-1.80125 4.89625,-4.01 0,-2.21 -2.2,-4.01 -4.89625,-4.01 -2.69625,0 -4.895,1.8 -4.895,4.01 0,2.20875 2.19875,4.01 4.895,4.01"
           style="fill:#f03c52;fill-opacity:1;fill-rule:evenodd;stroke:none"
           id="path218-5-7-7-9-7-1-3-6-7" />
      </g>
      <g
         transform="matrix(0.86299987,-0.13917363,0.13917363,0.86299987,1190.4483,455.18902)"
         id="g6369-5-0-3-4-9-0-1-7-4-8"
         style="display:inline">
        <path
           inkscape:connector-curvature="0"
           d="m -114.11531,99.839515 c -0.2425,-6.09125 -6.5775,-13.4025 -6.94375,-21.80875 -0.365,-8.40625 5.60375,-10.4775 5.72625,-18.39625 0.11125,-7.26125 -3.77375,-10.935 -11.0875,-11.49625 l 0,-1.175 -5.36125,0 0,1.29 c -6.61625,0.8175 -10.3875,4.2425 -10.59875,10.04125 -0.24375,6.7 4.63,8.40625 4.5075,18.7625 -0.0863,7.325 -5.72625,15.35 -5.97,22.66 -0.2425,7.311255 4.7525,6.580005 14.7425,6.458755 9.99,-0.1225 15.23,-0.245 14.985,-6.336255"
           style="fill:#ee2446;fill-opacity:1;fill-rule:nonzero;stroke:none"
           id="path210-8-8-2-4-8-6-4-9-94-2" />
        <path
           inkscape:connector-curvature="0"
           d="m -130.80531,47.450765 c 0,0 0.48625,-2.68 0.73,-4.1425 0.24375,-1.46125 1.94875,-1.21875 2.07125,-0.12125 0.1225,1.09625 0.36625,4.62875 0.36625,4.62875 0,0 -2.03125,1.495 -3.1675,-0.365"
           style="fill:#ed1f31;fill-opacity:1;fill-rule:nonzero;stroke:none"
           id="path214-4-8-4-2-1-5-3-0-6-0" />
        <path
           inkscape:connector-curvature="0"
           d="m -119.11031,64.142015 c 0,-4.44125 -4.36375,-8.04125 -9.74625,-8.04125 -5.3825,0 -9.7475,3.6 -9.7475,8.04125 0,4.44125 4.365,8.04125 9.7475,8.04125 5.3825,0 9.74625,-3.6 9.74625,-8.04125"
           style="fill:#f9b1c0;fill-opacity:1;fill-rule:nonzero;stroke:none"
           id="path216-7-4-8-4-1-0-5-1-5-7" />
        <path
           inkscape:connector-curvature="0"
           d="m -129.02531,69.168265 c 2.69625,0 4.89625,-1.80125 4.89625,-4.01 0,-2.21 -2.2,-4.01 -4.89625,-4.01 -2.69625,0 -4.895,1.8 -4.895,4.01 0,2.20875 2.19875,4.01 4.895,4.01"
           style="fill:#f03c52;fill-opacity:1;fill-rule:evenodd;stroke:none"
           id="path218-5-7-7-9-7-1-3-1-8-4" />
      </g>
      <g
         transform="matrix(0.87402399,0.01483703,-0.01483703,0.87402399,1217.0186,472.65598)"
         id="g6369-5-0-3-4-9-0-1-7-1-3-1"
         style="display:inline">
        <path
           inkscape:connector-curvature="0"
           d="m -114.11531,99.839515 c -0.2425,-6.09125 -6.5775,-13.4025 -6.94375,-21.80875 -0.365,-8.40625 5.60375,-10.4775 5.72625,-18.39625 0.11125,-7.26125 -3.77375,-10.935 -11.0875,-11.49625 l 0,-1.175 -5.36125,0 0,1.29 c -6.61625,0.8175 -10.3875,4.2425 -10.59875,10.04125 -0.24375,6.7 4.63,8.40625 4.5075,18.7625 -0.0863,7.325 -5.72625,15.35 -5.97,22.66 -0.2425,7.311255 4.7525,6.580005 14.7425,6.458755 9.99,-0.1225 15.23,-0.245 14.985,-6.336255"
           style="fill:#ee2446;fill-opacity:1;fill-rule:nonzero;stroke:none"
           id="path210-8-8-2-4-8-6-4-9-9-7-7" />
        <path
           inkscape:connector-curvature="0"
           d="m -130.80531,47.450765 c 0,0 0.48625,-2.68 0.73,-4.1425 0.24375,-1.46125 1.94875,-1.21875 2.07125,-0.12125 0.1225,1.09625 0.36625,4.62875 0.36625,4.62875 0,0 -2.03125,1.495 -3.1675,-0.365"
           style="fill:#ed1f31;fill-opacity:1;fill-rule:nonzero;stroke:none"
           id="path214-4-8-4-2-1-5-3-0-4-8-4" />
        <path
           inkscape:connector-curvature="0"
           d="m -119.11031,64.142015 c 0,-4.44125 -4.36375,-8.04125 -9.74625,-8.04125 -5.3825,0 -9.7475,3.6 -9.7475,8.04125 0,4.44125 4.365,8.04125 9.7475,8.04125 5.3825,0 9.74625,-3.6 9.74625,-8.04125"
           style="fill:#f9b1c0;fill-opacity:1;fill-rule:nonzero;stroke:none"
           id="path216-7-4-8-4-1-0-5-1-2-3-3" />
        <path
           inkscape:connector-curvature="0"
           d="m -129.02531,69.168265 c 2.69625,0 4.89625,-1.80125 4.89625,-4.01 0,-2.21 -2.2,-4.01 -4.89625,-4.01 -2.69625,0 -4.895,1.8 -4.895,4.01 0,2.20875 2.19875,4.01 4.895,4.01"
           style="fill:#f03c52;fill-opacity:1;fill-rule:evenodd;stroke:none"
           id="path218-5-7-7-9-7-1-3-1-6-3-7" />
      </g>
      <g
         transform="matrix(1.0346522,0,0,1.0346522,441.61345,133.93092)"
         id="g3838-7-3-7-5"
         style="fill:#f9b1c0;fill-opacity:1;display:inline">
        <path
           sodipodi:nodetypes="cccscscccsscccsc"
           inkscape:connector-curvature="0"
           d="m 674.06737,392.73934 c -0.72604,-0.8466 -1.57273,-1.27072 -2.54008,-1.27072 -36.37725,-0.27766 -17.45168,0 -84.43015,0 l -10.62429,0 c -0.96777,0 -1.81397,0.42412 -2.53987,1.27072 -0.72527,0.8466 -1.08835,1.83485 -1.08835,2.96474 0,0.56413 0.0805,1.08159 0.24194,1.55238 l 16.56797,47.99198 c 0.24167,0.75318 0.68529,1.38772 1.3303,1.90518 0.64509,0.51811 1.33037,0.77594 2.05571,0.77594 l 61.91904,0 c 0.72534,0 1.41069,-0.25783 2.05536,-0.77594 0.64537,-0.51746 1.0887,-1.152 1.33072,-1.90518 l 16.5684,-47.99198 c 0.16134,-0.47079 0.24131,-0.98825 0.24131,-1.55238 0,-1.12989 -0.36267,-2.11814 -1.08801,-2.96474"
           style="fill:#f9b1c0;fill-opacity:1;fill-rule:nonzero;stroke:none"
           id="path1014-5-8-0-4" />
        <path
           transform="matrix(0.84487325,0,0,0.84487325,85.484013,323.47922)"
           inkscape:connector-curvature="0"
           id="path4335-8-1-7-1"
           d="m 607.36363,136.98822 c 0,-0.0863 -3.7125,-10.13389 -8.25,-22.32802 -4.5375,-12.19412 -8.25,-22.36103 -8.25,-22.593122 0,-0.232092 21.39375,-0.421986 47.54166,-0.421986 27.62046,0 47.47183,0.186739 47.375,0.44565 -0.0917,0.245108 -4.10416,10.477018 -8.91666,22.737588 l -8.75,22.29193 -30.375,0.0124 c -16.70625,0.007 -30.375,-0.0582 -30.375,-0.14446 z"
           style="fill:#f9b1c0;fill-opacity:1;stroke:none" />
      </g>
      <path
         inkscape:connector-curvature="0"
         id="path4333-4-4-7-2"
         d="m 1045.371,548.16704 15.2976,41.08504 53.7603,0 16.1716,-41.08504 z"
         style="fill:#ee2446;fill-opacity:1;stroke:none;display:inline" />
    </g>
  </g>
</svg>
