<?xml version="1.0" encoding="UTF-8" standalone="no"?>
<!-- Created with Inkscape (http://www.inkscape.org/) -->

<svg
   xmlns:dc="http://purl.org/dc/elements/1.1/"
   xmlns:cc="http://creativecommons.org/ns#"
   xmlns:rdf="http://www.w3.org/1999/02/22-rdf-syntax-ns#"
   xmlns:svg="http://www.w3.org/2000/svg"
   xmlns="http://www.w3.org/2000/svg"
   xmlns:sodipodi="http://sodipodi.sourceforge.net/DTD/sodipodi-0.dtd"
   xmlns:inkscape="http://www.inkscape.org/namespaces/inkscape"
   width="27.108425"
   height="54.704578"
   id="svg5738"
   version="1.1"
   inkscape:version="0.48.4 r9939"
   sodipodi:docname="PRESTAMISTA.svg">
  <defs
     id="defs5740" />
  <sodipodi:namedview
     id="base"
     pagecolor="#ffffff"
     bordercolor="#666666"
     borderopacity="1.0"
     inkscape:pageopacity="0.0"
     inkscape:pageshadow="2"
     inkscape:zoom="7.2407734"
     inkscape:cx="28.049281"
     inkscape:cy="29.558582"
     inkscape:document-units="px"
     inkscape:current-layer="layer1"
     showgrid="false"
     showborder="true"
     borderlayer="true"
     inkscape:showpageshadow="false"
     fit-margin-top="0"
     fit-margin-left="0"
     fit-margin-right="0"
     fit-margin-bottom="0"
     inkscape:window-width="1600"
     inkscape:window-height="848"
     inkscape:window-x="1024"
     inkscape:window-y="0"
     inkscape:window-maximized="1" />
  <metadata
     id="metadata5743">
    <rdf:RDF>
      <cc:Work
         rdf:about="">
        <dc:format>image/svg+xml</dc:format>
        <dc:type
           rdf:resource="http://purl.org/dc/dcmitype/StillImage" />
        <dc:title></dc:title>
      </cc:Work>
    </rdf:RDF>
  </metadata>
  <g
     inkscape:label="Layer 1"
     inkscape:groupmode="layer"
     id="layer1"
     transform="translate(-176.94453,-733.80246)">
    <g
       style="display:inline"
       transform="matrix(0.1060998,0,0,-0.1060998,185.22818,1716.028)"
       id="g4677-0-0-9-4-4-6-8">
      <path
         id="path632-6-3-9-7-2-7-2-7"
         style="fill:#e1c81c;fill-opacity:1;fill-rule:nonzero;stroke:none"
         d="m -78.069442,8770.9071 0,451.85 255.490002,0 0,-454.36 c 0,0 -39.01,-26.43 -125.860002,-26.43 -86.84,0 -129.63,28.94 -129.63,28.94"
         inkscape:connector-curvature="0" />
      <path
         id="path634-9-2-8-3-2-4-5-4"
         style="fill:#36b981;fill-opacity:1;fill-rule:nonzero;stroke:none"
         d="m -60.449442,9167.3771 1.26,-351.15 c 0,0 28.94,-31.47 104.46,-31.47 75.520002,0 109.500002,32.72 109.500002,32.72 l 0,344.86 c 0,0 -50.34,-21.39 -109.500002,-21.39 -59.15,0 -105.72,26.43 -105.72,26.43"
         inkscape:connector-curvature="0" />
      <path
         id="path636-6-3-6-7-8-4-0-8"
         style="fill:#e8e5e4;fill-opacity:1;fill-rule:nonzero;stroke:none"
         d="m -78.069442,9222.7571 c -1.26,-41.54 254.240002,-46.57 255.490002,-1.26 1.26,45.31 -254.010002,50.34 -255.490002,1.26"
         inkscape:connector-curvature="0" />
    </g>
  </g>
</svg>
