<?xml version="1.0" encoding="UTF-8" standalone="no"?>
<!-- Created with Inkscape (http://www.inkscape.org/) -->

<svg
   xmlns:dc="http://purl.org/dc/elements/1.1/"
   xmlns:cc="http://creativecommons.org/ns#"
   xmlns:rdf="http://www.w3.org/1999/02/22-rdf-syntax-ns#"
   xmlns:svg="http://www.w3.org/2000/svg"
   xmlns="http://www.w3.org/2000/svg"
   xmlns:sodipodi="http://sodipodi.sourceforge.net/DTD/sodipodi-0.dtd"
   xmlns:inkscape="http://www.inkscape.org/namespaces/inkscape"
   width="105.85604"
   height="89.526794"
   id="svg5738"
   version="1.1"
   inkscape:version="0.48.4 r9939"
   sodipodi:docname="creditoPFSexta.svg">
  <defs
     id="defs5740" />
  <sodipodi:namedview
     id="base"
     pagecolor="#ffffff"
     bordercolor="#666666"
     borderopacity="1.0"
     inkscape:pageopacity="0.0"
     inkscape:pageshadow="2"
     inkscape:zoom="2.56"
     inkscape:cx="82.807507"
     inkscape:cy="-4.4928337"
     inkscape:document-units="px"
     inkscape:current-layer="layer1"
     showgrid="false"
     showborder="true"
     borderlayer="true"
     inkscape:showpageshadow="false"
     fit-margin-top="0"
     fit-margin-left="0"
     fit-margin-right="0"
     fit-margin-bottom="0"
     inkscape:window-width="1600"
     inkscape:window-height="848"
     inkscape:window-x="1024"
     inkscape:window-y="0"
     inkscape:window-maximized="1" />
  <metadata
     id="metadata5743">
    <rdf:RDF>
      <cc:Work
         rdf:about="">
        <dc:format>image/svg+xml</dc:format>
        <dc:type
           rdf:resource="http://purl.org/dc/dcmitype/StillImage" />
        <dc:title></dc:title>
      </cc:Work>
    </rdf:RDF>
  </metadata>
  <g
     inkscape:label="Layer 1"
     inkscape:groupmode="layer"
     id="layer1"
     transform="translate(-233.16707,-716.57518)">
    <g
       style="display:inline"
       id="g16785"
       transform="translate(-761.84464,334.71529)">
      <g
         id="g4677-0-0-9-4-4-2-0-9"
         transform="matrix(0.10364428,-0.03460521,-0.03460521,-0.10364428,1329.2973,1352.9353)"
         style="display:inline">
        <path
           inkscape:connector-curvature="0"
           d="m -78.069442,8770.9071 0,451.85 255.490002,0 0,-454.36 c 0,0 -39.01,-26.43 -125.860002,-26.43 -86.84,0 -129.63,28.94 -129.63,28.94"
           style="fill:#e1c81c;fill-opacity:1;fill-rule:nonzero;stroke:none"
           id="path632-6-3-9-7-2-7-4-6-4" />
        <path
           inkscape:connector-curvature="0"
           d="m -60.449442,9167.3771 1.26,-351.15 c 0,0 28.94,-31.47 104.46,-31.47 75.520002,0 109.500002,32.72 109.500002,32.72 l 0,344.86 c 0,0 -50.34,-21.39 -109.500002,-21.39 -59.15,0 -105.72,26.43 -105.72,26.43"
           style="fill:#36b981;fill-opacity:1;fill-rule:nonzero;stroke:none"
           id="path634-9-2-8-3-2-4-9-1-9" />
        <path
           inkscape:connector-curvature="0"
           d="m -78.069442,9222.7571 c -1.26,-41.54 254.240002,-46.57 255.490002,-1.26 1.26,45.31 -254.010002,50.34 -255.490002,1.26"
           style="fill:#e8e5e4;fill-opacity:1;fill-rule:nonzero;stroke:none"
           id="path636-6-3-6-7-8-4-4-8-3" />
      </g>
      <g
         id="g4677-0-0-9-4-4-2-7-2-3-2"
         transform="matrix(0.10875473,-0.01058614,-0.01058614,-0.10875473,1144.5245,1389.3937)"
         style="display:inline">
        <path
           inkscape:connector-curvature="0"
           d="m -78.069442,8770.9071 0,451.85 255.490002,0 0,-454.36 c 0,0 -39.01,-26.43 -125.860002,-26.43 -86.84,0 -129.63,28.94 -129.63,28.94"
           style="fill:#e1c81c;fill-opacity:1;fill-rule:nonzero;stroke:none"
           id="path632-6-3-9-7-2-7-4-0-3-2-9" />
        <path
           inkscape:connector-curvature="0"
           d="m -60.449442,9167.3771 1.26,-351.15 c 0,0 28.94,-31.47 104.46,-31.47 75.520002,0 109.500002,32.72 109.500002,32.72 l 0,344.86 c 0,0 -50.34,-21.39 -109.500002,-21.39 -59.15,0 -105.72,26.43 -105.72,26.43"
           style="fill:#36b981;fill-opacity:1;fill-rule:nonzero;stroke:none"
           id="path634-9-2-8-3-2-4-9-9-6-6-7" />
        <path
           inkscape:connector-curvature="0"
           d="m -78.069442,9222.7571 c -1.26,-41.54 254.240002,-46.57 255.490002,-1.26 1.26,45.31 -254.010002,50.34 -255.490002,1.26"
           style="fill:#e8e5e4;fill-opacity:1;fill-rule:nonzero;stroke:none"
           id="path636-6-3-6-7-8-4-4-3-2-9-4" />
      </g>
      <g
         id="g4677-0-0-9-4-4-2-7-8-8-9"
         transform="matrix(0.10843257,0.01349207,0.01349207,-0.10843257,950.248,1395.3506)"
         style="display:inline">
        <path
           inkscape:connector-curvature="0"
           d="m -78.069442,8770.9071 0,451.85 255.490002,0 0,-454.36 c 0,0 -39.01,-26.43 -125.860002,-26.43 -86.84,0 -129.63,28.94 -129.63,28.94"
           style="fill:#e1c81c;fill-opacity:1;fill-rule:nonzero;stroke:none"
           id="path632-6-3-9-7-2-7-4-0-6-5-6" />
        <path
           inkscape:connector-curvature="0"
           d="m -60.449442,9167.3771 1.26,-351.15 c 0,0 28.94,-31.47 104.46,-31.47 75.520002,0 109.500002,32.72 109.500002,32.72 l 0,344.86 c 0,0 -50.34,-21.39 -109.500002,-21.39 -59.15,0 -105.72,26.43 -105.72,26.43"
           style="fill:#36b981;fill-opacity:1;fill-rule:nonzero;stroke:none"
           id="path634-9-2-8-3-2-4-9-9-63-1-0" />
        <path
           inkscape:connector-curvature="0"
           d="m -78.069442,9222.7571 c -1.26,-41.54 254.240002,-46.57 255.490002,-1.26 1.26,45.31 -254.010002,50.34 -255.490002,1.26"
           style="fill:#e8e5e4;fill-opacity:1;fill-rule:nonzero;stroke:none"
           id="path636-6-3-6-7-8-4-4-3-0-0-9" />
      </g>
      <g
         id="g4677-0-0-9-4-4-2-7-28-5"
         transform="matrix(0.10843257,0.01349207,0.01349207,-0.10843257,915.1259,1397.6477)"
         style="display:inline">
        <path
           inkscape:connector-curvature="0"
           d="m -78.069442,8770.9071 0,451.85 255.490002,0 0,-454.36 c 0,0 -39.01,-26.43 -125.860002,-26.43 -86.84,0 -129.63,28.94 -129.63,28.94"
           style="fill:#e1c81c;fill-opacity:1;fill-rule:nonzero;stroke:none"
           id="path632-6-3-9-7-2-7-4-0-8-3" />
        <path
           inkscape:connector-curvature="0"
           d="m -60.449442,9167.3771 1.26,-351.15 c 0,0 28.94,-31.47 104.46,-31.47 75.520002,0 109.500002,32.72 109.500002,32.72 l 0,344.86 c 0,0 -50.34,-21.39 -109.500002,-21.39 -59.15,0 -105.72,26.43 -105.72,26.43"
           style="fill:#36b981;fill-opacity:1;fill-rule:nonzero;stroke:none"
           id="path634-9-2-8-3-2-4-9-9-67-2" />
        <path
           inkscape:connector-curvature="0"
           d="m -78.069442,9222.7571 c -1.26,-41.54 254.240002,-46.57 255.490002,-1.26 1.26,45.31 -254.010002,50.34 -255.490002,1.26"
           style="fill:#e8e5e4;fill-opacity:1;fill-rule:nonzero;stroke:none"
           id="path636-6-3-6-7-8-4-4-3-4-0" />
      </g>
      <g
         transform="matrix(1.0346522,0,0,1.0346522,402.31675,7.9353792)"
         id="g3838-7-0-0"
         style="fill:#00aa44;fill-opacity:1;display:inline">
        <path
           sodipodi:nodetypes="cccscscccsscccsc"
           inkscape:connector-curvature="0"
           d="m 674.06737,392.73934 c -0.72604,-0.8466 -1.57273,-1.27072 -2.54008,-1.27072 -36.37725,-0.27766 -17.45168,0 -84.43015,0 l -10.62429,0 c -0.96777,0 -1.81397,0.42412 -2.53987,1.27072 -0.72527,0.8466 -1.08835,1.83485 -1.08835,2.96474 0,0.56413 0.0805,1.08159 0.24194,1.55238 l 16.56797,47.99198 c 0.24167,0.75318 0.68529,1.38772 1.3303,1.90518 0.64509,0.51811 1.33037,0.77594 2.05571,0.77594 l 61.91904,0 c 0.72534,0 1.41069,-0.25783 2.05536,-0.77594 0.64537,-0.51746 1.0887,-1.152 1.33072,-1.90518 l 16.5684,-47.99198 c 0.16134,-0.47079 0.24131,-0.98825 0.24131,-1.55238 0,-1.12989 -0.36267,-2.11814 -1.08801,-2.96474"
           style="fill:#00aa44;fill-opacity:1;fill-rule:nonzero;stroke:none"
           id="path1014-5-7-8" />
        <path
           transform="matrix(0.84487325,0,0,0.84487325,85.484013,323.47922)"
           inkscape:connector-curvature="0"
           id="path4335-8-2-2"
           d="m 607.36363,136.98822 c 0,-0.0863 -3.7125,-10.13389 -8.25,-22.32802 -4.5375,-12.19412 -8.25,-22.36103 -8.25,-22.593122 0,-0.232092 21.39375,-0.421986 47.54166,-0.421986 27.62046,0 47.47183,0.186739 47.375,0.44565 -0.0917,0.245108 -4.10416,10.477018 -8.91666,22.737588 l -8.75,22.29193 -30.375,0.0124 c -16.70625,0.007 -30.375,-0.0582 -30.375,-0.14446 z"
           style="fill:#00aa44;fill-opacity:1;stroke:none" />
      </g>
      <path
         inkscape:connector-curvature="0"
         id="path4333-4-7-6"
         d="m 1006.0743,422.17154 15.2976,41.08505 53.7602,0 16.1717,-41.08505 z"
         style="fill:#e1c81c;fill-opacity:1;stroke:none;display:inline" />
    </g>
  </g>
</svg>
