<?xml version="1.0" encoding="UTF-8" standalone="no"?>
<!-- Created with Inkscape (http://www.inkscape.org/) -->

<svg
   xmlns:dc="http://purl.org/dc/elements/1.1/"
   xmlns:cc="http://creativecommons.org/ns#"
   xmlns:rdf="http://www.w3.org/1999/02/22-rdf-syntax-ns#"
   xmlns:svg="http://www.w3.org/2000/svg"
   xmlns="http://www.w3.org/2000/svg"
   xmlns:sodipodi="http://sodipodi.sourceforge.net/DTD/sodipodi-0.dtd"
   xmlns:inkscape="http://www.inkscape.org/namespaces/inkscape"
   id="svg3039"
   version="1.1"
   inkscape:version="0.48.4 r9939"
   width="78.989655"
   height="79.013336"
   sodipodi:docname="trofeu.svg">
  <metadata
     id="metadata3045">
    <rdf:RDF>
      <cc:Work
         rdf:about="">
        <dc:format>image/svg+xml</dc:format>
        <dc:type
           rdf:resource="http://purl.org/dc/dcmitype/StillImage" />
        <dc:title />
      </cc:Work>
    </rdf:RDF>
  </metadata>
  <defs
     id="defs3043">
    <marker
       orient="auto"
       markerHeight="3"
       markerWidth="4"
       markerUnits="strokeWidth"
       refY="5"
       refX="10"
       viewBox="0 0 10 10"
       id="ArrowStart">
      <path
         id="path3868"
         d="M 10,0 0,5 10,10 z"
         inkscape:connector-curvature="0" />
    </marker>
    <marker
       orient="auto"
       markerHeight="3"
       markerWidth="4"
       markerUnits="strokeWidth"
       refY="5"
       refX="0"
       viewBox="0 0 10 10"
       id="ArrowEnd">
      <path
         id="path3865"
         d="M 0,0 10,5 0,10 z"
         inkscape:connector-curvature="0" />
    </marker>
  </defs>
  <sodipodi:namedview
     pagecolor="#ffffff"
     bordercolor="#666666"
     borderopacity="1"
     objecttolerance="10"
     gridtolerance="10"
     guidetolerance="10"
     inkscape:pageopacity="0"
     inkscape:pageshadow="2"
     inkscape:window-width="1366"
     inkscape:window-height="716"
     id="namedview3041"
     showgrid="false"
     showguides="true"
     inkscape:guide-bbox="true"
     fit-margin-top="0"
     fit-margin-left="0"
     fit-margin-right="0"
     fit-margin-bottom="0"
     inkscape:zoom="4.0000001"
     inkscape:cx="70.182662"
     inkscape:cy="31.075759"
     inkscape:window-x="0"
     inkscape:window-y="25"
     inkscape:window-maximized="1"
     inkscape:current-layer="g3962" />
  <g
     style="fill-rule:evenodd"
     id="g3878"
     transform="matrix(1.25,0,0,1.25,-255.63222,-332.25392)">
    <g
       id="g3950"
       transform="matrix(1.0301811,0,0,1.0039629,-11.999559,-4.2355038)">
      <g
         id="g3962">
        <g
           id="g3971"
           transform="matrix(0.61719798,0,0,0.61719798,80.450593,127.06496)">
          <path
             transform="matrix(0.8,0,0,0.8,208.46877,230.32645)"
             sodipodi:nodetypes="cczcccccccccccczcccczsaazccc"
             inkscape:connector-curvature="0"
             id="path3059"
             d="m 26.557079,10.45249 -18.9893364,-4e-6 c 0,0 -0.03957,-4.6001951 -0.03957,13.231286 0,17.831481 20.2688674,37.584524 41.2279214,37.584524 l 0,18.216988 8.245584,0 0,14.957106 -7.670311,0 0,4.985702 29.147184,0 0,-4.985702 -7.478555,0 0,-14.765348 7.286797,0 0,-18.402754 c 22.829777,0 41.977857,-23.198476 41.977857,-37.596318 0,-14.397842 0,-13.22548 0,-13.22548 l -18.71186,0 0,-10.45080249 -5.240766,0 c 0,0 -18.462367,30.81428149 -18.462367,31.97775749 0,1.163476 1.723195,11.925985 0,14.844303 -2.759555,4.673445 -8.835545,7.583612 -14.160828,7.589012 -5.175721,0.0052 -11.031098,-2.846296 -13.777299,-7.347946 -2.444433,-4.006985 -0.375,-13.102688 -0.375,-14.17667 0,-1.073982 -18.23799,-32.87119619 -18.23799,-32.87119619 l -5.237288,0 0,10.43554119"
             style="fill:#ffcc00;stroke:#ffcc00;stroke-width:1px;stroke-linecap:round;stroke-linejoin:round;stroke-opacity:1" />
          <path
             inkscape:transform-center-y="3.8771427"
             transform="matrix(0,-0.86777376,0.86583232,0,269.23597,276.5542)"
             d="m 52.773672,1.2568645 -10.723008,-6.1909324 -10.723009,-6.1909331 10.723009,-6.190931 10.723009,-6.190932 0,12.381864 z"
             inkscape:randomized="0"
             inkscape:rounded="0"
             inkscape:flatsided="false"
             sodipodi:arg2="2.0943951"
             sodipodi:arg1="1.0471976"
             sodipodi:r2="7.1486726"
             sodipodi:r1="14.297345"
             sodipodi:cy="-11.125"
             sodipodi:cx="45.625"
             sodipodi:sides="3"
             id="path3833"
             style="fill:#ffcc00;fill-opacity:1;stroke:#ffcc00;stroke-linecap:round;stroke-linejoin:round;stroke-opacity:1"
             sodipodi:type="star" />
          <path
             transform="matrix(0.8,0,0,0.8,208.46877,230.32645)"
             inkscape:connector-curvature="0"
             id="path3835"
             d="m 52.29536,30.125 6.44703,-6.44703 -13.587556,-23.53433717 -10.171974,0 z"
             style="fill:#00a1f1;fill-opacity:1;stroke:#00a1f1;stroke-width:1px;stroke-linecap:butt;stroke-linejoin:miter;stroke-opacity:1" />
          <path
             transform="matrix(0.8,0,0,0.8,208.46877,230.32645)"
             inkscape:connector-curvature="0"
             id="path3837"
             d="m 75.253122,29.977323 -6.651225,-6.651224 13.385276,-23.18397107 10.678455,0 z"
             style="fill:#00a1f1;fill-opacity:1;stroke:#00a1f1;stroke-width:1px;stroke-linecap:butt;stroke-linejoin:miter;stroke-opacity:1" />
          <path
             transform="matrix(0.8,0,0,0.8,206.94084,229.90218)"
             d="m 76.721085,40.141983 c 0,5.955496 -4.827883,10.783379 -10.783379,10.783379 -5.955496,0 -10.783379,-4.827883 -10.783379,-10.783379 0,-5.955496 4.827883,-10.783379 10.783379,-10.783379 5.955496,0 10.783379,4.827883 10.783379,10.783379 z"
             sodipodi:ry="10.783379"
             sodipodi:rx="10.783379"
             sodipodi:cy="40.141983"
             sodipodi:cx="65.937706"
             id="path3839"
             style="fill:#ffcc00;fill-opacity:1;stroke:#ffcc00;stroke-linecap:round;stroke-linejoin:round;stroke-opacity:1"
             sodipodi:type="arc" />
          <rect
             transform="matrix(0.8,0,0,0.8,208.46877,230.32645)"
             y="102.46778"
             x="2.8256364"
             height="23.814426"
             width="122.81443"
             id="rect3841"
             style="fill:#333333;fill-opacity:1;stroke:#333333;stroke-width:1.43557167;stroke-linecap:round;stroke-linejoin:round;stroke-opacity:1" />
          <path
             inkscape:connector-curvature="0"
             style="fill:#ffffff;fill-rule:evenodd;stroke:none"
             d="m 262.22442,258.83713 0.90656,0.62121 0.88712,-0.59285 0.002,-1.21812 -1.7953,1.18976 z m -5.24207,6.45532 -0.90332,-0.61594 -0.91345,0.61715 0.009,1.19367 1.80785,-1.19488 z m 3.43084,-5.26881 0.88522,0.59555 -4.20667,2.84636 2.59949,1.75437 1.22068,-0.82728 -0.94829,-0.6281 2.18869,-1.467 1.83122,1.215 -4.42424,2.94913 -4.36535,-2.9286 5.21925,-3.50943 z m -1.65715,4.03786 -0.88536,-0.59554 4.20668,-2.84636 -2.59936,-1.75438 -1.22082,0.82729 0.9483,0.62809 -2.18856,1.467 -1.83135,-1.215 4.40857,-2.94913 4.37682,2.94143 -5.21492,3.4966 z"
             id="path3882" />
        </g>
        <g
           transform="matrix(0.98719295,0,0,1.0129732,-0.38828123,0.99605272)"
           style="font-size:10.41065598px;font-style:normal;font-weight:normal;line-height:125%;letter-spacing:0px;word-spacing:0px;fill:#ffffff;fill-opacity:1;stroke:none;font-family:Sans"
           id="text2996">
          <path
             d="m 220.53586,317.63298 c 1.048,1e-5 1.84962,0.19087 2.40486,0.57259 0.56217,0.38173 0.84326,0.9786 0.84326,1.79063 0,0.42337 -0.0764,0.78774 -0.22903,1.09312 -0.14576,0.29844 -0.36091,0.54483 -0.64546,0.73916 -0.28456,0.18739 -0.63159,0.3262 -1.04107,0.41642 -0.40949,0.0902 -0.87797,0.13534 -1.40543,0.13534 l -0.65588,0 0,2.5402 -1.31174,0 0,-7.11048 c 0.30538,-0.0694 0.64199,-0.11451 1.00983,-0.13534 0.37479,-0.0278 0.71834,-0.0416 1.03066,-0.0416 m 0.0937,1.13476 c -0.33315,10e-6 -0.6073,0.0104 -0.82245,0.0312 l 0,2.45692 0.63505,0 c 0.63158,0 1.11741,-0.0867 1.4575,-0.26027 0.34007,-0.18044 0.51011,-0.51705 0.51012,-1.00983 -1e-5,-0.23597 -0.0451,-0.43377 -0.13534,-0.59341 -0.0902,-0.15962 -0.21516,-0.28455 -0.37478,-0.37478 -0.15964,-0.0902 -0.3505,-0.15268 -0.57259,-0.18739 -0.21516,-0.0416 -0.44766,-0.0625 -0.69751,-0.0625"
             style="font-variant:normal;font-weight:500;font-stretch:normal;fill:#ffffff;font-family:Ubuntu;-inkscape-font-specification:Ubuntu Medium"
             id="path2999"
             inkscape:connector-curvature="0" />
          <path
             d="m 229.30293,324.92044 c -0.0972,-0.28456 -0.1978,-0.56564 -0.30191,-0.84326 -0.10411,-0.27762 -0.20474,-0.56218 -0.3019,-0.85368 l -3.03992,0 c -0.0972,0.2915 -0.1978,0.57953 -0.30191,0.86409 -0.0972,0.27762 -0.19433,0.55523 -0.29149,0.83285 l -1.3638,0 c 0.27068,-0.77039 0.52747,-1.48178 0.77039,-2.13418 0.24291,-0.6524 0.47889,-1.2701 0.70792,-1.8531 0.23598,-0.58299 0.46848,-1.13823 0.69752,-1.66571 0.22903,-0.52746 0.465,-1.04799 0.70792,-1.56159 l 1.23887,0 c 0.24291,0.5136 0.47889,1.03413 0.70792,1.56159 0.22903,0.52748 0.45807,1.08272 0.68711,1.66571 0.23597,0.583 0.47541,1.2007 0.71833,1.8531 0.24985,0.6524 0.51012,1.36379 0.7808,2.13418 l -1.41585,0 m -2.12377,-5.81956 c -0.15963,0.36785 -0.34356,0.81551 -0.55177,1.34298 -0.20127,0.52748 -0.41295,1.10006 -0.63505,1.71776 l 2.37363,0 c -0.22209,-0.6177 -0.43725,-1.19375 -0.64546,-1.72817 -0.20821,-0.53441 -0.38866,-0.9786 -0.54135,-1.33257"
             style="font-variant:normal;font-weight:500;font-stretch:normal;fill:#ffffff;font-family:Ubuntu;-inkscape-font-specification:Ubuntu Medium"
             id="path3001"
             inkscape:connector-curvature="0" />
          <path
             d="m 233.61913,317.63298 c 1.04106,1e-5 1.83574,0.19087 2.38404,0.57259 0.55523,0.38173 0.83284,0.96472 0.83285,1.74899 -1e-5,0.9786 -0.48237,1.64141 -1.44708,1.98843 0.13186,0.15964 0.28108,0.35397 0.44766,0.583 0.16656,0.22904 0.3366,0.47889 0.51012,0.74957 0.1735,0.26374 0.34007,0.53788 0.49971,0.82244 0.15962,0.27762 0.3019,0.55176 0.42684,0.82244 l -1.46791,0 c -0.13187,-0.24985 -0.27415,-0.49971 -0.42683,-0.74957 -0.1527,-0.25679 -0.30886,-0.50318 -0.46848,-0.73915 -0.1527,-0.24292 -0.30539,-0.46848 -0.45807,-0.6767 -0.15269,-0.21515 -0.29497,-0.40601 -0.42684,-0.57258 -0.0972,0.007 -0.18045,0.0104 -0.24985,0.0104 -0.0694,0 -0.13535,0 -0.19781,0 l -0.63505,0 0,2.72759 -1.31174,0 0,-7.11048 c 0.31926,-0.0694 0.65934,-0.11451 1.02025,-0.13534 0.3609,-0.0278 0.68363,-0.0416 0.96819,-0.0416 m 0.0937,1.13476 c -0.27762,1e-5 -0.53441,0.0104 -0.77039,0.0312 l 0,2.33199 0.57259,0 c 0.31926,10e-6 0.60034,-0.0174 0.84326,-0.0521 0.24291,-0.0347 0.44419,-0.0972 0.60382,-0.18739 0.16657,-0.0902 0.29149,-0.21168 0.37478,-0.36438 0.0833,-0.15268 0.12493,-0.34701 0.12493,-0.58299 0,-0.22209 -0.0417,-0.40948 -0.12493,-0.56218 -0.0833,-0.15268 -0.20474,-0.27414 -0.36437,-0.36437 -0.15269,-0.0902 -0.33661,-0.15268 -0.55176,-0.18739 -0.21516,-0.0416 -0.45114,-0.0625 -0.70793,-0.0625"
             style="font-variant:normal;font-weight:500;font-stretch:normal;fill:#ffffff;font-family:Ubuntu;-inkscape-font-specification:Ubuntu Medium"
             id="path3003"
             inkscape:connector-curvature="0" />
          <path
             d="m 243.35325,324.92044 c -0.0972,-0.28456 -0.19781,-0.56564 -0.30191,-0.84326 -0.10411,-0.27762 -0.20474,-0.56218 -0.30191,-0.85368 l -3.03991,0 c -0.0972,0.2915 -0.1978,0.57953 -0.30191,0.86409 -0.0972,0.27762 -0.19433,0.55523 -0.29149,0.83285 l -1.3638,0 c 0.27068,-0.77039 0.52747,-1.48178 0.77039,-2.13418 0.24291,-0.6524 0.47889,-1.2701 0.70792,-1.8531 0.23598,-0.58299 0.46848,-1.13823 0.69752,-1.66571 0.22903,-0.52746 0.465,-1.04799 0.70792,-1.56159 l 1.23887,0 c 0.24291,0.5136 0.47888,1.03413 0.70792,1.56159 0.22903,0.52748 0.45807,1.08272 0.68711,1.66571 0.23597,0.583 0.47541,1.2007 0.71833,1.8531 0.24985,0.6524 0.51012,1.36379 0.7808,2.13418 l -1.41585,0 m -2.12377,-5.81956 c -0.15964,0.36785 -0.34356,0.81551 -0.55177,1.34298 -0.20127,0.52748 -0.41296,1.10006 -0.63505,1.71776 l 2.37363,0 c -0.2221,-0.6177 -0.43725,-1.19375 -0.64546,-1.72817 -0.20821,-0.53441 -0.38867,-0.9786 -0.54135,-1.33257"
             style="font-variant:normal;font-weight:500;font-stretch:normal;fill:#ffffff;font-family:Ubuntu;-inkscape-font-specification:Ubuntu Medium"
             id="path3005"
             inkscape:connector-curvature="0" />
          <path
             d="m 247.85684,325.00373 c -0.38173,0 -0.76692,-0.0139 -1.15559,-0.0417 -0.38866,-0.0208 -0.72874,-0.0694 -1.02024,-0.14575 l 0,-7.00637 c 0.15269,-0.0277 0.31579,-0.052 0.4893,-0.0729 0.17351,-0.0278 0.35049,-0.0486 0.53094,-0.0625 0.18045,-0.0139 0.35743,-0.0243 0.53095,-0.0312 0.18045,-0.007 0.35049,-0.0104 0.51012,-0.0104 0.43724,1e-5 0.84326,0.0347 1.21805,0.10411 0.37478,0.0625 0.69751,0.17005 0.96819,0.32273 0.27761,0.15269 0.49276,0.35397 0.64546,0.60382 0.15268,0.24986 0.22903,0.55871 0.22903,0.92654 0,0.34009 -0.0833,0.63159 -0.24985,0.8745 -0.15964,0.24292 -0.3852,0.43725 -0.6767,0.583 0.43725,0.14575 0.75998,0.3609 0.96819,0.64546 0.20821,0.28456 0.31232,0.64546 0.31232,1.08271 0,0.74262 -0.27068,1.30133 -0.81203,1.67611 -0.54136,0.36784 -1.37074,0.55177 -2.48814,0.55177 m -0.88491,-3.33141 0,2.19664 c 0.14575,0.0139 0.30191,0.0243 0.46848,0.0312 0.16657,0.007 0.31926,0.0104 0.45807,0.0104 0.27067,0 0.52053,-0.0174 0.74957,-0.0521 0.23597,-0.0347 0.43724,-0.0937 0.60381,-0.17698 0.17351,-0.0902 0.30885,-0.20821 0.40602,-0.35396 0.1041,-0.14575 0.15615,-0.33314 0.15616,-0.56218 -1e-5,-0.40948 -0.14922,-0.69404 -0.44766,-0.85367 -0.29844,-0.15963 -0.7114,-0.23944 -1.23887,-0.23944 l -1.15558,0 m 0,-1.03066 0.92655,0 c 0.49971,10e-6 0.89184,-0.0694 1.1764,-0.20821 0.28456,-0.14575 0.42684,-0.40254 0.42684,-0.77039 0,-0.34702 -0.14922,-0.5934 -0.44766,-0.73916 -0.2915,-0.14574 -0.67322,-0.21861 -1.14517,-0.21862 -0.20128,10e-6 -0.38173,0.003 -0.54135,0.0104 -0.1527,0.007 -0.28456,0.0174 -0.39561,0.0312 l 0,1.89474"
             style="font-variant:normal;font-weight:500;font-stretch:normal;fill:#ffffff;font-family:Ubuntu;-inkscape-font-specification:Ubuntu Medium"
             id="path3007"
             inkscape:connector-curvature="0" />
          <path
             d="m 252.513,324.92044 0,-7.21458 4.63274,0 0,1.11394 -3.32099,0 0,1.78022 2.95662,0 0,1.09312 -2.95662,0 0,2.11336 3.57085,0 0,1.11394 -4.8826,0 m 4.12262,-9.35918 -1.69693,1.64488 -0.62464,-0.56217 1.53036,-1.82187 0.79121,0.73916"
             style="font-variant:normal;font-weight:500;font-stretch:normal;fill:#ffffff;font-family:Ubuntu;-inkscape-font-specification:Ubuntu Medium"
             id="path3009"
             inkscape:connector-curvature="0" />
          <path
             d="m 263.47477,324.92044 c -0.23598,-0.3956 -0.49971,-0.81897 -0.79121,-1.2701 -0.2915,-0.45807 -0.59341,-0.91613 -0.90572,-1.37421 -0.31233,-0.465 -0.63159,-0.91266 -0.95778,-1.34297 -0.31927,-0.43724 -0.62465,-0.82938 -0.91614,-1.1764 l 0,5.16368 -1.29092,0 0,-7.21458 1.07229,0 c 0.27762,0.2915 0.57606,0.63852 0.89532,1.04106 0.31926,0.39561 0.63852,0.80857 0.95778,1.23887 0.3262,0.43031 0.63852,0.86409 0.93696,1.30133 0.30537,0.43031 0.57605,0.83286 0.81203,1.20764 l 0,-4.7889 1.30133,0 0,7.21458 -1.11394,0"
             style="font-variant:normal;font-weight:500;font-stretch:normal;fill:#ffffff;font-family:Ubuntu;-inkscape-font-specification:Ubuntu Medium"
             id="path3011"
             inkscape:connector-curvature="0" />
          <path
             d="m 268.06831,323.94184 c 0.47195,0 0.8155,-0.0798 1.03066,-0.23945 0.21515,-0.15962 0.32272,-0.38519 0.32273,-0.67669 -10e-6,-0.17351 -0.0382,-0.32273 -0.11452,-0.44766 -0.0694,-0.12492 -0.17351,-0.23597 -0.31232,-0.33314 -0.13187,-0.1041 -0.29497,-0.1978 -0.4893,-0.28109 -0.19433,-0.0902 -0.41643,-0.17697 -0.66628,-0.26026 -0.24986,-0.0902 -0.49277,-0.18739 -0.72875,-0.2915 -0.22903,-0.11104 -0.43378,-0.24638 -0.61423,-0.40602 -0.17351,-0.15962 -0.31579,-0.35048 -0.42683,-0.57258 -0.10411,-0.22209 -0.15616,-0.4893 -0.15616,-0.80162 0,-0.6524 0.22556,-1.16252 0.67669,-1.53037 0.45113,-0.37478 1.06535,-0.56217 1.84269,-0.56217 0.45112,0 0.8502,0.0521 1.19722,0.15616 0.35396,0.0972 0.63158,0.20475 0.83285,0.32273 l -0.40601,1.06188 c -0.23598,-0.13186 -0.49625,-0.2325 -0.7808,-0.30191 -0.27762,-0.0694 -0.56565,-0.1041 -0.86409,-0.1041 -0.35396,0 -0.63158,0.0729 -0.83285,0.21862 -0.19433,0.14576 -0.2915,0.3505 -0.2915,0.61423 0,0.15963 0.0312,0.29844 0.0937,0.41643 0.0694,0.11105 0.1631,0.21168 0.28109,0.3019 0.12492,0.0902 0.2672,0.17352 0.42683,0.24986 0.16657,0.0763 0.34702,0.14922 0.54136,0.21862 0.34008,0.12494 0.64199,0.25333 0.90573,0.3852 0.27067,0.12493 0.49623,0.27762 0.67669,0.45807 0.18738,0.17351 0.32966,0.38172 0.42684,0.62464 0.0972,0.23597 0.14574,0.524 0.14574,0.86408 0,0.6524 -0.23251,1.15906 -0.69751,1.51996 -0.45807,0.35396 -1.13129,0.53094 -2.01967,0.53094 -0.29844,0 -0.57259,-0.0208 -0.82244,-0.0625 -0.24292,-0.0347 -0.46154,-0.0798 -0.65587,-0.13534 -0.18739,-0.0555 -0.35049,-0.11105 -0.4893,-0.16657 -0.13881,-0.0625 -0.24986,-0.11799 -0.33314,-0.16657 l 0.38519,-1.0723 c 0.18739,0.10411 0.44072,0.20821 0.75998,0.31232 0.31926,0.10411 0.70445,0.15616 1.15558,0.15616"
             style="font-variant:normal;font-weight:500;font-stretch:normal;fill:#ffffff;font-family:Ubuntu;-inkscape-font-specification:Ubuntu Medium"
             id="path3013"
             inkscape:connector-curvature="0" />
        </g>
      </g>
    </g>
  </g>
</svg>
