<?xml version="1.0" encoding="UTF-8" standalone="no"?>
<!-- Created with Inkscape (http://www.inkscape.org/) -->

<svg
   xmlns:dc="http://purl.org/dc/elements/1.1/"
   xmlns:cc="http://creativecommons.org/ns#"
   xmlns:rdf="http://www.w3.org/1999/02/22-rdf-syntax-ns#"
   xmlns:svg="http://www.w3.org/2000/svg"
   xmlns="http://www.w3.org/2000/svg"
   xmlns:sodipodi="http://sodipodi.sourceforge.net/DTD/sodipodi-0.dtd"
   xmlns:inkscape="http://www.inkscape.org/namespaces/inkscape"
   width="26.479298"
   height="53.85915"
   id="svg5738"
   version="1.1"
   inkscape:version="0.48.4 r9939"
   sodipodi:docname="VIDA.svg">
  <defs
     id="defs5740" />
  <sodipodi:namedview
     id="base"
     pagecolor="#ffffff"
     bordercolor="#666666"
     borderopacity="1.0"
     inkscape:pageopacity="0.0"
     inkscape:pageshadow="2"
     inkscape:zoom="1"
     inkscape:cx="16.781937"
     inkscape:cy="30.930172"
     inkscape:document-units="px"
     inkscape:current-layer="layer1"
     showgrid="false"
     showborder="true"
     borderlayer="true"
     inkscape:showpageshadow="false"
     fit-margin-top="0"
     fit-margin-left="0"
     fit-margin-right="0"
     fit-margin-bottom="0"
     inkscape:window-width="1024"
     inkscape:window-height="741"
     inkscape:window-x="0"
     inkscape:window-y="107"
     inkscape:window-maximized="1" />
  <metadata
     id="metadata5743">
    <rdf:RDF>
      <cc:Work
         rdf:about="">
        <dc:format>image/svg+xml</dc:format>
        <dc:type
           rdf:resource="http://purl.org/dc/dcmitype/StillImage" />
        <dc:title></dc:title>
      </cc:Work>
    </rdf:RDF>
  </metadata>
  <g
     inkscape:label="Layer 1"
     inkscape:groupmode="layer"
     id="layer1"
     transform="translate(-188.21187,-719.44666)">
    <g
       transform="matrix(0.78737131,0,0,0.78737131,3450.2468,973.34948)"
       style="display:inline"
       id="g9460-3-4-7-0-2-9-9-7-4-4">
      <path
         id="path514-2-6-7-8-5-6-7-8-6-8-1"
         style="fill:#f2f0f0;fill-opacity:1;fill-rule:nonzero;stroke:none"
         d="m -4142.6911,-310.54022 -0.2525,48.6075 18.7825,7.8675 14.8475,-11.1675 -0.38,-44.165 -14.8487,3.3 -18.1488,-4.4425"
         inkscape:connector-curvature="0" />
      <path
         id="path516-1-4-0-9-4-1-9-2-6-8"
         style="fill:#bdbdba;fill-opacity:1;fill-rule:nonzero;stroke:none"
         d="m -4124.5423,-306.09772 0.3812,52.0325 -18.7825,-7.8675 c 0,0 9.2,0.1775 13.325,-9.64625 5.33,-12.69 5.0763,-34.51875 5.0763,-34.51875"
         inkscape:connector-curvature="0" />
      <path
         id="path518-2-0-4-4-4-1-6-6-8-3-0"
         style="fill:#f2f0f0;fill-opacity:1;fill-rule:nonzero;stroke:none"
         d="m -4142.6911,-310.54022 7.9963,-6.345 0,-5.58375 15.7362,2.79125 -0.3812,5.4575 -5.2025,8.1225 -18.1488,-4.4425"
         inkscape:connector-curvature="0" />
      <path
         id="path520-4-8-6-5-9-2-6-4-0-0-2"
         style="fill:#f2f0f0;fill-opacity:1;fill-rule:nonzero;stroke:none"
         d="m -4109.6936,-309.39772 -8.2487,-5.07625 -0.1275,-5.07625 -0.8888,-0.1275 -0.3812,5.4575 -5.2025,8.1225 14.8487,-3.3"
         inkscape:connector-curvature="0" />
      <path
         id="path522-4-6-5-4-0-0-0-7-6-0"
         style="fill:#919897;fill-opacity:1;fill-rule:nonzero;stroke:none"
         d="m -4142.6911,-310.54022 18.1488,4.4425 5.2025,-8.1225 c 0,0 -3.5525,6.345 -23.3513,3.68"
         inkscape:connector-curvature="0" />
      <path
         id="path526-9-4-9-0-5-3-8-5-2-5-7"
         style="fill:#57c8df;fill-opacity:1;fill-rule:nonzero;stroke:none"
         d="m -4142.8173,-295.94522 18.275,4.95 14.975,-6.72625 0.1275,17.1325 -14.8488,9.01 -18.5287,-6.2175 0,-18.14875"
         inkscape:connector-curvature="0" />
      <path
         id="path524-0-0-8-4-7-3-6-5-8-44"
         style="fill:#919897;fill-opacity:1;fill-rule:nonzero;stroke:none"
         d="m -4133.8091,-316.78706 15.355,2.665 0.3813,-5.4575 c 0,0 0.2537,5.4575 -15.7363,2.7925"
         inkscape:connector-curvature="0" />
    </g>
  </g>
</svg>
