<?xml version="1.0" encoding="UTF-8" standalone="no"?>
<!-- Created with Inkscape (http://www.inkscape.org/) -->

<svg
   xmlns:dc="http://purl.org/dc/elements/1.1/"
   xmlns:cc="http://creativecommons.org/ns#"
   xmlns:rdf="http://www.w3.org/1999/02/22-rdf-syntax-ns#"
   xmlns:svg="http://www.w3.org/2000/svg"
   xmlns="http://www.w3.org/2000/svg"
   xmlns:sodipodi="http://sodipodi.sourceforge.net/DTD/sodipodi-0.dtd"
   xmlns:inkscape="http://www.inkscape.org/namespaces/inkscape"
   width="105.85604"
   height="96.760895"
   id="svg5738"
   version="1.1"
   inkscape:version="0.48.4 r9939"
   sodipodi:docname="capSexta.svg">
  <defs
     id="defs5740" />
  <sodipodi:namedview
     id="base"
     pagecolor="#ffffff"
     bordercolor="#666666"
     borderopacity="1.0"
     inkscape:pageopacity="0.0"
     inkscape:pageshadow="2"
     inkscape:zoom="2.56"
     inkscape:cx="136.90075"
     inkscape:cy="-3.4636141"
     inkscape:document-units="px"
     inkscape:current-layer="layer1"
     showgrid="false"
     showborder="true"
     borderlayer="true"
     inkscape:showpageshadow="false"
     fit-margin-top="0"
     fit-margin-left="0"
     fit-margin-right="0"
     fit-margin-bottom="0"
     inkscape:window-width="1600"
     inkscape:window-height="848"
     inkscape:window-x="1024"
     inkscape:window-y="0"
     inkscape:window-maximized="1" />
  <metadata
     id="metadata5743">
    <rdf:RDF>
      <cc:Work
         rdf:about="">
        <dc:format>image/svg+xml</dc:format>
        <dc:type
           rdf:resource="http://purl.org/dc/dcmitype/StillImage" />
        <dc:title></dc:title>
      </cc:Work>
    </rdf:RDF>
  </metadata>
  <g
     inkscape:label="Layer 1"
     inkscape:groupmode="layer"
     id="layer1"
     transform="translate(-179.07384,-710.3703)">
    <g
       style="display:inline"
       id="g16652"
       transform="translate(-855.27897,76.678331)">
      <g
         id="g9460-3-4-7-0-2-9-9-7-4-7-4"
         style="display:inline"
         transform="matrix(0.84193831,-0.33547376,0.33547376,0.84193831,4631.3279,-471.33962)">
        <path
           inkscape:connector-curvature="0"
           d="m -4142.6911,-310.54022 -0.2525,48.6075 18.7825,7.8675 14.8475,-11.1675 -0.38,-44.165 -14.8487,3.3 -18.1488,-4.4425"
           style="fill:#f2f0f0;fill-opacity:1;fill-rule:nonzero;stroke:none"
           id="path514-2-6-7-8-5-6-7-8-6-8-2-24" />
        <path
           inkscape:connector-curvature="0"
           d="m -4124.5423,-306.09772 0.3812,52.0325 -18.7825,-7.8675 c 0,0 9.2,0.1775 13.325,-9.64625 5.33,-12.69 5.0763,-34.51875 5.0763,-34.51875"
           style="fill:#bdbdba;fill-opacity:1;fill-rule:nonzero;stroke:none"
           id="path516-1-4-0-9-4-1-9-2-6-7-39" />
        <path
           inkscape:connector-curvature="0"
           d="m -4142.6911,-310.54022 7.9963,-6.345 0,-5.58375 15.7362,2.79125 -0.3812,5.4575 -5.2025,8.1225 -18.1488,-4.4425"
           style="fill:#f2f0f0;fill-opacity:1;fill-rule:nonzero;stroke:none"
           id="path518-2-0-4-4-4-1-6-6-8-3-6-1" />
        <path
           inkscape:connector-curvature="0"
           d="m -4109.6936,-309.39772 -8.2487,-5.07625 -0.1275,-5.07625 -0.8888,-0.1275 -0.3812,5.4575 -5.2025,8.1225 14.8487,-3.3"
           style="fill:#f2f0f0;fill-opacity:1;fill-rule:nonzero;stroke:none"
           id="path520-4-8-6-5-9-2-6-4-0-0-1-1" />
        <path
           inkscape:connector-curvature="0"
           d="m -4142.6911,-310.54022 18.1488,4.4425 5.2025,-8.1225 c 0,0 -3.5525,6.345 -23.3513,3.68"
           style="fill:#919897;fill-opacity:1;fill-rule:nonzero;stroke:none"
           id="path522-4-6-5-4-0-0-0-7-6-4-7" />
        <path
           inkscape:connector-curvature="0"
           d="m -4142.8173,-295.94522 18.275,4.95 14.975,-6.72625 0.1275,17.1325 -14.8488,9.01 -18.5287,-6.2175 0,-18.14875"
           style="fill:#57c8df;fill-opacity:1;fill-rule:nonzero;stroke:none"
           id="path526-9-4-9-0-5-3-8-5-2-5-3-2" />
        <path
           inkscape:connector-curvature="0"
           d="m -4133.8091,-316.78706 15.355,2.665 0.3813,-5.4575 c 0,0 0.2537,5.4575 -15.7363,2.7925"
           style="fill:#919897;fill-opacity:1;fill-rule:nonzero;stroke:none"
           id="path524-0-0-8-4-7-3-6-5-8-4-0" />
      </g>
      <g
         id="g9460-3-4-7-0-2-9-9-7-4-7-7-9-2"
         style="display:inline"
         transform="matrix(0.89522694,0.14132052,-0.14132052,0.89522694,4739.0583,1506.6921)">
        <path
           inkscape:connector-curvature="0"
           d="m -4142.6911,-310.54022 -0.2525,48.6075 18.7825,7.8675 14.8475,-11.1675 -0.38,-44.165 -14.8487,3.3 -18.1488,-4.4425"
           style="fill:#f2f0f0;fill-opacity:1;fill-rule:nonzero;stroke:none"
           id="path514-2-6-7-8-5-6-7-8-6-8-2-2-1-3" />
        <path
           inkscape:connector-curvature="0"
           d="m -4124.5423,-306.09772 0.3812,52.0325 -18.7825,-7.8675 c 0,0 9.2,0.1775 13.325,-9.64625 5.33,-12.69 5.0763,-34.51875 5.0763,-34.51875"
           style="fill:#bdbdba;fill-opacity:1;fill-rule:nonzero;stroke:none"
           id="path516-1-4-0-9-4-1-9-2-6-7-3-4-4" />
        <path
           inkscape:connector-curvature="0"
           d="m -4142.6911,-310.54022 7.9963,-6.345 0,-5.58375 15.7362,2.79125 -0.3812,5.4575 -5.2025,8.1225 -18.1488,-4.4425"
           style="fill:#f2f0f0;fill-opacity:1;fill-rule:nonzero;stroke:none"
           id="path518-2-0-4-4-4-1-6-6-8-3-6-9-5-5" />
        <path
           inkscape:connector-curvature="0"
           d="m -4109.6936,-309.39772 -8.2487,-5.07625 -0.1275,-5.07625 -0.8888,-0.1275 -0.3812,5.4575 -5.2025,8.1225 14.8487,-3.3"
           style="fill:#f2f0f0;fill-opacity:1;fill-rule:nonzero;stroke:none"
           id="path520-4-8-6-5-9-2-6-4-0-0-1-6-6-3" />
        <path
           inkscape:connector-curvature="0"
           d="m -4142.6911,-310.54022 18.1488,4.4425 5.2025,-8.1225 c 0,0 -3.5525,6.345 -23.3513,3.68"
           style="fill:#919897;fill-opacity:1;fill-rule:nonzero;stroke:none"
           id="path522-4-6-5-4-0-0-0-7-6-4-5-4-4" />
        <path
           inkscape:connector-curvature="0"
           d="m -4142.8173,-295.94522 18.275,4.95 14.975,-6.72625 0.1275,17.1325 -14.8488,9.01 -18.5287,-6.2175 0,-18.14875"
           style="fill:#57c8df;fill-opacity:1;fill-rule:nonzero;stroke:none"
           id="path526-9-4-9-0-5-3-8-5-2-5-3-7-1-3" />
        <path
           inkscape:connector-curvature="0"
           d="m -4133.8091,-316.78706 15.355,2.665 0.3813,-5.4575 c 0,0 0.2537,5.4575 -15.7363,2.7925"
           style="fill:#919897;fill-opacity:1;fill-rule:nonzero;stroke:none"
           id="path524-0-0-8-4-7-3-6-5-8-4-5-1-1" />
      </g>
      <g
         id="g9460-3-4-7-0-2-9-9-7-4-7-7-0"
         style="display:inline"
         transform="matrix(0.88947137,0.17390644,-0.17390644,0.88947137,4736.3418,1645.6592)">
        <path
           inkscape:connector-curvature="0"
           d="m -4142.6911,-310.54022 -0.2525,48.6075 18.7825,7.8675 14.8475,-11.1675 -0.38,-44.165 -14.8487,3.3 -18.1488,-4.4425"
           style="fill:#f2f0f0;fill-opacity:1;fill-rule:nonzero;stroke:none"
           id="path514-2-6-7-8-5-6-7-8-6-8-2-2-5" />
        <path
           inkscape:connector-curvature="0"
           d="m -4124.5423,-306.09772 0.3812,52.0325 -18.7825,-7.8675 c 0,0 9.2,0.1775 13.325,-9.64625 5.33,-12.69 5.0763,-34.51875 5.0763,-34.51875"
           style="fill:#bdbdba;fill-opacity:1;fill-rule:nonzero;stroke:none"
           id="path516-1-4-0-9-4-1-9-2-6-7-3-9" />
        <path
           inkscape:connector-curvature="0"
           d="m -4142.6911,-310.54022 7.9963,-6.345 0,-5.58375 15.7362,2.79125 -0.3812,5.4575 -5.2025,8.1225 -18.1488,-4.4425"
           style="fill:#f2f0f0;fill-opacity:1;fill-rule:nonzero;stroke:none"
           id="path518-2-0-4-4-4-1-6-6-8-3-6-9-1" />
        <path
           inkscape:connector-curvature="0"
           d="m -4109.6936,-309.39772 -8.2487,-5.07625 -0.1275,-5.07625 -0.8888,-0.1275 -0.3812,5.4575 -5.2025,8.1225 14.8487,-3.3"
           style="fill:#f2f0f0;fill-opacity:1;fill-rule:nonzero;stroke:none"
           id="path520-4-8-6-5-9-2-6-4-0-0-1-6-9" />
        <path
           inkscape:connector-curvature="0"
           d="m -4142.6911,-310.54022 18.1488,4.4425 5.2025,-8.1225 c 0,0 -3.5525,6.345 -23.3513,3.68"
           style="fill:#919897;fill-opacity:1;fill-rule:nonzero;stroke:none"
           id="path522-4-6-5-4-0-0-0-7-6-4-5-2" />
        <path
           inkscape:connector-curvature="0"
           d="m -4142.8173,-295.94522 18.275,4.95 14.975,-6.72625 0.1275,17.1325 -14.8488,9.01 -18.5287,-6.2175 0,-18.14875"
           style="fill:#57c8df;fill-opacity:1;fill-rule:nonzero;stroke:none"
           id="path526-9-4-9-0-5-3-8-5-2-5-3-7-9" />
        <path
           inkscape:connector-curvature="0"
           d="m -4133.8091,-316.78706 15.355,2.665 0.3813,-5.4575 c 0,0 0.2537,5.4575 -15.7363,2.7925"
           style="fill:#919897;fill-opacity:1;fill-rule:nonzero;stroke:none"
           id="path524-0-0-8-4-7-3-6-5-8-4-5-17" />
      </g>
      <g
         transform="matrix(1.0346522,0,0,1.0346522,441.65785,267.00156)"
         id="g3838-7-3-7-2-0"
         style="fill:#f2f0f0;fill-opacity:1;display:inline">
        <path
           sodipodi:nodetypes="cccscscccsscccsc"
           inkscape:connector-curvature="0"
           d="m 674.06737,392.73934 c -0.72604,-0.8466 -1.57273,-1.27072 -2.54008,-1.27072 -36.37725,-0.27766 -17.45168,0 -84.43015,0 l -10.62429,0 c -0.96777,0 -1.81397,0.42412 -2.53987,1.27072 -0.72527,0.8466 -1.08835,1.83485 -1.08835,2.96474 0,0.56413 0.0805,1.08159 0.24194,1.55238 l 16.56797,47.99198 c 0.24167,0.75318 0.68529,1.38772 1.3303,1.90518 0.64509,0.51811 1.33037,0.77594 2.05571,0.77594 l 61.91904,0 c 0.72534,0 1.41069,-0.25783 2.05536,-0.77594 0.64537,-0.51746 1.0887,-1.152 1.33072,-1.90518 l 16.5684,-47.99198 c 0.16134,-0.47079 0.24131,-0.98825 0.24131,-1.55238 0,-1.12989 -0.36267,-2.11814 -1.08801,-2.96474"
           style="fill:#f2f0f0;fill-opacity:1;fill-rule:nonzero;stroke:none"
           id="path1014-5-8-0-2-8" />
        <path
           transform="matrix(0.84487325,0,0,0.84487325,85.484013,323.47922)"
           inkscape:connector-curvature="0"
           id="path4335-8-1-7-7-1"
           d="m 607.36363,136.98822 c 0,-0.0863 -3.7125,-10.13389 -8.25,-22.32802 -4.5375,-12.19412 -8.25,-22.36103 -8.25,-22.593122 0,-0.232092 21.39375,-0.421986 47.54166,-0.421986 27.62046,0 47.47183,0.186739 47.375,0.44565 -0.0917,0.245108 -4.10416,10.477018 -8.91666,22.737588 l -8.75,22.29193 -30.375,0.0124 c -16.70625,0.007 -30.375,-0.0582 -30.375,-0.14446 z"
           style="fill:#f2f0f0;fill-opacity:1;stroke:none" />
      </g>
      <path
         inkscape:connector-curvature="0"
         id="path4333-4-4-7-6-4"
         d="m 1045.4154,681.23768 15.2976,41.08504 53.7603,0 16.1716,-41.08504 z"
         style="fill:#57c8df;fill-opacity:1;stroke:none;display:inline" />
    </g>
  </g>
</svg>
