<?xml version="1.0" encoding="UTF-8" standalone="no"?>
<!-- Generator: Adobe Illustrator 16.0.0, SVG Export Plug-In . SVG Version: 6.00 Build 0)  -->

<svg
   xmlns:dc="http://purl.org/dc/elements/1.1/"
   xmlns:cc="http://creativecommons.org/ns#"
   xmlns:rdf="http://www.w3.org/1999/02/22-rdf-syntax-ns#"
   xmlns:svg="http://www.w3.org/2000/svg"
   xmlns="http://www.w3.org/2000/svg"
   xmlns:sodipodi="http://sodipodi.sourceforge.net/DTD/sodipodi-0.dtd"
   xmlns:inkscape="http://www.inkscape.org/namespaces/inkscape"
   version="1.1"
   id="Layer_1"
   x="0px"
   y="0px"
   width="100"
   height="100"
   viewBox="0 0 100 100"
   enable-background="new 0 0 512 512"
   xml:space="preserve"
   inkscape:version="0.48.4 r9939"
   sodipodi:docname="dollar103.svg"><metadata
     id="metadata9"><rdf:RDF><cc:Work
         rdf:about=""><dc:format>image/svg+xml</dc:format><dc:type
           rdf:resource="http://purl.org/dc/dcmitype/StillImage" /></cc:Work></rdf:RDF></metadata><defs
     id="defs7" /><sodipodi:namedview
     pagecolor="#ffffff"
     bordercolor="#666666"
     borderopacity="1"
     objecttolerance="10"
     gridtolerance="10"
     guidetolerance="10"
     inkscape:pageopacity="0"
     inkscape:pageshadow="2"
     inkscape:window-width="1600"
     inkscape:window-height="875"
     id="namedview5"
     showgrid="false"
     inkscape:zoom="3.6875"
     inkscape:cx="95.659803"
     inkscape:cy="56.311551"
     inkscape:window-x="0"
     inkscape:window-y="0"
     inkscape:window-maximized="1"
     inkscape:current-layer="Layer_1" /><path
     d="m 50.169491,1.0169457 c -27.256622,0 -49.35593493,22.0993143 -49.35593493,49.3559363 0,27.256623 22.09931293,49.355942 49.35593493,49.355942 27.262595,0 49.355934,-22.099319 49.355934,-49.355942 0,-27.256622 -22.093339,-49.3559363 -49.355934,-49.3559363 z M 63.629197,69.429666 c -2.428078,2.723261 -5.93447,4.325978 -10.519563,4.807966 v 6.982705 H 47.265397 V 74.273681 C 39.619852,73.490351 34.890164,69.044073 33.064771,60.946618 l 9.037343,-2.355782 c 0.837503,5.090986 3.608956,7.633593 8.314348,7.633593 2.199042,0 3.825858,-0.542342 4.862139,-1.632797 1.03628,-1.090455 1.554518,-2.403983 1.554518,-3.946356 0,-1.596549 -0.518238,-2.807693 -1.554518,-3.627082 -1.036281,-0.825359 -3.343861,-1.867812 -6.916579,-3.132939 -3.211219,-1.114561 -5.723749,-2.211186 -7.531216,-3.307623 -1.807469,-1.084484 -3.277535,-2.608734 -4.404239,-4.566967 -1.126703,-1.964207 -1.692952,-4.253672 -1.692952,-6.856423 0,-3.416169 1.012187,-6.494937 3.024595,-9.230141 2.012409,-2.729232 5.181407,-4.398266 9.507376,-5.006734 v -5.39194 h 5.844248 v 5.392327 c 6.530984,0.78333 10.76055,4.476547 12.682348,11.085801 l -8.049254,3.301642 c -1.572451,-4.53072 -3.994549,-6.796079 -7.284048,-6.796079 -1.65092,0 -2.976392,0.506093 -3.970452,1.518277 -1.000233,1.012176 -1.500155,2.241255 -1.500155,3.681253 0,1.470077 0.481997,2.596782 1.445981,3.386092 0.958002,0.78333 3.024594,1.753285 6.18163,2.916048 3.470342,1.265326 6.193593,2.464128 8.16378,3.590831 1.97617,1.126704 3.548621,2.687203 4.729497,4.669343 1.174906,1.988312 1.765249,4.307855 1.765249,6.96478 -1.98e-4,4.078611 -1.217324,7.476655 -3.645213,10.193924 z"
     id="path3"
     inkscape:connector-curvature="0" /></svg>