<?xml version="1.0" encoding="UTF-8" standalone="no"?>
<!-- Created with sK1/UniConvertor (http://sk1project.org/) -->

<svg
   xmlns:dc="http://purl.org/dc/elements/1.1/"
   xmlns:cc="http://creativecommons.org/ns#"
   xmlns:rdf="http://www.w3.org/1999/02/22-rdf-syntax-ns#"
   xmlns:svg="http://www.w3.org/2000/svg"
   xmlns="http://www.w3.org/2000/svg"
   xmlns:sodipodi="http://sodipodi.sourceforge.net/DTD/sodipodi-0.dtd"
   xmlns:inkscape="http://www.inkscape.org/namespaces/inkscape"
   width="40"
   height="40"
   viewBox="0 0 32.000002 31.999998"
   id="svg2"
   version="1.1"
   inkscape:version="0.48.4 r9939"
   sodipodi:docname="logoheader.svg"
   style="fill-rule:evenodd">
  <metadata
     id="metadata26">
    <rdf:RDF>
      <cc:Work
         rdf:about="">
        <dc:format>image/svg+xml</dc:format>
        <dc:type
           rdf:resource="http://purl.org/dc/dcmitype/StillImage" />
        <dc:title />
      </cc:Work>
    </rdf:RDF>
  </metadata>
  <sodipodi:namedview
     pagecolor="#ffffff"
     bordercolor="#666666"
     borderopacity="1"
     objecttolerance="10"
     gridtolerance="10"
     guidetolerance="10"
     inkscape:pageopacity="0"
     inkscape:pageshadow="2"
     inkscape:window-width="1366"
     inkscape:window-height="716"
     id="namedview24"
     showgrid="false"
     fit-margin-top="0"
     fit-margin-left="0"
     fit-margin-right="0"
     fit-margin-bottom="0"
     inkscape:zoom="7.176234"
     inkscape:cx="24.630962"
     inkscape:cy="18.920794"
     inkscape:window-x="0"
     inkscape:window-y="25"
     inkscape:window-maximized="1"
     inkscape:current-layer="g3003" />
  <defs
     id="defs4">
    <marker
       id="ArrowEnd"
       viewBox="0 0 10 10"
       refX="0"
       refY="5"
       markerUnits="strokeWidth"
       markerWidth="4"
       markerHeight="3"
       orient="auto">
      <path
         d="M 0,0 10,5 0,10 z"
         id="path7"
         inkscape:connector-curvature="0" />
    </marker>
    <marker
       id="ArrowStart"
       viewBox="0 0 10 10"
       refX="10"
       refY="5"
       markerUnits="strokeWidth"
       markerWidth="4"
       markerHeight="3"
       orient="auto">
      <path
         d="M 10,0 0,5 10,10 z"
         id="path10"
         inkscape:connector-curvature="0" />
    </marker>
  </defs>
  <g
     id="g12"
     transform="translate(-198.92591,-503.8531)">
    <g
       id="g14">
      <g
         id="g16"
         transform="translate(15.134903,35.314773)">
        <g
           id="g3003"
           transform="matrix(0.1432479,0,0,0.1432479,157.42049,428.69305)">
          <rect
             style="fill:#000000;fill-opacity:1;stroke:#000000;stroke-linecap:round;stroke-linejoin:round;stroke-opacity:1"
             id="rect3010"
             width="39.017681"
             height="39.017681"
             x="0.5573954"
             y="0.24326508"
             transform="matrix(5.5847244,0,0,5.5847244,183.74103,279.55227)"
             ry="4.7378612" />
          <path
             inkscape:connector-curvature="0"
             id="path20"
             d="m 351.02186,324.24533 18.48399,12.665 18.088,-12.088 0.033,-24.835 -36.60499,24.258 z m -106.88201,131.618 -18.419,-12.56 -18.624,12.584 0.183,24.339 36.86,-24.363 z m 69.95101,-107.426 18.052,12.143 -85.77201,58.034 53,35.772 24.89001,-16.869 -19.33401,-12.808 44.62401,-29.909 37.337,24.772 -90.20601,60.132 -89.007,-59.714 106.41601,-71.553 z m -33.78801,82.327 -18.051,-12.142 85.771,-58.035 -52.999,-35.771 -24.89,16.869 19.333,12.807 -44.623,29.91 -37.338,-24.772 89.886,-60.132 89.24001,59.976 -106.32901,71.29 z"
             style="fill:#ffffff;fill-rule:evenodd;stroke:none" />
        </g>
      </g>
    </g>
  </g>
  <g
     id="g22"
     transform="translate(-198.92591,-503.8531)" />
</svg>
