<?xml version="1.0" encoding="utf-8"?>
<!-- Generated by IcoMoon.io -->
<!DOCTYPE svg PUBLIC "-//W3C//DTD SVG 1.1//EN" "http://www.w3.org/Graphics/SVG/1.1/DTD/svg11.dtd">
<svg version="1.1" xmlns="http://www.w3.org/2000/svg" xmlns:xlink="http://www.w3.org/1999/xlink" width="32" height="32" viewBox="0 0 32 32">
<path d="M15.77 9.683c0 1.424-1.154 2.578-2.578 2.578s-2.578-1.154-2.578-2.578c0-1.424 1.154-2.578 2.578-2.578s2.578 1.154 2.578 2.578z" fill="#000000"></path>
<path d="M20.449 19.282c0 0.913-0.74 1.653-1.653 1.653s-1.653-0.74-1.653-1.653c0-0.913 0.74-1.653 1.653-1.653s1.653 0.74 1.653 1.653z" fill="#000000"></path>
<path d="M27.859 13.849c2.078-10.168-6.183-14.821-15.352-13.357-9.17 1.462-8.825 7.010-9.365 9.657-1.074 6.632 5.755 14.046 5.755 14.046l-0.389 7.707h11.12l0.851-3.544c0 0 0.483 0.81 3.356 1.053 2.874 0.244 2.523-3.265 2.523-3.265s1.913-0.844 1.913-1.477c0-0.633-1.132-1.45-1.132-1.45s1.218 0.219 1.658-0.293c0.438-0.512-0.538-2.364-0.538-2.364s1.501-0.037 2.385-1.011c0.884-0.971-2.784-3.848-2.784-5.702zM11.978 15.239c0 0-0.063-0.687-0.093-1.030-0.276-0.073-0.543-0.171-0.799-0.285-0.303 0.257-0.908 0.769-0.908 0.769s-0.103 0.057-0.155 0.086c-0.052 0.027-1.015-0.086-1.015-0.086l-1.656-1.956v-1.168c0 0 0.637-0.54 0.955-0.81-0.069-0.261-0.111-0.529-0.129-0.804-0.418-0.191-1.252-0.572-1.252-0.572l-0.335-0.973 0.038-0.159 1.070-2.33 1.131-0.297c0 0 0.72 0.329 1.078 0.493 0.219-0.178 0.456-0.339 0.706-0.48-0.036-0.434-0.106-1.302-0.106-1.302l0.827-0.826 2.554-0.206 0.827 0.827c0 0 0.053 0.659 0.080 0.988 0.332 0.090 0.649 0.21 0.951 0.355 0.276-0.238 0.83-0.712 0.83-0.712h1.171l1.669 1.946v1.168c0 0-0.677 0.579-1.016 0.87 0.050 0.236 0.078 0.479 0.089 0.725 0.428 0.247 1.281 0.74 1.281 0.74l0.297 1.131-1.282 2.218-1.131 0.297c0 0-0.664-0.384-0.996-0.575-0.188 0.146-0.388 0.275-0.597 0.395 0.040 0.443 0.12 1.328 0.12 1.328l-0.826 0.827-2.55 0.233-0.828-0.826zM22.383 21.769l-0.725 0.191c0 0-0.426-0.247-0.64-0.369-0.121 0.093-0.249 0.176-0.383 0.252 0.025 0.285 0.077 0.852 0.077 0.852l-0.53 0.53-1.636 0.149-0.53-0.53c0 0-0.041-0.44-0.060-0.662-0.178-0.047-0.348-0.111-0.511-0.183-0.194 0.165-0.582 0.494-0.582 0.494s-0.067 0.036-0.099 0.055c-0.033 0.019-0.652-0.055-0.652-0.055l-1.062-1.256v-0.749c0 0 0.408-0.347 0.612-0.52-0.044-0.167-0.070-0.339-0.082-0.516-0.269-0.122-0.803-0.367-0.803-0.367l-0.215-0.623 0.024-0.102 0.686-1.494 0.726-0.191c0 0 0.461 0.21 0.691 0.316 0.14-0.114 0.293-0.217 0.453-0.308-0.022-0.279-0.067-0.836-0.067-0.836l0.53-0.53 1.638-0.132 0.531 0.53c0 0 0.034 0.422 0.050 0.634 0.214 0.058 0.417 0.135 0.61 0.228 0.178-0.152 0.533-0.457 0.533-0.457h0.751l1.071 1.249v0.75c0 0-0.434 0.372-0.652 0.558 0.033 0.151 0.049 0.307 0.056 0.465 0.274 0.159 0.823 0.475 0.823 0.475l0.19 0.726-0.824 1.424z" fill="#000000"></path>
</svg>
