<?xml version="1.0" encoding="UTF-8" standalone="no"?>
<!-- Created with sK1/UniConvertor (http://sk1project.org/) -->

<svg
   xmlns:dc="http://purl.org/dc/elements/1.1/"
   xmlns:cc="http://creativecommons.org/ns#"
   xmlns:rdf="http://www.w3.org/1999/02/22-rdf-syntax-ns#"
   xmlns:svg="http://www.w3.org/2000/svg"
   xmlns="http://www.w3.org/2000/svg"
   xmlns:sodipodi="http://sodipodi.sourceforge.net/DTD/sodipodi-0.dtd"
   xmlns:inkscape="http://www.inkscape.org/namespaces/inkscape"
   width="256"
   height="256"
   viewBox="0 0 204.80001 204.79999"
   id="svg3053"
   version="1.1"
   inkscape:version="0.48.4 r9939"
   sodipodi:docname="BB Central I cor com fio.cdr"
   style="fill-rule:evenodd">
  <metadata
     id="metadata3081">
    <rdf:RDF>
      <cc:Work
         rdf:about="">
        <dc:format>image/svg+xml</dc:format>
        <dc:type
           rdf:resource="http://purl.org/dc/dcmitype/StillImage" />
        <dc:title></dc:title>
      </cc:Work>
    </rdf:RDF>
  </metadata>
  <sodipodi:namedview
     pagecolor="#ffffff"
     bordercolor="#666666"
     borderopacity="1"
     objecttolerance="10"
     gridtolerance="10"
     guidetolerance="10"
     inkscape:pageopacity="0"
     inkscape:pageshadow="2"
     inkscape:window-width="1600"
     inkscape:window-height="852"
     id="namedview3079"
     showgrid="false"
     inkscape:zoom="1.2685909"
     inkscape:cx="353.78254"
     inkscape:cy="153.63308"
     inkscape:window-x="0"
     inkscape:window-y="23"
     inkscape:window-maximized="1"
     inkscape:current-layer="g3067" />
  <defs
     id="defs3055">
    <marker
       id="ArrowEnd"
       viewBox="0 0 10 10"
       refX="0"
       refY="5"
       markerUnits="strokeWidth"
       markerWidth="4"
       markerHeight="3"
       orient="auto">
      <path
         d="M 0,0 10,5 0,10 z"
         id="path3058"
         inkscape:connector-curvature="0" />
    </marker>
    <marker
       id="ArrowStart"
       viewBox="0 0 10 10"
       refX="10"
       refY="5"
       markerUnits="strokeWidth"
       markerWidth="4"
       markerHeight="3"
       orient="auto">
      <path
         d="M 10,0 0,5 10,10 z"
         id="path3061"
         inkscape:connector-curvature="0" />
    </marker>
  </defs>
  <g
     id="g3063"
     transform="translate(8.918327,-717.35501)">
    <g
       id="g3065">
      <g
         id="g3067">
        <g
           id="g3071"
           transform="matrix(3.4089019,0,0,3.4051611,-425.68638,-869.18143)"
           style="fill:#808080">
          <path
             style="fill:#808080;stroke:none"
             d="m 170.16327,474.1711 6.151,4.214 6.02,-4.022 0.011,-8.265 -12.182,8.073 z m -35.568,43.8 -6.13,-4.18 -6.198,4.188 0.061,8.1 12.267,-8.108 z m 23.278,-35.75 6.008,4.041 -28.544,19.313 17.638,11.904 8.283,-5.613 -6.435,-4.263 14.851,-9.953 12.425,8.244 -30.019,20.011 -29.62,-19.872 35.413,-23.812 z m -11.244,27.398 -6.007,-4.041 28.543,-19.313 -17.637,-11.904 -8.283,5.613 6.434,4.262 -14.85,9.954 -12.426,-8.244 29.913,-20.011 29.698,19.959 -35.385,23.725 z"
             id="path3075"
             inkscape:connector-curvature="0" />
        </g>
      </g>
    </g>
  </g>
  <g
     id="g3077"
     transform="translate(0,-637.09007)" />
</svg>
