<?xml version="1.0" encoding="utf-8"?>
<!-- Generated by IcoMoon.io -->
<!DOCTYPE svg PUBLIC "-//W3C//DTD SVG 1.1//EN" "http://www.w3.org/Graphics/SVG/1.1/DTD/svg11.dtd">
<svg version="1.1" xmlns="http://www.w3.org/2000/svg" xmlns:xlink="http://www.w3.org/1999/xlink" width="32" height="32" viewBox="0 0 32 32">
<path d="M15.357 9.595h3v3.372h1.98v-11.359c0-0.784-0.635-1.42-1.419-1.42h-14.009c-0.784 0-1.42 0.636-1.42 1.42v28.822c0 0.784 0.636 1.42 1.42 1.42h5.040v-9.228h3.904v-7.723c0-0.839 0.617-1.535 1.504-1.807v-3.496zM15.357 3.028h3v4.259h-3v-4.259zM8.519 26.975h-3v-4.259h3v4.259zM8.519 20.74h-3v-4.26h3v4.26zM8.519 13.854h-3v-4.259h3v4.259zM8.519 7.288h-3v-4.26h3v4.26zM13.521 20.74h-2.999v-4.26h2.999v4.26zM13.521 13.854h-2.999v-4.259h2.999v4.259zM13.521 7.288h-2.999v-4.26h2.999v4.26zM28.312 14.103h-11.865c-0.664 0-1.203 0.356-1.203 0.796v16.156c0 0.44 0.539 0.796 1.203 0.796h4.269v-5.173h3.428v5.173h4.169c0.664 0 1.203-0.356 1.203-0.796v-16.156c0-0.439-0.539-0.796-1.203-0.796zM19.504 29.118h-2.54v-2.387h2.54v2.387zM19.504 25.622h-2.54v-2.387h2.54v2.387zM19.504 21.763h-2.54v-2.387h2.54v2.387zM19.504 18.082h-2.54v-2.387h2.54v2.387zM23.743 25.622h-2.54v-2.387h2.54v2.387zM23.743 21.763h-2.54v-2.387h2.54v2.387zM23.743 18.082h-2.54v-2.387h2.54v2.387zM27.838 29.171h-2.54v-2.387h2.54v2.387zM27.838 25.622h-2.54v-2.387h2.54v2.387zM27.838 21.763h-2.54v-2.387h2.54v2.387zM27.838 18.082h-2.54v-2.387h2.54v2.387z" fill="#000000"></path>
</svg>
