<?xml version="1.0" encoding="utf-8"?>
<!-- Generated by IcoMoon.io -->
<!DOCTYPE svg PUBLIC "-//W3C//DTD SVG 1.1//EN" "http://www.w3.org/Graphics/SVG/1.1/DTD/svg11.dtd">
<svg version="1.1" xmlns="http://www.w3.org/2000/svg" xmlns:xlink="http://www.w3.org/1999/xlink" width="32" height="32" viewBox="0 0 32 32">
<path d="M0.020 0.002v32h8.615v-11.405h10.744c3.829 0 6.882-0.969 9.179-2.9s3.462-4.531 3.462-7.78c-0-3.219-1.177-5.671-3.513-7.368-2.297-1.697-5.635-2.547-10-2.547h-18.487zM8.636 5.488h8.051c2.297 0 3.979 0.405 5.051 1.195 1.11 0.79 1.667 1.986 1.667 3.625-0 3.19-2.238 4.801-6.718 4.801h-8.051v-9.621z" fill="#000000"></path>
</svg>
